(module ACSA08-51SURKWA_Reverse (layer F.Cu) (tedit 604E5BF9)
  (fp_text reference REF** (at 8.89 -14.605) (layer F.SilkS)
    (effects (font (size 1 1) (thickness 0.15)))
  )
  (fp_text value ACSA08-51SURKWA_Reverse (at 0 -0.5) (layer F.Fab)
    (effects (font (size 1 1) (thickness 0.15)))
  )
  (fp_line (start 6.35 13.335) (end 8.255 13.335) (layer F.SilkS) (width 0.15))
  (fp_line (start -8.255 13.335) (end -6.35 13.335) (layer F.SilkS) (width 0.15))
  (fp_line (start 6.35 -13.335) (end 8.255 -13.335) (layer F.SilkS) (width 0.15))
  (fp_line (start -6.35 -13.335) (end -6.35 -15.24) (layer F.SilkS) (width 0.15))
  (fp_line (start -8.255 -13.335) (end -6.35 -13.335) (layer F.SilkS) (width 0.15))
  (fp_line (start 8.525 12.125) (end -8.525 12.125) (layer Edge.Cuts) (width 0.1))
  (fp_line (start -8.525 12.125) (end -8.525 -12.125) (layer Edge.Cuts) (width 0.1))
  (fp_line (start 8.525 -12.125) (end 8.525 12.125) (layer Edge.Cuts) (width 0.1))
  (fp_line (start -8.525 -12.125) (end 8.525 -12.125) (layer Edge.Cuts) (width 0.1))
  (fp_line (start -8.4 12) (end -8.4 14) (layer F.Fab) (width 0.12))
  (fp_line (start -8.4 14) (end 8.4 14) (layer F.Fab) (width 0.12))
  (fp_line (start 8.4 12) (end 8.4 14) (layer F.Fab) (width 0.12))
  (fp_line (start 8.4 -14) (end -8.4 -14) (layer F.Fab) (width 0.12))
  (fp_line (start 8.4 -12) (end 8.4 -14) (layer F.Fab) (width 0.12))
  (fp_line (start -8.4 -12) (end -8.4 -14) (layer F.Fab) (width 0.12))
  (fp_line (start -8.4 12) (end -8.4 -12) (layer F.Fab) (width 0.12))
  (fp_line (start 8.4 12) (end -8.4 12) (layer F.Fab) (width 0.12))
  (fp_line (start 8.4 -12) (end 8.4 12) (layer F.Fab) (width 0.12))
  (fp_line (start -8.4 -12) (end 8.4 -12) (layer F.Fab) (width 0.12))
  (pad 3 smd rect (at 0 -13.9) (size 1.7 3) (layers F.Cu F.Paste F.Mask))
  (pad 2 smd rect (at -2.54 -13.9) (size 1.7 3) (layers F.Cu F.Paste F.Mask))
  (pad 1 smd rect (at -5.08 -13.9) (size 1.7 3) (layers F.Cu F.Paste F.Mask))
  (pad 4 smd rect (at 2.54 -13.9) (size 1.7 3) (layers F.Cu F.Paste F.Mask))
  (pad 5 smd rect (at 5.08 -13.9) (size 1.7 3) (layers F.Cu F.Paste F.Mask))
  (pad 10 smd rect (at -5.08 13.9) (size 1.7 3) (layers F.Cu F.Paste F.Mask))
  (pad 9 smd rect (at -2.54 13.9) (size 1.7 3) (layers F.Cu F.Paste F.Mask))
  (pad 6 smd rect (at 5.08 13.9) (size 1.7 3) (layers F.Cu F.Paste F.Mask))
  (pad 7 smd rect (at 2.54 13.9) (size 1.7 3) (layers F.Cu F.Paste F.Mask))
  (pad 8 smd rect (at 0 13.9) (size 1.7 3) (layers F.Cu F.Paste F.Mask))
  (model ${CUSTOMFOOTPRINTS_3DSHAPES}/ACSA08-51SURKWA.wrl
    (offset (xyz 8.4 -14 0.8))
    (scale (xyz 0.3937 0.3937 0.3937))
    (rotate (xyz 90 -180 0))
  )
)
