(module CastellatedEdge_1x04_P2.54mm (layer F.Cu) (tedit 6020D4E4)
  (fp_text reference REF** (at 3.175 10.16) (layer F.SilkS)
    (effects (font (size 1 1) (thickness 0.15)))
  )
  (fp_text value CastellatedEdge_1x04_P2.54mm (at 0 -2.54) (layer F.Fab)
    (effects (font (size 1 1) (thickness 0.15)))
  )
  (fp_line (start 0.635 -1.27) (end 2.54 -1.27) (layer F.SilkS) (width 0.15))
  (fp_line (start 2.54 -1.27) (end 2.54 1.27) (layer F.SilkS) (width 0.15))
  (fp_line (start 2.54 1.27) (end 0.635 1.27) (layer F.SilkS) (width 0.15))
  (pad 1 thru_hole rect (at 0 0) (size 2.5 1.6) (drill 1 (offset 0.45 0)) (layers *.Cu *.Mask))
  (pad 2 thru_hole rect (at 0 2.54) (size 2.5 1.6) (drill 1 (offset 0.45 0)) (layers *.Cu *.Mask))
  (pad 3 thru_hole rect (at 0 5.08) (size 2.5 1.6) (drill 1 (offset 0.45 0)) (layers *.Cu *.Mask))
  (pad 4 thru_hole rect (at 0 7.62) (size 2.5 1.6) (drill 1 (offset 0.45 0)) (layers *.Cu *.Mask))
)
