(module LED_Kingbright_AA3528SECKT_ReverseMount_NoHole_So (layer F.Cu) (tedit 60171101)
  (descr "Kingbright AA3528SECKT reverse mount LED without hole, text \"So\"")
  (tags "led smd reverse")
  (fp_text reference REF** (at 0 -2.54) (layer F.SilkS)
    (effects (font (size 1 1) (thickness 0.15)))
  )
  (fp_text value LED_Kingbright_AA3528SECKT_ReverseMount_NoHole_So (at 0 3.81) (layer F.Fab)
    (effects (font (size 1 1) (thickness 0.15)))
  )
  (fp_line (start -0.5 0) (end 0.5 -0.5) (layer F.Fab) (width 0.1))
  (fp_line (start 0.5 -0.5) (end 0.5 0.5) (layer F.Fab) (width 0.1))
  (fp_line (start -1.25 0) (end -0.5 0) (layer F.Fab) (width 0.1))
  (fp_line (start 1.25 0) (end 0.5 0) (layer F.Fab) (width 0.1))
  (fp_line (start 0.5 0.5) (end -0.5 0) (layer F.Fab) (width 0.1))
  (fp_line (start -0.5 -0.5) (end -0.5 0.5) (layer F.Fab) (width 0.1))
  (fp_line (start 1.1 -1.4) (end 1.6 -0.9) (layer F.Fab) (width 0.12))
  (fp_line (start -1.6 1.4) (end -1.6 -1.4) (layer F.Fab) (width 0.12))
  (fp_line (start 1.6 1.4) (end -1.6 1.4) (layer F.Fab) (width 0.12))
  (fp_line (start 1.6 -1.4) (end 1.6 1.4) (layer F.Fab) (width 0.12))
  (fp_line (start -1.6 -1.4) (end 1.6 -1.4) (layer F.Fab) (width 0.12))
  (fp_line (start 2 -1.8) (end 3.5 -1.8) (layer F.CrtYd) (width 0.12))
  (fp_line (start 3.5 -1.8) (end 3.5 1.8) (layer F.CrtYd) (width 0.12))
  (fp_line (start 3.5 1.8) (end 2 1.8) (layer F.CrtYd) (width 0.12))
  (fp_line (start -3.5 1.8) (end -3.5 -1.8) (layer F.CrtYd) (width 0.12))
  (fp_line (start 1.6 -1.1) (end 2.6 -1.1) (layer F.Fab) (width 0.12))
  (fp_line (start 2.6 -1.1) (end 2.6 1.1) (layer F.Fab) (width 0.12))
  (fp_line (start 2.6 1.1) (end 1.6 1.1) (layer F.Fab) (width 0.12))
  (fp_line (start -1.6 -1.1) (end -2.6 -1.1) (layer F.Fab) (width 0.12))
  (fp_line (start -2.6 1.1) (end -1.6 1.1) (layer F.Fab) (width 0.12))
  (fp_line (start -2.6 -1.1) (end -2.6 1.1) (layer F.Fab) (width 0.12))
  (fp_circle (center 0 0) (end 1.2 0) (layer F.Fab) (width 0.12))
  (fp_line (start -1.269999 1.269999) (end -1.905 1.27) (layer F.SilkS) (width 0.15))
  (fp_line (start -3.5 -1.8) (end -2 -1.8) (layer F.CrtYd) (width 0.12))
  (fp_line (start -2 1.8) (end -3.5 1.8) (layer F.CrtYd) (width 0.12))
  (fp_arc (start 0 0) (end -2 1.8) (angle -96) (layer F.CrtYd) (width 0.12))
  (fp_arc (start 0 0) (end -2 -1.8) (angle 96.02557501) (layer F.CrtYd) (width 0.12))
  (fp_arc (start 0 0) (end -1.269999 -1.269999) (angle 90) (layer F.SilkS) (width 0.15))
  (fp_arc (start 0 0) (end -1.269999 1.269999) (angle -90) (layer F.SilkS) (width 0.15))
  (fp_text user So (at 0 0) (layer B.Mask)
    (effects (font (size 5 5) (thickness 0.75)) (justify mirror))
  )
  (pad "" smd circle (at 0 0) (size 3.2 3.2) (layers F.Mask))
  (pad 1 smd rect (at -2.6 0) (size 1.4 2.6) (layers F.Cu F.Paste F.Mask))
  (pad 2 smd rect (at 2.6 0) (size 1.4 2.6) (layers F.Cu F.Paste F.Mask))
)
