EESchema Schematic File Version 4
EELAYER 30 0
EELAYER END
$Descr A3 16535 11693
encoding utf-8
Sheet 1 1
Title ""
Date ""
Rev ""
Comp ""
Comment1 ""
Comment2 ""
Comment3 ""
Comment4 ""
$EndDescr
Text Notes 600  -200 0    50   ~ 0
TODO:\n- dimension cap touch components\n- layout
$Comp
L Connector:Barrel_Jack_Switch J?
U 1 1 602AF62A
P 1700 1450
AR Path="/5FEBF4E2/602AF62A" Ref="J?"  Part="1" 
AR Path="/602AF62A" Ref="J1"  Part="1" 
F 0 "J1" H 1470 1492 50  0000 R CNN
F 1 "Barrel_Jack_Switch" H 1470 1401 50  0000 R CNN
F 2 "Connector_BarrelJack:BarrelJack_Horizontal" H 1750 1410 50  0001 C CNN
F 3 "~" H 1750 1410 50  0001 C CNN
	1    1700 1450
	1    0    0    -1  
$EndComp
$Comp
L Connector:6P6C J?
U 1 1 602AF630
P 10100 4300
AR Path="/5FEBF4E2/602AF630" Ref="J?"  Part="1" 
AR Path="/602AF630" Ref="J3"  Part="1" 
F 0 "J3" H 9770 4304 50  0000 R CNN
F 1 "6P6C" H 9770 4395 50  0000 R CNN
F 2 "Connector_RJ:RJ12_Amphenol_54601" V 10100 4325 50  0001 C CNN
F 3 "~" V 10100 4325 50  0001 C CNN
	1    10100 4300
	-1   0    0    1   
$EndComp
Wire Wire Line
	9700 4300 9600 4300
Wire Wire Line
	9600 4300 9600 4500
Wire Wire Line
	9600 4500 9700 4500
Wire Wire Line
	9700 4600 9500 4600
Wire Wire Line
	9500 4600 9500 4100
Wire Wire Line
	9500 4100 9700 4100
Wire Wire Line
	9500 4100 9500 4000
Connection ~ 9500 4100
Wire Wire Line
	9600 4500 9600 4700
Connection ~ 9600 4500
$Comp
L power:GND #PWR?
U 1 1 602AF640
P 9600 4750
AR Path="/5FEBF4E2/602AF640" Ref="#PWR?"  Part="1" 
AR Path="/602AF640" Ref="#PWR028"  Part="1" 
F 0 "#PWR028" H 9600 4500 50  0001 C CNN
F 1 "GND" H 9605 4577 50  0000 C CNN
F 2 "" H 9600 4750 50  0001 C CNN
F 3 "" H 9600 4750 50  0001 C CNN
	1    9600 4750
	1    0    0    -1  
$EndComp
$Comp
L power:+12V #PWR?
U 1 1 602AF646
P 9500 3950
AR Path="/5FEBF4E2/602AF646" Ref="#PWR?"  Part="1" 
AR Path="/602AF646" Ref="#PWR026"  Part="1" 
F 0 "#PWR026" H 9500 3800 50  0001 C CNN
F 1 "+12V" H 9515 4123 50  0000 C CNN
F 2 "" H 9500 3950 50  0001 C CNN
F 3 "" H 9500 3950 50  0001 C CNN
	1    9500 3950
	1    0    0    -1  
$EndComp
Wire Wire Line
	3750 1050 3750 950 
$Comp
L power:+12V #PWR?
U 1 1 602AF64D
P 3750 950
AR Path="/5FEBF4E2/602AF64D" Ref="#PWR?"  Part="1" 
AR Path="/602AF64D" Ref="#PWR08"  Part="1" 
F 0 "#PWR08" H 3750 800 50  0001 C CNN
F 1 "+12V" H 3765 1123 50  0000 C CNN
F 2 "" H 3750 950 50  0001 C CNN
F 3 "" H 3750 950 50  0001 C CNN
	1    3750 950 
	1    0    0    -1  
$EndComp
Wire Wire Line
	2000 1550 2100 1550
Wire Wire Line
	2100 1550 2100 1850
$Comp
L power:GND #PWR?
U 1 1 602AF655
P 2100 1900
AR Path="/5FEBF4E2/602AF655" Ref="#PWR?"  Part="1" 
AR Path="/602AF655" Ref="#PWR01"  Part="1" 
F 0 "#PWR01" H 2100 1650 50  0001 C CNN
F 1 "GND" H 2105 1727 50  0000 C CNN
F 2 "" H 2100 1900 50  0001 C CNN
F 3 "" H 2100 1900 50  0001 C CNN
	1    2100 1900
	1    0    0    -1  
$EndComp
$Comp
L Device:D_Zener D?
U 1 1 602AF65B
P 9300 4300
AR Path="/5FEBF4E2/602AF65B" Ref="D?"  Part="1" 
AR Path="/602AF65B" Ref="D12"  Part="1" 
F 0 "D12" V 9254 4380 50  0000 L CNN
F 1 "15V" V 9345 4380 50  0000 L CNN
F 2 "Diode_SMD:D_SOT-23_ANK" H 9300 4300 50  0001 C CNN
F 3 "~" H 9300 4300 50  0001 C CNN
	1    9300 4300
	0    1    1    0   
$EndComp
Wire Wire Line
	9300 4150 9300 4000
Wire Wire Line
	9300 4000 9500 4000
Connection ~ 9500 4000
Wire Wire Line
	9500 4000 9500 3950
Wire Wire Line
	9300 4450 9300 4700
Wire Wire Line
	9300 4700 9600 4700
Connection ~ 9600 4700
Wire Wire Line
	9600 4700 9600 4750
$Comp
L power:GND #PWR?
U 1 1 602AF66F
P 15900 9050
AR Path="/5FEBF4E2/602AF66F" Ref="#PWR?"  Part="1" 
AR Path="/602AF66F" Ref="#PWR051"  Part="1" 
F 0 "#PWR051" H 15900 8800 50  0001 C CNN
F 1 "GND" H 15905 8877 50  0000 C CNN
F 2 "" H 15900 9050 50  0001 C CNN
F 3 "" H 15900 9050 50  0001 C CNN
	1    15900 9050
	1    0    0    -1  
$EndComp
Wire Wire Line
	14200 8850 13900 8850
Wire Wire Line
	13500 8150 14200 8150
Wire Wire Line
	13600 8250 14200 8250
Wire Wire Line
	13500 8550 13500 8150
Wire Wire Line
	13600 8650 13600 8250
Wire Wire Line
	13800 8750 13800 8550
Wire Wire Line
	13800 8550 14200 8550
Wire Wire Line
	14200 8350 13700 8350
Wire Wire Line
	13700 8350 13700 8850
Wire Wire Line
	14200 8650 14100 8650
Wire Wire Line
	14100 8650 14100 8900
$Comp
L power:GND #PWR?
U 1 1 602AF680
P 14100 8900
AR Path="/5FEBF4E2/602AF680" Ref="#PWR?"  Part="1" 
AR Path="/602AF680" Ref="#PWR047"  Part="1" 
F 0 "#PWR047" H 14100 8650 50  0001 C CNN
F 1 "GND" H 14022 8863 50  0000 R CNN
F 2 "" H 14100 8900 50  0001 C CNN
F 3 "" H 14100 8900 50  0001 C CNN
	1    14100 8900
	1    0    0    -1  
$EndComp
Wire Wire Line
	14000 8750 14000 7950
Wire Wire Line
	14000 7950 13300 7950
Wire Wire Line
	13300 7950 13300 8350
Wire Wire Line
	14000 8750 14200 8750
Wire Wire Line
	13900 8850 13900 8050
Wire Wire Line
	13900 8050 13400 8050
Wire Wire Line
	13400 8050 13400 8450
Wire Wire Line
	14200 8450 14100 8450
Wire Wire Line
	14100 8450 14100 7450
$Comp
L power:+3V3 #PWR?
U 1 1 602AF68F
P 14100 7400
AR Path="/5FEBF4E2/602AF68F" Ref="#PWR?"  Part="1" 
AR Path="/602AF68F" Ref="#PWR046"  Part="1" 
F 0 "#PWR046" H 14100 7250 50  0001 C CNN
F 1 "+3V3" H 14115 7573 50  0000 C CNN
F 2 "" H 14100 7400 50  0001 C CNN
F 3 "" H 14100 7400 50  0001 C CNN
	1    14100 7400
	1    0    0    -1  
$EndComp
$Comp
L Device:C C?
U 1 1 602AF695
P 13950 7650
AR Path="/5FEBF4E2/602AF695" Ref="C?"  Part="1" 
AR Path="/602AF695" Ref="C27"  Part="1" 
F 0 "C27" H 14065 7696 50  0000 L CNN
F 1 "100n" H 14065 7605 50  0000 L CNN
F 2 "Capacitor_SMD:C_0805_2012Metric" H 13988 7500 50  0001 C CNN
F 3 "~" H 13950 7650 50  0001 C CNN
	1    13950 7650
	1    0    0    -1  
$EndComp
$Comp
L Device:C C?
U 1 1 602AF69B
P 13750 7650
AR Path="/5FEBF4E2/602AF69B" Ref="C?"  Part="1" 
AR Path="/602AF69B" Ref="C26"  Part="1" 
F 0 "C26" H 13635 7696 50  0000 R CNN
F 1 "10u" H 13635 7605 50  0000 R CNN
F 2 "Capacitor_SMD:C_0805_2012Metric" H 13788 7500 50  0001 C CNN
F 3 "~" H 13750 7650 50  0001 C CNN
	1    13750 7650
	1    0    0    -1  
$EndComp
Wire Wire Line
	14100 7450 13950 7450
Wire Wire Line
	13750 7450 13750 7500
Connection ~ 14100 7450
Wire Wire Line
	14100 7450 14100 7400
Wire Wire Line
	13950 7450 13950 7500
Connection ~ 13950 7450
Wire Wire Line
	13950 7450 13750 7450
$Comp
L power:GND #PWR?
U 1 1 602AF6A8
P 13750 7800
AR Path="/5FEBF4E2/602AF6A8" Ref="#PWR?"  Part="1" 
AR Path="/602AF6A8" Ref="#PWR044"  Part="1" 
F 0 "#PWR044" H 13750 7550 50  0001 C CNN
F 1 "GND" H 13755 7627 50  0000 C CNN
F 2 "" H 13750 7800 50  0001 C CNN
F 3 "" H 13750 7800 50  0001 C CNN
	1    13750 7800
	1    0    0    -1  
$EndComp
$Comp
L power:GND #PWR?
U 1 1 602AF6AE
P 13950 7800
AR Path="/5FEBF4E2/602AF6AE" Ref="#PWR?"  Part="1" 
AR Path="/602AF6AE" Ref="#PWR045"  Part="1" 
F 0 "#PWR045" H 13950 7550 50  0001 C CNN
F 1 "GND" H 13955 7627 50  0000 C CNN
F 2 "" H 13950 7800 50  0001 C CNN
F 3 "" H 13950 7800 50  0001 C CNN
	1    13950 7800
	1    0    0    -1  
$EndComp
Text Notes 9600 10200 0    50   ~ 10
Match lengths! CLK a bit longer?
$Comp
L Device:R R?
U 1 1 602AF6B5
P 13000 8350
AR Path="/5FEBF4E2/602AF6B5" Ref="R?"  Part="1" 
AR Path="/602AF6B5" Ref="R24"  Part="1" 
F 0 "R24" V 12950 8150 50  0000 C CNN
F 1 "22" V 12950 8550 50  0000 C CNN
F 2 "Resistor_SMD:R_0805_2012Metric" V 12930 8350 50  0001 C CNN
F 3 "~" H 13000 8350 50  0001 C CNN
	1    13000 8350
	0    1    1    0   
$EndComp
Wire Wire Line
	13150 8350 13300 8350
$Comp
L Device:R R?
U 1 1 602AF6BC
P 13000 8450
AR Path="/5FEBF4E2/602AF6BC" Ref="R?"  Part="1" 
AR Path="/602AF6BC" Ref="R25"  Part="1" 
F 0 "R25" V 12950 8250 50  0000 C CNN
F 1 "22" V 12950 8650 50  0000 C CNN
F 2 "Resistor_SMD:R_0805_2012Metric" V 12930 8450 50  0001 C CNN
F 3 "~" H 13000 8450 50  0001 C CNN
	1    13000 8450
	0    1    1    0   
$EndComp
Wire Wire Line
	13150 8450 13400 8450
$Comp
L Device:R R?
U 1 1 602AF6C3
P 13000 8550
AR Path="/5FEBF4E2/602AF6C3" Ref="R?"  Part="1" 
AR Path="/602AF6C3" Ref="R26"  Part="1" 
F 0 "R26" V 12950 8350 50  0000 C CNN
F 1 "22" V 12950 8750 50  0000 C CNN
F 2 "Resistor_SMD:R_0805_2012Metric" V 12930 8550 50  0001 C CNN
F 3 "~" H 13000 8550 50  0001 C CNN
	1    13000 8550
	0    1    1    0   
$EndComp
Wire Wire Line
	13150 8550 13500 8550
$Comp
L Device:R R?
U 1 1 602AF6CA
P 13000 8650
AR Path="/5FEBF4E2/602AF6CA" Ref="R?"  Part="1" 
AR Path="/602AF6CA" Ref="R27"  Part="1" 
F 0 "R27" V 12950 8450 50  0000 C CNN
F 1 "22" V 12950 8850 50  0000 C CNN
F 2 "Resistor_SMD:R_0805_2012Metric" V 12930 8650 50  0001 C CNN
F 3 "~" H 13000 8650 50  0001 C CNN
	1    13000 8650
	0    1    1    0   
$EndComp
Wire Wire Line
	13150 8650 13600 8650
$Comp
L Device:R R?
U 1 1 602AF6D1
P 13000 8750
AR Path="/5FEBF4E2/602AF6D1" Ref="R?"  Part="1" 
AR Path="/602AF6D1" Ref="R28"  Part="1" 
F 0 "R28" V 12950 8550 50  0000 C CNN
F 1 "22" V 12950 8950 50  0000 C CNN
F 2 "Resistor_SMD:R_0805_2012Metric" V 12930 8750 50  0001 C CNN
F 3 "~" H 13000 8750 50  0001 C CNN
	1    13000 8750
	0    1    1    0   
$EndComp
Wire Wire Line
	13150 8750 13800 8750
$Comp
L Device:R R?
U 1 1 602AF6D8
P 13000 8850
AR Path="/5FEBF4E2/602AF6D8" Ref="R?"  Part="1" 
AR Path="/602AF6D8" Ref="R29"  Part="1" 
F 0 "R29" V 12950 8650 50  0000 C CNN
F 1 "22" V 12950 9050 50  0000 C CNN
F 2 "Resistor_SMD:R_0805_2012Metric" V 12930 8850 50  0001 C CNN
F 3 "~" H 13000 8850 50  0001 C CNN
	1    13000 8850
	0    1    1    0   
$EndComp
Wire Wire Line
	13150 8850 13700 8850
$Comp
L Device:Battery_Cell BT?
U 1 1 602AF6DF
P 4950 4850
AR Path="/5FEBF4E2/602AF6DF" Ref="BT?"  Part="1" 
AR Path="/602AF6DF" Ref="BT1"  Part="1" 
F 0 "BT1" H 4832 4946 50  0000 R CNN
F 1 "Battery_Cell" H 4832 4855 50  0000 R CNN
F 2 "CustomFootprints:BatteryHolder_LINX_BAT-HLD-001-THM" V 4950 4910 50  0001 C CNN
F 3 "~" V 4950 4910 50  0001 C CNN
	1    4950 4850
	1    0    0    -1  
$EndComp
Wire Wire Line
	12650 8350 12650 8250
Connection ~ 12650 8350
Wire Wire Line
	12650 8350 12850 8350
$Comp
L Device:R R?
U 1 1 602AF6E8
P 12650 8100
AR Path="/5FEBF4E2/602AF6E8" Ref="R?"  Part="1" 
AR Path="/602AF6E8" Ref="R23"  Part="1" 
F 0 "R23" H 12720 8146 50  0000 L CNN
F 1 "10k" H 12720 8055 50  0000 L CNN
F 2 "Resistor_SMD:R_0805_2012Metric" V 12580 8100 50  0001 C CNN
F 3 "~" H 12650 8100 50  0001 C CNN
	1    12650 8100
	1    0    0    -1  
$EndComp
$Comp
L Device:R R?
U 1 1 602AF6EE
P 12500 8100
AR Path="/5FEBF4E2/602AF6EE" Ref="R?"  Part="1" 
AR Path="/602AF6EE" Ref="R22"  Part="1" 
F 0 "R22" H 12570 8146 50  0000 L CNN
F 1 "10k" H 12570 8055 50  0000 L CNN
F 2 "Resistor_SMD:R_0805_2012Metric" V 12430 8100 50  0001 C CNN
F 3 "~" H 12500 8100 50  0001 C CNN
	1    12500 8100
	1    0    0    -1  
$EndComp
$Comp
L Device:R R?
U 1 1 602AF6F4
P 12350 8100
AR Path="/5FEBF4E2/602AF6F4" Ref="R?"  Part="1" 
AR Path="/602AF6F4" Ref="R21"  Part="1" 
F 0 "R21" H 12420 8146 50  0000 L CNN
F 1 "10k" H 12420 8055 50  0000 L CNN
F 2 "Resistor_SMD:R_0805_2012Metric" V 12280 8100 50  0001 C CNN
F 3 "~" H 12350 8100 50  0001 C CNN
	1    12350 8100
	1    0    0    -1  
$EndComp
$Comp
L Device:R R?
U 1 1 602AF6FA
P 12200 8100
AR Path="/5FEBF4E2/602AF6FA" Ref="R?"  Part="1" 
AR Path="/602AF6FA" Ref="R20"  Part="1" 
F 0 "R20" H 12270 8146 50  0000 L CNN
F 1 "R" H 12270 8055 50  0000 L CNN
F 2 "Resistor_SMD:R_0805_2012Metric" V 12130 8100 50  0001 C CNN
F 3 "~" H 12200 8100 50  0001 C CNN
	1    12200 8100
	1    0    0    -1  
$EndComp
Wire Wire Line
	12500 8250 12500 8450
Wire Wire Line
	12350 8250 12350 8550
Wire Wire Line
	12200 8250 12200 8650
Wire Wire Line
	12050 7850 12200 7850
Wire Wire Line
	12650 7850 12650 7950
Wire Wire Line
	12500 7850 12500 7950
Connection ~ 12500 7850
Wire Wire Line
	12500 7850 12650 7850
Wire Wire Line
	12350 7850 12350 7950
Connection ~ 12350 7850
Wire Wire Line
	12350 7850 12500 7850
Wire Wire Line
	12200 7850 12200 7950
Connection ~ 12200 7850
Wire Wire Line
	12200 7850 12350 7850
$Comp
L power:+3V3 #PWR?
U 1 1 602AF70E
P 12350 7750
AR Path="/5FEBF4E2/602AF70E" Ref="#PWR?"  Part="1" 
AR Path="/602AF70E" Ref="#PWR037"  Part="1" 
F 0 "#PWR037" H 12350 7600 50  0001 C CNN
F 1 "+3V3" H 12365 7923 50  0000 C CNN
F 2 "" H 12350 7750 50  0001 C CNN
F 3 "" H 12350 7750 50  0001 C CNN
	1    12350 7750
	1    0    0    -1  
$EndComp
Wire Wire Line
	12350 7750 12350 7850
Wire Wire Line
	12650 9050 12650 8350
$Comp
L power:+3V3 #PWR?
U 1 1 602AF716
P 12050 9050
AR Path="/5FEBF4E2/602AF716" Ref="#PWR?"  Part="1" 
AR Path="/602AF716" Ref="#PWR036"  Part="1" 
F 0 "#PWR036" H 12050 8900 50  0001 C CNN
F 1 "+3V3" H 11900 9100 50  0000 C CNN
F 2 "" H 12050 9050 50  0001 C CNN
F 3 "" H 12050 9050 50  0001 C CNN
	1    12050 9050
	1    0    0    -1  
$EndComp
$Comp
L CustomSymbols:PACDN006 D?
U 1 1 602AF71C
P 12350 9350
AR Path="/5FEBF4E2/602AF71C" Ref="D?"  Part="1" 
AR Path="/602AF71C" Ref="D13"  Part="1" 
F 0 "D13" H 12779 9396 50  0000 L CNN
F 1 "PACDN006" H 12779 9305 50  0000 L CNN
F 2 "Package_SO:MSOP-8_3x3mm_P0.65mm" H 12800 9300 50  0001 L CNN
F 3 "https://www.onsemi.com/pub/Collateral/PACDN006-D.PDF" H 12525 9375 50  0001 C CNN
	1    12350 9350
	1    0    0    -1  
$EndComp
Wire Wire Line
	12050 8250 12050 8850
Wire Wire Line
	12050 7950 12050 7850
$Comp
L Device:R R?
U 1 1 602AF724
P 12050 8100
AR Path="/5FEBF4E2/602AF724" Ref="R?"  Part="1" 
AR Path="/602AF724" Ref="R19"  Part="1" 
F 0 "R19" H 11981 8146 50  0000 R CNN
F 1 "10k" H 11981 8055 50  0000 R CNN
F 2 "Resistor_SMD:R_0805_2012Metric" V 11980 8100 50  0001 C CNN
F 3 "~" H 12050 8100 50  0001 C CNN
	1    12050 8100
	1    0    0    -1  
$EndComp
Wire Wire Line
	12550 8450 12850 8450
Wire Wire Line
	12500 8450 12550 8450
Connection ~ 12550 8450
Wire Wire Line
	12550 9050 12550 8450
Wire Wire Line
	12450 8550 12850 8550
Wire Wire Line
	12350 8550 12450 8550
Connection ~ 12450 8550
Wire Wire Line
	12450 9050 12450 8550
Wire Wire Line
	12350 8650 12850 8650
Wire Wire Line
	12200 8650 12350 8650
Connection ~ 12350 8650
Wire Wire Line
	12350 9050 12350 8650
Wire Wire Line
	12250 8750 12850 8750
Wire Wire Line
	12250 9050 12250 8750
Wire Wire Line
	12150 8850 12850 8850
Wire Wire Line
	12050 8850 12150 8850
Connection ~ 12150 8850
Wire Wire Line
	12150 9050 12150 8850
$Comp
L Device:C C?
U 1 1 602AF73C
P 11850 9300
AR Path="/5FEBF4E2/602AF73C" Ref="C?"  Part="1" 
AR Path="/602AF73C" Ref="C22"  Part="1" 
F 0 "C22" H 11735 9346 50  0000 R CNN
F 1 "100n" H 11735 9255 50  0000 R CNN
F 2 "Capacitor_SMD:C_0805_2012Metric" H 11888 9150 50  0001 C CNN
F 3 "~" H 11850 9300 50  0001 C CNN
	1    11850 9300
	1    0    0    -1  
$EndComp
Wire Wire Line
	12050 9050 11850 9050
Connection ~ 12050 9050
$Comp
L power:GND #PWR?
U 1 1 602AF744
P 12350 9650
AR Path="/5FEBF4E2/602AF744" Ref="#PWR?"  Part="1" 
AR Path="/602AF744" Ref="#PWR038"  Part="1" 
F 0 "#PWR038" H 12350 9400 50  0001 C CNN
F 1 "GND" H 12355 9477 50  0000 C CNN
F 2 "" H 12350 9650 50  0001 C CNN
F 3 "" H 12350 9650 50  0001 C CNN
	1    12350 9650
	1    0    0    -1  
$EndComp
$Comp
L power:GND #PWR?
U 1 1 602AF74A
P 11850 9450
AR Path="/5FEBF4E2/602AF74A" Ref="#PWR?"  Part="1" 
AR Path="/602AF74A" Ref="#PWR035"  Part="1" 
F 0 "#PWR035" H 11850 9200 50  0001 C CNN
F 1 "GND" H 11855 9277 50  0000 C CNN
F 2 "" H 11850 9450 50  0001 C CNN
F 3 "" H 11850 9450 50  0001 C CNN
	1    11850 9450
	1    0    0    -1  
$EndComp
Wire Wire Line
	11850 9050 11850 9150
Wire Wire Line
	4950 4650 4950 4600
Wire Wire Line
	4950 4600 5100 4600
Wire Wire Line
	5100 4600 5100 5000
$Comp
L power:GND #PWR?
U 1 1 602AF754
P 4950 4950
AR Path="/5FEBEE19/602AF754" Ref="#PWR?"  Part="1" 
AR Path="/5FEBF4E2/602AF754" Ref="#PWR?"  Part="1" 
AR Path="/602AF754" Ref="#PWR012"  Part="1" 
F 0 "#PWR012" H 4950 4700 50  0001 C CNN
F 1 "GND" H 4800 4900 50  0000 C CNN
F 2 "" H 4950 4950 50  0001 C CNN
F 3 "" H 4950 4950 50  0001 C CNN
	1    4950 4950
	1    0    0    -1  
$EndComp
Wire Wire Line
	4700 6300 4300 6300
Text Label 9200 4200 2    50   ~ 0
I2C_SCL
Text Label 9200 4400 2    50   ~ 0
I2C_SDA
$Comp
L Connector_Generic:Conn_01x05 J?
U 1 1 602AF75D
P 3100 4550
AR Path="/5FEBF4E2/602AF75D" Ref="J?"  Part="1" 
AR Path="/602AF75D" Ref="J2"  Part="1" 
F 0 "J2" H 3179 4592 50  0000 L CNN
F 1 "CON_PROG" H 3179 4501 50  0000 L CNN
F 2 "Connector_PinHeader_2.54mm:PinHeader_1x05_P2.54mm_Vertical" H 3100 4550 50  0001 C CNN
F 3 "~" H 3100 4550 50  0001 C CNN
	1    3100 4550
	-1   0    0    -1  
$EndComp
Wire Wire Line
	5600 5000 5600 4950
Wire Wire Line
	5200 4950 5200 5000
Wire Wire Line
	5300 4950 5300 5000
Connection ~ 5300 4950
Wire Wire Line
	5300 4950 5200 4950
Wire Wire Line
	5400 4950 5400 5000
Connection ~ 5400 4950
Wire Wire Line
	5400 4950 5300 4950
$Comp
L Device:C C?
U 1 1 602AF76B
P 5550 3900
AR Path="/5FEBF4E2/602AF76B" Ref="C?"  Part="1" 
AR Path="/602AF76B" Ref="C10"  Part="1" 
F 0 "C10" H 5435 3854 50  0000 R CNN
F 1 "100n" H 5435 3945 50  0000 R CNN
F 2 "Capacitor_SMD:C_0805_2012Metric" H 5588 3750 50  0001 C CNN
F 3 "~" H 5550 3900 50  0001 C CNN
	1    5550 3900
	-1   0    0    1   
$EndComp
$Comp
L Device:C C?
U 1 1 602AF771
P 5350 3900
AR Path="/5FEBF4E2/602AF771" Ref="C?"  Part="1" 
AR Path="/602AF771" Ref="C9"  Part="1" 
F 0 "C9" H 5235 3854 50  0000 R CNN
F 1 "100n" H 5235 3945 50  0000 R CNN
F 2 "Capacitor_SMD:C_0805_2012Metric" H 5388 3750 50  0001 C CNN
F 3 "~" H 5350 3900 50  0001 C CNN
	1    5350 3900
	-1   0    0    1   
$EndComp
$Comp
L power:GND #PWR?
U 1 1 602AF777
P 6250 4150
AR Path="/5FEBEE19/602AF777" Ref="#PWR?"  Part="1" 
AR Path="/5FEBF4E2/602AF777" Ref="#PWR?"  Part="1" 
AR Path="/602AF777" Ref="#PWR018"  Part="1" 
F 0 "#PWR018" H 6250 3900 50  0001 C CNN
F 1 "GND" H 6255 3977 50  0000 C CNN
F 2 "" H 6250 4150 50  0001 C CNN
F 3 "" H 6250 4150 50  0001 C CNN
	1    6250 4150
	1    0    0    -1  
$EndComp
$Comp
L Device:C C?
U 1 1 602AF77D
P 5750 3900
AR Path="/5FEBF4E2/602AF77D" Ref="C?"  Part="1" 
AR Path="/602AF77D" Ref="C12"  Part="1" 
F 0 "C12" H 5635 3854 50  0000 R CNN
F 1 "100n" H 5635 3945 50  0000 R CNN
F 2 "Capacitor_SMD:C_0805_2012Metric" H 5788 3750 50  0001 C CNN
F 3 "~" H 5750 3900 50  0001 C CNN
	1    5750 3900
	-1   0    0    1   
$EndComp
$Comp
L Device:C C?
U 1 1 602AF783
P 5950 3900
AR Path="/5FEBF4E2/602AF783" Ref="C?"  Part="1" 
AR Path="/602AF783" Ref="C14"  Part="1" 
F 0 "C14" H 5835 3854 50  0000 R CNN
F 1 "100n" H 5835 3945 50  0000 R CNN
F 2 "Capacitor_SMD:C_0805_2012Metric" H 5988 3750 50  0001 C CNN
F 3 "~" H 5950 3900 50  0001 C CNN
	1    5950 3900
	-1   0    0    1   
$EndComp
$Comp
L Device:C C?
U 1 1 602AF789
P 6250 3900
AR Path="/5FEBF4E2/602AF789" Ref="C?"  Part="1" 
AR Path="/602AF789" Ref="C16"  Part="1" 
F 0 "C16" H 6135 3854 50  0000 R CNN
F 1 "10u" H 6135 3945 50  0000 R CNN
F 2 "Capacitor_SMD:C_0805_2012Metric" H 6288 3750 50  0001 C CNN
F 3 "~" H 6250 3900 50  0001 C CNN
	1    6250 3900
	-1   0    0    1   
$EndComp
Wire Wire Line
	5200 3700 5350 3700
Wire Wire Line
	6250 3700 6250 3750
Wire Wire Line
	5350 4050 5350 4100
Wire Wire Line
	5350 4100 5550 4100
Wire Wire Line
	6250 4100 6250 4050
Wire Wire Line
	6250 4100 6250 4150
Connection ~ 6250 4100
Wire Wire Line
	5950 4050 5950 4100
Connection ~ 5950 4100
Wire Wire Line
	5950 4100 6250 4100
Wire Wire Line
	5750 4050 5750 4100
Connection ~ 5750 4100
Wire Wire Line
	5750 4100 5950 4100
Wire Wire Line
	5550 4050 5550 4100
Connection ~ 5550 4100
Wire Wire Line
	5550 4100 5750 4100
Wire Wire Line
	5350 3750 5350 3700
Connection ~ 5350 3700
Wire Wire Line
	5350 3700 5550 3700
Wire Wire Line
	5550 3750 5550 3700
Connection ~ 5550 3700
Wire Wire Line
	5550 3700 5750 3700
Wire Wire Line
	5750 3750 5750 3700
Connection ~ 5750 3700
Wire Wire Line
	5750 3700 5950 3700
Wire Wire Line
	5950 3750 5950 3700
Connection ~ 5950 3700
Wire Wire Line
	5950 3700 6100 3700
$Comp
L power:+3V3 #PWR?
U 1 1 602AF7AB
P 6250 3650
AR Path="/5FEBF4E2/602AF7AB" Ref="#PWR?"  Part="1" 
AR Path="/602AF7AB" Ref="#PWR017"  Part="1" 
F 0 "#PWR017" H 6250 3500 50  0001 C CNN
F 1 "+3V3" H 6265 3823 50  0000 C CNN
F 2 "" H 6250 3650 50  0001 C CNN
F 3 "" H 6250 3650 50  0001 C CNN
	1    6250 3650
	1    0    0    -1  
$EndComp
Wire Wire Line
	6250 3650 6250 3700
Wire Wire Line
	3300 4350 3400 4350
Wire Wire Line
	3400 4350 3400 4250
Wire Wire Line
	3300 4550 3400 4550
Wire Wire Line
	3400 4550 3400 4850
$Comp
L power:GND #PWR?
U 1 1 602AF7B6
P 3400 4850
AR Path="/5FEBEE19/602AF7B6" Ref="#PWR?"  Part="1" 
AR Path="/5FEBF4E2/602AF7B6" Ref="#PWR?"  Part="1" 
AR Path="/602AF7B6" Ref="#PWR06"  Part="1" 
F 0 "#PWR06" H 3400 4600 50  0001 C CNN
F 1 "GND" H 3405 4677 50  0000 C CNN
F 2 "" H 3400 4850 50  0001 C CNN
F 3 "" H 3400 4850 50  0001 C CNN
	1    3400 4850
	1    0    0    -1  
$EndComp
$Comp
L power:+3V3 #PWR?
U 1 1 602AF7BC
P 3400 4250
AR Path="/5FEBF4E2/602AF7BC" Ref="#PWR?"  Part="1" 
AR Path="/602AF7BC" Ref="#PWR05"  Part="1" 
F 0 "#PWR05" H 3400 4100 50  0001 C CNN
F 1 "+3V3" H 3415 4423 50  0000 C CNN
F 2 "" H 3400 4250 50  0001 C CNN
F 3 "" H 3400 4250 50  0001 C CNN
	1    3400 4250
	1    0    0    -1  
$EndComp
Wire Wire Line
	4600 4650 4600 3300
Wire Wire Line
	3300 4650 4600 4650
Wire Wire Line
	4500 4450 4500 3200
Wire Wire Line
	3300 4450 4500 4450
Wire Wire Line
	6400 6500 6400 3300
Wire Wire Line
	6000 6500 6400 6500
Wire Wire Line
	4600 3300 6400 3300
Wire Wire Line
	6500 3200 6500 6600
Wire Wire Line
	6000 6600 6500 6600
Wire Wire Line
	4500 3200 6500 3200
Wire Wire Line
	4700 5200 4650 5200
Wire Wire Line
	4300 5200 4300 4750
$Comp
L Device:C C?
U 1 1 602AF7CE
P 4650 5400
AR Path="/5FEBF4E2/602AF7CE" Ref="C?"  Part="1" 
AR Path="/602AF7CE" Ref="C7"  Part="1" 
F 0 "C7" H 4535 5446 50  0000 R CNN
F 1 "100n" H 4535 5355 50  0000 R CNN
F 2 "Capacitor_SMD:C_0805_2012Metric" H 4688 5250 50  0001 C CNN
F 3 "~" H 4650 5400 50  0001 C CNN
	1    4650 5400
	1    0    0    -1  
$EndComp
Wire Wire Line
	4650 5250 4650 5200
$Comp
L power:GND #PWR?
U 1 1 602AF7D5
P 4650 5550
AR Path="/5FEBEE19/602AF7D5" Ref="#PWR?"  Part="1" 
AR Path="/5FEBF4E2/602AF7D5" Ref="#PWR?"  Part="1" 
AR Path="/602AF7D5" Ref="#PWR011"  Part="1" 
F 0 "#PWR011" H 4650 5300 50  0001 C CNN
F 1 "GND" H 4655 5377 50  0000 C CNN
F 2 "" H 4650 5550 50  0001 C CNN
F 3 "" H 4650 5550 50  0001 C CNN
	1    4650 5550
	1    0    0    -1  
$EndComp
Text Label 3500 4450 0    50   ~ 0
SWCLK
Text Label 3500 4650 0    50   ~ 0
SWDIO
Text Label 3500 4750 0    50   ~ 0
NRST
Text Label 4650 6700 2    50   ~ 0
SDMMC_CMD
Text Label 4700 8100 2    50   ~ 0
SDMMC_CK
Text Label 4700 8000 2    50   ~ 0
SDMMC_D3
Text Label 4700 7900 2    50   ~ 0
SDMMC_D2
Text Label 4700 7800 2    50   ~ 0
SDMMC_D1
Text Label 4700 7700 2    50   ~ 0
SDMMC_D0
Text Label 6000 7700 0    50   ~ 0
I2C_SCL
Text Label 6000 7800 0    50   ~ 0
I2C_SDA
Text Label 6000 8100 0    50   ~ 0
TSC_G1_IO1
Text Label 6000 8200 0    50   ~ 0
TSC_G1_IO2
Text Label 6000 8400 0    50   ~ 0
TSC_G1_CAP
Text Label 4700 7500 2    50   ~ 0
TSC_G4_SHIELD
Text Label 4700 7600 2    50   ~ 0
TSC_G4_CAP
Text Label 6000 7300 0    50   ~ 0
TSC_G2_IO1
Text Label 6000 7400 0    50   ~ 0
TSC_G2_IO2
Text Label 6000 7600 0    50   ~ 0
TSC_G2_CAP
$Comp
L Device:Crystal Y?
U 1 1 602AF7EE
P 3900 5600
AR Path="/5FEBF4E2/602AF7EE" Ref="Y?"  Part="1" 
AR Path="/602AF7EE" Ref="Y1"  Part="1" 
F 0 "Y1" V 3854 5731 50  0000 L CNN
F 1 "8 MHz" V 3945 5731 50  0000 L CNN
F 2 "Crystal:Crystal_SMD_HC49-SD" H 3900 5600 50  0001 C CNN
F 3 "~" H 3900 5600 50  0001 C CNN
	1    3900 5600
	0    1    1    0   
$EndComp
Text Label 6000 5200 0    50   ~ 0
DISP_DIGIT1
Text Label 6000 5300 0    50   ~ 0
DISP_DIGIT2
Text Label 6000 5400 0    50   ~ 0
DISP_DIGIT3
Text Label 6000 5500 0    50   ~ 0
DISP_DIGIT4
Text Label 6000 5700 0    50   ~ 0
DISP_DIGIT5
Text Label 6000 5800 0    50   ~ 0
DISP_SEG1
Text Label 6000 5900 0    50   ~ 0
DISP_SEG2
Text Label 6000 6900 0    50   ~ 0
DISP_SEG3
Text Label 6000 7000 0    50   ~ 0
DISP_SEG4
Text Label 6000 7100 0    50   ~ 0
DISP_SEG5
Text Label 6000 7900 0    50   ~ 0
DISP_SEG6
Text Label 6000 8000 0    50   ~ 0
DISP_SEG7
Text Label 4700 6900 2    50   ~ 0
VOL_CS
Text Label 4700 7000 2    50   ~ 0
VOL_UD
Text Label 6000 6100 0    50   ~ 0
DISP_COLON_PWM
Wire Wire Line
	5100 8600 5100 8650
Wire Wire Line
	5100 8650 5200 8650
Wire Wire Line
	5500 8650 5500 8600
Wire Wire Line
	5400 8600 5400 8650
Connection ~ 5400 8650
Wire Wire Line
	5400 8650 5500 8650
Wire Wire Line
	5300 8600 5300 8650
Connection ~ 5300 8650
Wire Wire Line
	5300 8650 5400 8650
Wire Wire Line
	5200 8600 5200 8650
Connection ~ 5200 8650
Wire Wire Line
	5200 8650 5300 8650
$Comp
L power:GND #PWR?
U 1 1 602AF80F
P 5300 8650
AR Path="/5FEBF4E2/602AF80F" Ref="#PWR?"  Part="1" 
AR Path="/602AF80F" Ref="#PWR013"  Part="1" 
F 0 "#PWR013" H 5300 8400 50  0001 C CNN
F 1 "GND" H 5305 8477 50  0000 C CNN
F 2 "" H 5300 8650 50  0001 C CNN
F 3 "" H 5300 8650 50  0001 C CNN
	1    5300 8650
	1    0    0    -1  
$EndComp
$Comp
L Device:C C?
U 1 1 602AF815
P 3650 5350
AR Path="/5FEBF4E2/602AF815" Ref="C?"  Part="1" 
AR Path="/602AF815" Ref="C3"  Part="1" 
F 0 "C3" V 3400 5350 50  0000 C CNN
F 1 "33p" V 3500 5350 50  0000 C CNN
F 2 "Capacitor_SMD:C_0805_2012Metric" H 3688 5200 50  0001 C CNN
F 3 "~" H 3650 5350 50  0001 C CNN
	1    3650 5350
	0    1    1    0   
$EndComp
$Comp
L Device:C C?
U 1 1 602AF81B
P 3650 5850
AR Path="/5FEBF4E2/602AF81B" Ref="C?"  Part="1" 
AR Path="/602AF81B" Ref="C4"  Part="1" 
F 0 "C4" V 3398 5850 50  0000 C CNN
F 1 "33p" V 3489 5850 50  0000 C CNN
F 2 "Capacitor_SMD:C_0805_2012Metric" H 3688 5700 50  0001 C CNN
F 3 "~" H 3650 5850 50  0001 C CNN
	1    3650 5850
	0    1    1    0   
$EndComp
Wire Wire Line
	3800 5350 3900 5350
Wire Wire Line
	3900 5350 3900 5450
Wire Wire Line
	3900 5750 3900 5850
Wire Wire Line
	3900 5850 3800 5850
$Comp
L power:GND #PWR?
U 1 1 602AF825
P 3400 5900
AR Path="/5FEBEE19/602AF825" Ref="#PWR?"  Part="1" 
AR Path="/5FEBF4E2/602AF825" Ref="#PWR?"  Part="1" 
AR Path="/602AF825" Ref="#PWR07"  Part="1" 
F 0 "#PWR07" H 3400 5650 50  0001 C CNN
F 1 "GND" H 3405 5727 50  0000 C CNN
F 2 "" H 3400 5900 50  0001 C CNN
F 3 "" H 3400 5900 50  0001 C CNN
	1    3400 5900
	1    0    0    -1  
$EndComp
Wire Wire Line
	3500 5350 3400 5350
Wire Wire Line
	3400 5350 3400 5850
Wire Wire Line
	3500 5850 3400 5850
Connection ~ 3400 5850
Wire Wire Line
	3400 5850 3400 5900
Connection ~ 3900 5350
Connection ~ 3900 5850
$Comp
L Device:C C?
U 1 1 602AF832
P 4150 8950
AR Path="/5FEBF4E2/602AF832" Ref="C?"  Part="1" 
AR Path="/602AF832" Ref="C6"  Part="1" 
F 0 "C6" H 4265 8996 50  0000 L CNN
F 1 "22p" H 4265 8905 50  0000 L CNN
F 2 "Capacitor_SMD:C_0805_2012Metric" H 4188 8800 50  0001 C CNN
F 3 "~" H 4150 8950 50  0001 C CNN
	1    4150 8950
	1    0    0    -1  
$EndComp
$Comp
L Device:C C?
U 1 1 602AF838
P 4900 8950
AR Path="/5FEBF4E2/602AF838" Ref="C?"  Part="1" 
AR Path="/602AF838" Ref="C8"  Part="1" 
F 0 "C8" H 5015 8996 50  0000 L CNN
F 1 "22p" H 5015 8905 50  0000 L CNN
F 2 "Capacitor_SMD:C_0805_2012Metric" H 4938 8800 50  0001 C CNN
F 3 "~" H 4900 8950 50  0001 C CNN
	1    4900 8950
	1    0    0    -1  
$EndComp
Wire Wire Line
	4150 9100 4150 9150
Wire Wire Line
	4150 9150 4550 9150
Wire Wire Line
	4900 9150 4900 9100
Connection ~ 4550 9150
Wire Wire Line
	4150 8800 4150 8700
Wire Wire Line
	4150 8700 4200 8700
Wire Wire Line
	4500 8700 4550 8700
$Comp
L power:GND #PWR?
U 1 1 602AF845
P 4550 9150
AR Path="/5FEBF4E2/602AF845" Ref="#PWR?"  Part="1" 
AR Path="/602AF845" Ref="#PWR010"  Part="1" 
F 0 "#PWR010" H 4550 8900 50  0001 C CNN
F 1 "GND" H 4555 8977 50  0000 C CNN
F 2 "" H 4550 9150 50  0001 C CNN
F 3 "" H 4550 9150 50  0001 C CNN
	1    4550 9150
	1    0    0    -1  
$EndComp
Wire Wire Line
	4700 8400 4650 8400
Wire Wire Line
	4700 8300 4150 8300
Wire Wire Line
	4150 8300 4150 8700
Connection ~ 4150 8700
Wire Wire Line
	3550 10300 3550 7700
Wire Wire Line
	3550 7700 4700 7700
Wire Wire Line
	3450 7800 3450 10400
Wire Wire Line
	3450 7800 4700 7800
Wire Wire Line
	3350 7900 3350 10500
Wire Wire Line
	3350 7900 4700 7900
Wire Wire Line
	3250 8000 4700 8000
Wire Wire Line
	3150 8100 4700 8100
Wire Wire Line
	3050 6700 4700 6700
Wire Wire Line
	6000 8200 8750 8200
Wire Wire Line
	6000 8400 6500 8400
$Comp
L Device:R R?
U 1 1 602AF85A
P 9300 8100
AR Path="/5FEBF4E2/602AF85A" Ref="R?"  Part="1" 
AR Path="/602AF85A" Ref="R13"  Part="1" 
F 0 "R13" V 9093 8100 50  0000 C CNN
F 1 "R" V 9184 8100 50  0000 C CNN
F 2 "Resistor_SMD:R_0805_2012Metric" V 9230 8100 50  0001 C CNN
F 3 "~" H 9300 8100 50  0001 C CNN
	1    9300 8100
	0    1    1    0   
$EndComp
$Comp
L Device:R R?
U 1 1 602AF860
P 9300 8200
AR Path="/5FEBF4E2/602AF860" Ref="R?"  Part="1" 
AR Path="/602AF860" Ref="R14"  Part="1" 
F 0 "R14" V 9093 8200 50  0000 C CNN
F 1 "R" V 9184 8200 50  0000 C CNN
F 2 "Resistor_SMD:R_0805_2012Metric" V 9230 8200 50  0001 C CNN
F 3 "~" H 9300 8200 50  0001 C CNN
	1    9300 8200
	0    1    1    0   
$EndComp
$Comp
L Device:C C?
U 1 1 602AF866
P 6500 8650
AR Path="/5FEBF4E2/602AF866" Ref="C?"  Part="1" 
AR Path="/602AF866" Ref="C17"  Part="1" 
F 0 "C17" H 6615 8696 50  0000 L CNN
F 1 "C" H 6615 8605 50  0000 L CNN
F 2 "Capacitor_SMD:C_0805_2012Metric" H 6538 8500 50  0001 C CNN
F 3 "~" H 6500 8650 50  0001 C CNN
	1    6500 8650
	1    0    0    -1  
$EndComp
Wire Wire Line
	6500 8500 6500 8400
$Comp
L power:GND #PWR?
U 1 1 602AF86D
P 6500 8800
AR Path="/5FEBF4E2/602AF86D" Ref="#PWR?"  Part="1" 
AR Path="/602AF86D" Ref="#PWR019"  Part="1" 
F 0 "#PWR019" H 6500 8550 50  0001 C CNN
F 1 "GND" H 6505 8627 50  0000 C CNN
F 2 "" H 6500 8800 50  0001 C CNN
F 3 "" H 6500 8800 50  0001 C CNN
	1    6500 8800
	1    0    0    -1  
$EndComp
Wire Wire Line
	6000 7300 7600 7300
Wire Wire Line
	7600 7300 7600 8400
Wire Wire Line
	6000 7400 7500 7400
Wire Wire Line
	7500 7400 7500 8500
Wire Wire Line
	6000 7600 6850 7600
Wire Wire Line
	6850 7600 6850 8500
$Comp
L Device:C C?
U 1 1 602AF879
P 6850 8650
AR Path="/5FEBF4E2/602AF879" Ref="C?"  Part="1" 
AR Path="/602AF879" Ref="C18"  Part="1" 
F 0 "C18" H 6965 8696 50  0000 L CNN
F 1 "C" H 6965 8605 50  0000 L CNN
F 2 "Capacitor_SMD:C_0805_2012Metric" H 6888 8500 50  0001 C CNN
F 3 "~" H 6850 8650 50  0001 C CNN
	1    6850 8650
	1    0    0    -1  
$EndComp
$Comp
L power:GND #PWR?
U 1 1 602AF87F
P 6850 8800
AR Path="/5FEBF4E2/602AF87F" Ref="#PWR?"  Part="1" 
AR Path="/602AF87F" Ref="#PWR020"  Part="1" 
F 0 "#PWR020" H 6850 8550 50  0001 C CNN
F 1 "GND" H 6855 8627 50  0000 C CNN
F 2 "" H 6850 8800 50  0001 C CNN
F 3 "" H 6850 8800 50  0001 C CNN
	1    6850 8800
	1    0    0    -1  
$EndComp
Wire Wire Line
	4700 7500 3950 7500
Wire Wire Line
	3950 7500 3950 9450
Wire Wire Line
	3950 9450 7400 9450
Wire Wire Line
	7400 9450 7400 8600
Wire Wire Line
	4700 7600 3750 7600
Wire Wire Line
	3750 7600 3750 8500
$Comp
L Device:C C?
U 1 1 602AF88B
P 3750 8650
AR Path="/5FEBF4E2/602AF88B" Ref="C?"  Part="1" 
AR Path="/602AF88B" Ref="C5"  Part="1" 
F 0 "C5" H 3865 8696 50  0000 L CNN
F 1 "C" H 3865 8605 50  0000 L CNN
F 2 "Capacitor_SMD:C_0805_2012Metric" H 3788 8500 50  0001 C CNN
F 3 "~" H 3750 8650 50  0001 C CNN
	1    3750 8650
	1    0    0    -1  
$EndComp
$Comp
L power:GND #PWR?
U 1 1 602AF891
P 3750 8800
AR Path="/5FEBF4E2/602AF891" Ref="#PWR?"  Part="1" 
AR Path="/602AF891" Ref="#PWR09"  Part="1" 
F 0 "#PWR09" H 3750 8550 50  0001 C CNN
F 1 "GND" H 3755 8627 50  0000 C CNN
F 2 "" H 3750 8800 50  0001 C CNN
F 3 "" H 3750 8800 50  0001 C CNN
	1    3750 8800
	1    0    0    -1  
$EndComp
$Comp
L Device:R R?
U 1 1 602AF897
P 9300 8400
AR Path="/5FEBF4E2/602AF897" Ref="R?"  Part="1" 
AR Path="/602AF897" Ref="R16"  Part="1" 
F 0 "R16" V 9093 8400 50  0000 C CNN
F 1 "R" V 9184 8400 50  0000 C CNN
F 2 "Resistor_SMD:R_0805_2012Metric" V 9230 8400 50  0001 C CNN
F 3 "~" H 9300 8400 50  0001 C CNN
	1    9300 8400
	0    1    1    0   
$EndComp
$Comp
L Device:R R?
U 1 1 602AF89D
P 9300 8500
AR Path="/5FEBF4E2/602AF89D" Ref="R?"  Part="1" 
AR Path="/602AF89D" Ref="R17"  Part="1" 
F 0 "R17" V 9093 8500 50  0000 C CNN
F 1 "R" V 9184 8500 50  0000 C CNN
F 2 "Resistor_SMD:R_0805_2012Metric" V 9230 8500 50  0001 C CNN
F 3 "~" H 9300 8500 50  0001 C CNN
	1    9300 8500
	0    1    1    0   
$EndComp
$Comp
L Device:R R?
U 1 1 602AF8A3
P 9300 8600
AR Path="/5FEBF4E2/602AF8A3" Ref="R?"  Part="1" 
AR Path="/602AF8A3" Ref="R18"  Part="1" 
F 0 "R18" V 9415 8600 50  0000 C CNN
F 1 "R" V 9506 8600 50  0000 C CNN
F 2 "Resistor_SMD:R_0805_2012Metric" V 9230 8600 50  0001 C CNN
F 3 "~" H 9300 8600 50  0001 C CNN
	1    9300 8600
	0    1    1    0   
$EndComp
$Comp
L Device:R R?
U 1 1 602AF8A9
P 4000 6500
AR Path="/5FEBF4E2/602AF8A9" Ref="R?"  Part="1" 
AR Path="/602AF8A9" Ref="R6"  Part="1" 
F 0 "R6" V 4150 6500 50  0000 C CNN
F 1 "10k" V 4250 6500 50  0000 C CNN
F 2 "Resistor_SMD:R_0805_2012Metric" V 3930 6500 50  0001 C CNN
F 3 "~" H 4000 6500 50  0001 C CNN
	1    4000 6500
	0    1    1    0   
$EndComp
$Comp
L power:GND #PWR?
U 1 1 602AF8AF
P 3150 6400
AR Path="/5FEBEE19/602AF8AF" Ref="#PWR?"  Part="1" 
AR Path="/5FEBF4E2/602AF8AF" Ref="#PWR?"  Part="1" 
AR Path="/602AF8AF" Ref="#PWR04"  Part="1" 
F 0 "#PWR04" H 3150 6150 50  0001 C CNN
F 1 "GND" H 3155 6227 50  0000 C CNN
F 2 "" H 3150 6400 50  0001 C CNN
F 3 "" H 3150 6400 50  0001 C CNN
	1    3150 6400
	1    0    0    -1  
$EndComp
$Comp
L power:+3V3 #PWR?
U 1 1 602AF8B5
P 3150 6000
AR Path="/5FEBF4E2/602AF8B5" Ref="#PWR?"  Part="1" 
AR Path="/602AF8B5" Ref="#PWR03"  Part="1" 
F 0 "#PWR03" H 3150 5850 50  0001 C CNN
F 1 "+3V3" H 3165 6173 50  0000 C CNN
F 2 "" H 3150 6000 50  0001 C CNN
F 3 "" H 3150 6000 50  0001 C CNN
	1    3150 6000
	1    0    0    -1  
$EndComp
$Comp
L Regulator_Switching:TPS62160DGK U?
U 1 1 602AF8BB
P 4350 1350
AR Path="/5FEBF4E2/602AF8BB" Ref="U?"  Part="1" 
AR Path="/602AF8BB" Ref="U2"  Part="1" 
F 0 "U2" H 4350 1917 50  0000 C CNN
F 1 "TPS62160DGK" H 4350 1826 50  0000 C CNN
F 2 "Package_SO:MSOP-8_3x3mm_P0.65mm" H 4500 1000 50  0001 L CNN
F 3 "http://www.ti.com/lit/ds/symlink/tps62160.pdf" H 4350 1900 50  0001 C CNN
	1    4350 1350
	1    0    0    -1  
$EndComp
$Comp
L Device:R R?
U 1 1 602AF8C2
P 5450 1650
AR Path="/5FEBF4E2/602AF8C2" Ref="R?"  Part="1" 
AR Path="/602AF8C2" Ref="R10"  Part="1" 
F 0 "R10" H 5520 1696 50  0000 L CNN
F 1 "24k" H 5520 1605 50  0000 L CNN
F 2 "Resistor_SMD:R_0805_2012Metric" V 5380 1650 50  0001 C CNN
F 3 "~" H 5450 1650 50  0001 C CNN
F 4 "1%" H 5450 1650 50  0000 C CNN "Precision"
	1    5450 1650
	1    0    0    -1  
$EndComp
$Comp
L Device:R R?
U 1 1 602AF8C9
P 5450 1250
AR Path="/5FEBF4E2/602AF8C9" Ref="R?"  Part="1" 
AR Path="/602AF8C9" Ref="R9"  Part="1" 
F 0 "R9" H 5520 1296 50  0000 L CNN
F 1 "75k" H 5520 1205 50  0000 L CNN
F 2 "Resistor_SMD:R_0805_2012Metric" V 5380 1250 50  0001 C CNN
F 3 "~" H 5450 1250 50  0001 C CNN
F 4 "1%" H 5450 1250 50  0000 C CNN "Precision"
	1    5450 1250
	1    0    0    -1  
$EndComp
$Comp
L Device:L L?
U 1 1 602AF8CF
P 5000 1050
AR Path="/5FEBF4E2/602AF8CF" Ref="L?"  Part="1" 
AR Path="/602AF8CF" Ref="L1"  Part="1" 
F 0 "L1" V 5190 1050 50  0000 C CNN
F 1 "2.2u" V 5099 1050 50  0000 C CNN
F 2 "CustomFootprints:L_TDK_VLS3012" H 5000 1050 50  0001 C CNN
F 3 "~" H 5000 1050 50  0001 C CNN
	1    5000 1050
	0    -1   -1   0   
$EndComp
Wire Wire Line
	4750 1050 4850 1050
Wire Wire Line
	4750 1150 5250 1150
Wire Wire Line
	5250 1150 5250 1050
Wire Wire Line
	5250 1050 5150 1050
Wire Wire Line
	5250 1050 5450 1050
Wire Wire Line
	5450 1050 5450 1100
Connection ~ 5250 1050
Wire Wire Line
	4750 1250 4850 1250
Wire Wire Line
	4850 1250 4850 1450
Wire Wire Line
	4850 1450 5450 1450
Wire Wire Line
	5450 1450 5450 1400
Wire Wire Line
	5450 1500 5450 1450
Connection ~ 5450 1450
Wire Wire Line
	5450 1800 5450 1850
Wire Wire Line
	5450 1850 4450 1850
Wire Wire Line
	4450 1850 4450 1750
Wire Wire Line
	4450 1850 4350 1850
Wire Wire Line
	4350 1850 4350 1750
Connection ~ 4450 1850
Wire Wire Line
	3950 1150 3850 1150
Wire Wire Line
	3850 1150 3850 1050
Wire Wire Line
	3850 1050 3950 1050
$Comp
L Device:C C?
U 1 1 602AF8EB
P 3550 1450
AR Path="/5FEBF4E2/602AF8EB" Ref="C?"  Part="1" 
AR Path="/602AF8EB" Ref="C2"  Part="1" 
F 0 "C2" H 3665 1496 50  0000 L CNN
F 1 "10u" H 3665 1405 50  0000 L CNN
F 2 "Capacitor_SMD:C_0805_2012Metric" H 3588 1300 50  0001 C CNN
F 3 "~" H 3550 1450 50  0001 C CNN
	1    3550 1450
	1    0    0    -1  
$EndComp
Wire Wire Line
	3550 1300 3550 1050
Wire Wire Line
	3550 1050 3750 1050
Connection ~ 3850 1050
Wire Wire Line
	3550 1600 3550 1850
Wire Wire Line
	3550 1850 4350 1850
Connection ~ 4350 1850
$Comp
L Device:C C?
U 1 1 602AF8F7
P 5900 1450
AR Path="/5FEBF4E2/602AF8F7" Ref="C?"  Part="1" 
AR Path="/602AF8F7" Ref="C13"  Part="1" 
F 0 "C13" H 6015 1496 50  0000 L CNN
F 1 "22u" H 6015 1405 50  0000 L CNN
F 2 "Capacitor_SMD:C_0805_2012Metric" H 5938 1300 50  0001 C CNN
F 3 "~" H 5900 1450 50  0001 C CNN
	1    5900 1450
	1    0    0    -1  
$EndComp
Wire Wire Line
	5450 1050 5650 1050
Wire Wire Line
	5900 1050 5900 1300
Connection ~ 5450 1050
Wire Wire Line
	5900 1600 5900 1850
Wire Wire Line
	5900 1850 5450 1850
Connection ~ 5450 1850
Wire Wire Line
	3550 1850 2900 1850
Connection ~ 3550 1850
Connection ~ 2100 1850
Wire Wire Line
	2100 1850 2100 1900
$Comp
L Device:D_Zener D?
U 1 1 602AF907
P 3200 1250
AR Path="/5FEBF4E2/602AF907" Ref="D?"  Part="1" 
AR Path="/602AF907" Ref="D1"  Part="1" 
F 0 "D1" V 3154 1330 50  0000 L CNN
F 1 "8.2V" V 3245 1330 50  0000 L CNN
F 2 "Diode_SMD:D_SOT-23_ANK" H 3200 1250 50  0001 C CNN
F 3 "~" H 3200 1250 50  0001 C CNN
	1    3200 1250
	0    1    1    0   
$EndComp
$Comp
L Device:R R?
U 1 1 602AF90D
P 2900 1650
AR Path="/5FEBF4E2/602AF90D" Ref="R?"  Part="1" 
AR Path="/602AF90D" Ref="R4"  Part="1" 
F 0 "R4" H 2970 1696 50  0000 L CNN
F 1 "200k" H 2970 1605 50  0000 L CNN
F 2 "Resistor_SMD:R_0805_2012Metric" V 2830 1650 50  0001 C CNN
F 3 "~" H 2900 1650 50  0001 C CNN
	1    2900 1650
	1    0    0    -1  
$EndComp
Wire Wire Line
	3100 1050 3200 1050
Connection ~ 3550 1050
Wire Wire Line
	3200 1100 3200 1050
Connection ~ 3200 1050
Wire Wire Line
	3200 1400 2900 1400
Wire Wire Line
	2900 1400 2900 1350
Wire Wire Line
	2900 1400 2900 1500
Connection ~ 2900 1400
Wire Wire Line
	2900 1800 2900 1850
Connection ~ 2900 1850
Wire Wire Line
	2900 1850 2400 1850
Wire Wire Line
	2100 1050 2100 1350
Wire Wire Line
	2100 1350 2000 1350
$Comp
L Device:Polyfuse F?
U 1 1 602AF920
P 2350 1050
AR Path="/5FEBF4E2/602AF920" Ref="F?"  Part="1" 
AR Path="/602AF920" Ref="F1"  Part="1" 
F 0 "F1" V 2125 1050 50  0000 C CNN
F 1 "2A" V 2216 1050 50  0000 C CNN
F 2 "Fuse:Fuse_Bourns_MF-SM_9.5x6.71mm" H 2400 850 50  0001 L CNN
F 3 "~" H 2350 1050 50  0001 C CNN
	1    2350 1050
	0    1    1    0   
$EndComp
Wire Wire Line
	2500 1050 2700 1050
Wire Wire Line
	2200 1050 2100 1050
Connection ~ 3750 1050
Wire Wire Line
	3750 1050 3850 1050
$Comp
L power:PWR_FLAG #FLG?
U 1 1 602AF92A
P 2400 1850
AR Path="/5FEBF4E2/602AF92A" Ref="#FLG?"  Part="1" 
AR Path="/602AF92A" Ref="#FLG01"  Part="1" 
F 0 "#FLG01" H 2400 1925 50  0001 C CNN
F 1 "PWR_FLAG" H 2400 2023 50  0000 C CNN
F 2 "" H 2400 1850 50  0001 C CNN
F 3 "~" H 2400 1850 50  0001 C CNN
	1    2400 1850
	1    0    0    1   
$EndComp
Connection ~ 2400 1850
Wire Wire Line
	2400 1850 2100 1850
Wire Wire Line
	5900 1050 6000 1050
Wire Wire Line
	6000 1050 6000 950 
Connection ~ 5900 1050
$Comp
L power:+3V3 #PWR?
U 1 1 602AF935
P 6000 950
AR Path="/5FEBF4E2/602AF935" Ref="#PWR?"  Part="1" 
AR Path="/602AF935" Ref="#PWR015"  Part="1" 
F 0 "#PWR015" H 6000 800 50  0001 C CNN
F 1 "+3V3" H 6015 1123 50  0000 C CNN
F 2 "" H 6000 950 50  0001 C CNN
F 3 "" H 6000 950 50  0001 C CNN
	1    6000 950 
	1    0    0    -1  
$EndComp
Wire Wire Line
	3200 1050 3450 1050
$Comp
L Device:D_Schottky D?
U 1 1 602AF93C
P 8050 3950
AR Path="/5FEBF4E2/602AF93C" Ref="D?"  Part="1" 
AR Path="/602AF93C" Ref="D4"  Part="1" 
F 0 "D4" V 8004 4030 50  0000 L CNN
F 1 "D_Schottky" V 8095 4030 50  0000 L CNN
F 2 "Diode_SMD:D_SOD-523" H 8050 3950 50  0001 C CNN
F 3 "~" H 8050 3950 50  0001 C CNN
	1    8050 3950
	0    1    1    0   
$EndComp
$Comp
L Device:D_Schottky D?
U 1 1 602AF942
P 7850 3950
AR Path="/5FEBF4E2/602AF942" Ref="D?"  Part="1" 
AR Path="/602AF942" Ref="D2"  Part="1" 
F 0 "D2" V 7804 4030 50  0000 L CNN
F 1 "D_Schottky" V 7895 4030 50  0000 L CNN
F 2 "Diode_SMD:D_SOD-523" H 7850 3950 50  0001 C CNN
F 3 "~" H 7850 3950 50  0001 C CNN
	1    7850 3950
	0    1    1    0   
$EndComp
$Comp
L Device:D_Schottky D?
U 1 1 602AF948
P 7850 4650
AR Path="/5FEBF4E2/602AF948" Ref="D?"  Part="1" 
AR Path="/602AF948" Ref="D3"  Part="1" 
F 0 "D3" V 7804 4571 50  0000 R CNN
F 1 "D_Schottky" V 7895 4571 50  0000 R CNN
F 2 "Diode_SMD:D_SOD-523" H 7850 4650 50  0001 C CNN
F 3 "~" H 7850 4650 50  0001 C CNN
	1    7850 4650
	0    1    1    0   
$EndComp
$Comp
L Device:D_Schottky D?
U 1 1 602AF94E
P 8050 4650
AR Path="/5FEBF4E2/602AF94E" Ref="D?"  Part="1" 
AR Path="/602AF94E" Ref="D5"  Part="1" 
F 0 "D5" V 8004 4730 50  0000 L CNN
F 1 "D_Schottky" V 8095 4730 50  0000 L CNN
F 2 "Diode_SMD:D_SOD-523" H 8050 4650 50  0001 C CNN
F 3 "~" H 8050 4650 50  0001 C CNN
	1    8050 4650
	0    1    1    0   
$EndComp
$Comp
L Device:C C?
U 1 1 602AF954
P 7450 3800
AR Path="/5FEBF4E2/602AF954" Ref="C?"  Part="1" 
AR Path="/602AF954" Ref="C19"  Part="1" 
F 0 "C19" H 7565 3846 50  0000 L CNN
F 1 "10u" H 7565 3755 50  0000 L CNN
F 2 "Capacitor_SMD:C_0805_2012Metric" H 7488 3650 50  0001 C CNN
F 3 "~" H 7450 3800 50  0001 C CNN
	1    7450 3800
	1    0    0    -1  
$EndComp
Wire Wire Line
	7850 4100 7850 4200
Connection ~ 7850 4200
Wire Wire Line
	7850 4200 8800 4200
Wire Wire Line
	7850 4200 7850 4500
Wire Wire Line
	8050 4100 8050 4400
Connection ~ 8050 4400
Wire Wire Line
	8050 4400 8600 4400
Wire Wire Line
	8050 4400 8050 4500
Wire Wire Line
	7850 3800 7850 3750
Wire Wire Line
	7850 3750 7950 3750
Wire Wire Line
	8050 3750 8050 3800
Wire Wire Line
	7850 4800 7850 4850
Wire Wire Line
	7850 4850 7950 4850
Wire Wire Line
	8050 4850 8050 4800
$Comp
L power:GND #PWR?
U 1 1 602AF968
P 7950 4850
AR Path="/5FEBF4E2/602AF968" Ref="#PWR?"  Part="1" 
AR Path="/602AF968" Ref="#PWR023"  Part="1" 
F 0 "#PWR023" H 7950 4600 50  0001 C CNN
F 1 "GND" H 7955 4677 50  0000 C CNN
F 2 "" H 7950 4850 50  0001 C CNN
F 3 "" H 7950 4850 50  0001 C CNN
	1    7950 4850
	1    0    0    -1  
$EndComp
Connection ~ 7950 4850
Wire Wire Line
	7950 4850 8050 4850
$Comp
L power:GND #PWR?
U 1 1 602AF970
P 7450 3950
AR Path="/5FEBF4E2/602AF970" Ref="#PWR?"  Part="1" 
AR Path="/602AF970" Ref="#PWR021"  Part="1" 
F 0 "#PWR021" H 7450 3700 50  0001 C CNN
F 1 "GND" H 7455 3777 50  0000 C CNN
F 2 "" H 7450 3950 50  0001 C CNN
F 3 "" H 7450 3950 50  0001 C CNN
	1    7450 3950
	1    0    0    -1  
$EndComp
Wire Wire Line
	7450 3650 7450 3600
Wire Wire Line
	7450 3600 7950 3600
Wire Wire Line
	7950 3600 7950 3750
Connection ~ 7950 3750
Wire Wire Line
	7950 3750 8050 3750
Wire Wire Line
	7950 3600 7950 3550
Connection ~ 7950 3600
$Comp
L power:+3V3 #PWR?
U 1 1 602AF97D
P 7950 3550
AR Path="/5FEBF4E2/602AF97D" Ref="#PWR?"  Part="1" 
AR Path="/602AF97D" Ref="#PWR022"  Part="1" 
F 0 "#PWR022" H 7950 3400 50  0001 C CNN
F 1 "+3V3" H 7965 3723 50  0000 C CNN
F 2 "" H 7950 3550 50  0001 C CNN
F 3 "" H 7950 3550 50  0001 C CNN
	1    7950 3550
	1    0    0    -1  
$EndComp
Wire Wire Line
	3950 1450 3850 1450
Wire Wire Line
	3850 1450 3850 2050
Wire Wire Line
	2000 1450 2100 1450
Wire Wire Line
	2100 1450 2100 1550
Connection ~ 2100 1550
Wire Wire Line
	9450 8600 9550 8600
Wire Wire Line
	6000 5200 12500 5200
Wire Wire Line
	6000 5300 12500 5300
Wire Wire Line
	6000 5400 12500 5400
Wire Wire Line
	6000 5500 12500 5500
Wire Wire Line
	6000 5700 7200 5700
Wire Wire Line
	7200 5700 7200 5600
Wire Wire Line
	7200 5600 12500 5600
Wire Wire Line
	6000 5800 7300 5800
Wire Wire Line
	7300 5800 7300 5700
Wire Wire Line
	7300 5700 12500 5700
Wire Wire Line
	6000 5900 7400 5900
Wire Wire Line
	7400 5900 7400 5800
Wire Wire Line
	7400 5800 12500 5800
Wire Wire Line
	6000 6900 7500 6900
Wire Wire Line
	7500 6900 7500 5900
Wire Wire Line
	7500 5900 12500 5900
Wire Wire Line
	6000 7000 7600 7000
Wire Wire Line
	7600 7000 7600 6000
Wire Wire Line
	7600 6000 12500 6000
Wire Wire Line
	6000 7100 7700 7100
Wire Wire Line
	7700 7100 7700 6100
Wire Wire Line
	7700 6100 12500 6100
Wire Wire Line
	6000 7900 7800 7900
Wire Wire Line
	7800 7900 7800 6200
Wire Wire Line
	7800 6200 12500 6200
Wire Wire Line
	6000 8000 7900 8000
Wire Wire Line
	7900 8000 7900 6300
Wire Wire Line
	7900 6300 12500 6300
Wire Wire Line
	2850 9650 9900 9650
Wire Wire Line
	9900 9650 9900 6400
Wire Wire Line
	9900 6400 12500 6400
$Comp
L CustomSymbols:MAX5407 U?
U 1 1 602AF9A8
P 10800 1400
AR Path="/5FEBF4E2/602AF9A8" Ref="U?"  Part="1" 
AR Path="/602AF9A8" Ref="U4"  Part="1" 
F 0 "U4" H 11394 1146 50  0000 L CNN
F 1 "MAX5407" H 11394 1055 50  0000 L CNN
F 2 "Package_TO_SOT_SMD:SOT-23-8" H 10800 1400 50  0001 C CNN
F 3 "https://datasheets.maximintegrated.com/en/ds/MAX5407.pdf" H 10800 1400 50  0001 C CNN
	1    10800 1400
	1    0    0    -1  
$EndComp
Text Label 4700 7300 2    50   ~ 0
DISP_SEG8
Wire Wire Line
	4700 7300 2850 7300
Wire Wire Line
	2850 7300 2850 9650
Wire Wire Line
	9750 1500 9750 2400
Wire Wire Line
	9850 1600 9850 2500
Text Label 4700 7200 2    50   ~ 0
ADC_LIGHT_SENSOR
Text Label 6000 5600 0    50   ~ 0
DAC_SPEAKER
Text Label 6000 6600 0    50   ~ 0
SWCLK
Text Label 6000 6500 0    50   ~ 0
SWDIO
Wire Wire Line
	12050 8850 11450 8850
Connection ~ 12050 8850
Wire Wire Line
	12250 8750 11350 8750
Connection ~ 12250 8750
Wire Wire Line
	12200 8650 11250 8650
Wire Wire Line
	11250 8650 11250 10600
Connection ~ 12200 8650
Wire Wire Line
	12350 8550 11150 8550
Wire Wire Line
	11150 8550 11150 10500
Connection ~ 12350 8550
Wire Wire Line
	12500 8450 11050 8450
Wire Wire Line
	11050 8450 11050 10400
Connection ~ 12500 8450
Wire Wire Line
	12650 8350 10950 8350
Wire Wire Line
	10950 8350 10950 10300
Wire Wire Line
	3550 10300 10950 10300
Wire Wire Line
	11050 10400 3450 10400
Wire Wire Line
	3350 10500 11150 10500
Wire Wire Line
	11250 10600 3250 10600
Wire Wire Line
	3250 10600 3250 8000
Wire Wire Line
	11350 10700 3150 10700
Wire Wire Line
	11350 8750 11350 10700
Wire Wire Line
	3150 10700 3150 8100
Wire Wire Line
	3050 10800 11450 10800
Wire Wire Line
	11450 8850 11450 10800
Wire Wire Line
	3050 10800 3050 6700
$Comp
L Device:Speaker LS?
U 1 1 602AF9D1
P 15800 1850
AR Path="/5FEBF4E2/602AF9D1" Ref="LS?"  Part="1" 
AR Path="/602AF9D1" Ref="LS1"  Part="1" 
F 0 "LS1" H 15970 1846 50  0000 L CNN
F 1 "4 Ohm" H 15970 1755 50  0000 L CNN
F 2 "Connector_PinHeader_2.54mm:PinHeader_1x02_P2.54mm_Vertical" H 15800 1650 50  0001 C CNN
F 3 "~" H 15790 1800 50  0001 C CNN
	1    15800 1850
	1    0    0    -1  
$EndComp
$Comp
L CustomSymbols:MCP6074 U?
U 1 1 602AF9D7
P 11950 1600
AR Path="/5FEBF4E2/602AF9D7" Ref="U?"  Part="1" 
AR Path="/602AF9D7" Ref="U1"  Part="1" 
F 0 "U1" H 11950 1875 50  0000 C CNN
F 1 "MCP6074" H 11950 1966 50  0000 C CNN
F 2 "Package_SO:SOIC-14_3.9x8.7mm_P1.27mm" H 11900 1700 50  0001 C CNN
F 3 "https://ww1.microchip.com/downloads/en/DeviceDoc/22142_B_MCP6071.pdf" H 12000 1800 50  0001 C CNN
	1    11950 1600
	1    0    0    1   
$EndComp
Wire Wire Line
	12250 1600 12300 1600
Wire Wire Line
	12300 1600 12300 1300
Wire Wire Line
	12300 1300 11600 1300
Wire Wire Line
	11600 1300 11600 1500
Wire Wire Line
	11600 1500 11650 1500
Connection ~ 12300 1600
Wire Wire Line
	11350 1700 11650 1700
Wire Wire Line
	10900 2100 10900 2600
Wire Wire Line
	10700 2600 10900 2600
Wire Wire Line
	10700 2100 10700 2600
Connection ~ 10900 2600
Wire Wire Line
	10900 550  10900 1300
Wire Wire Line
	6900 4200 7850 4200
Wire Wire Line
	7000 4400 8050 4400
Wire Wire Line
	6000 5600 6700 5600
Wire Wire Line
	6700 5600 6700 950 
Wire Wire Line
	9750 1500 10250 1500
Wire Wire Line
	9850 1600 10250 1600
$Comp
L power:+3V3 #PWR?
U 1 1 602AF9EF
P 10700 800
AR Path="/5FEBF4E2/602AF9EF" Ref="#PWR?"  Part="1" 
AR Path="/602AF9EF" Ref="#PWR032"  Part="1" 
F 0 "#PWR032" H 10700 650 50  0001 C CNN
F 1 "+3V3" H 10715 973 50  0000 C CNN
F 2 "" H 10700 800 50  0001 C CNN
F 3 "" H 10700 800 50  0001 C CNN
	1    10700 800 
	1    0    0    -1  
$EndComp
$Comp
L Device:C C?
U 1 1 602AF9F5
P 10150 1050
AR Path="/5FEBF4E2/602AF9F5" Ref="C?"  Part="1" 
AR Path="/602AF9F5" Ref="C21"  Part="1" 
F 0 "C21" H 10265 1096 50  0000 L CNN
F 1 "100n" H 10265 1005 50  0000 L CNN
F 2 "Capacitor_SMD:C_0805_2012Metric" H 10188 900 50  0001 C CNN
F 3 "~" H 10150 1050 50  0001 C CNN
	1    10150 1050
	1    0    0    -1  
$EndComp
$Comp
L power:GND #PWR?
U 1 1 602AF9FB
P 10150 1200
AR Path="/5FEBF4E2/602AF9FB" Ref="#PWR?"  Part="1" 
AR Path="/602AF9FB" Ref="#PWR031"  Part="1" 
F 0 "#PWR031" H 10150 950 50  0001 C CNN
F 1 "GND" H 10155 1027 50  0000 C CNN
F 2 "" H 10150 1200 50  0001 C CNN
F 3 "" H 10150 1200 50  0001 C CNN
	1    10150 1200
	1    0    0    -1  
$EndComp
Wire Wire Line
	10700 800  10700 850 
Wire Wire Line
	10150 900  10150 850 
Wire Wire Line
	10150 850  10700 850 
Connection ~ 10700 850 
Wire Wire Line
	10700 850  10700 1300
$Comp
L CustomSymbols:MCP6074 U?
U 2 1 602AFA06
P 9100 850
AR Path="/5FEBF4E2/602AFA06" Ref="U?"  Part="2" 
AR Path="/602AFA06" Ref="U1"  Part="2" 
F 0 "U1" H 9100 1125 50  0000 C CNN
F 1 "MCP6074" H 9100 1216 50  0000 C CNN
F 2 "Package_SO:SOIC-14_3.9x8.7mm_P1.27mm" H 9050 950 50  0001 C CNN
F 3 "https://ww1.microchip.com/downloads/en/DeviceDoc/22142_B_MCP6071.pdf" H 9150 1050 50  0001 C CNN
	2    9100 850 
	1    0    0    1   
$EndComp
Wire Wire Line
	10900 550  9800 550 
Wire Wire Line
	9800 550  9800 850 
Wire Wire Line
	8800 950  8650 950 
Wire Wire Line
	8800 750  8750 750 
Wire Wire Line
	8750 750  8750 550 
Wire Wire Line
	8750 550  9450 550 
Wire Wire Line
	9450 550  9450 850 
Connection ~ 9450 850 
Wire Wire Line
	9450 850  9400 850 
$Comp
L Jumper:SolderJumper_2_Open JP?
U 1 1 602AFA15
P 9100 1350
AR Path="/5FEBF4E2/602AFA15" Ref="JP?"  Part="1" 
AR Path="/602AFA15" Ref="JP3"  Part="1" 
F 0 "JP3" H 9100 1217 50  0000 C CNN
F 1 "JUMPER_DAC_EXT_BUFFER" H 9100 1126 50  0000 C CNN
F 2 "Jumper:SolderJumper-2_P1.3mm_Open_TrianglePad1.0x1.5mm" H 9100 1350 50  0001 C CNN
F 3 "~" H 9100 1350 50  0001 C CNN
	1    9100 1350
	1    0    0    -1  
$EndComp
Wire Wire Line
	8950 1350 8650 1350
Wire Wire Line
	8650 1350 8650 950 
Connection ~ 8650 950 
Wire Wire Line
	8650 950  6700 950 
Wire Wire Line
	9250 1350 9550 1350
Wire Wire Line
	9800 850  9550 850 
Wire Wire Line
	9550 1350 9550 850 
Connection ~ 9550 850 
Wire Wire Line
	9550 850  9450 850 
Text Label 4700 7100 2    50   ~ 0
SPEAKER_MUTE
Wire Wire Line
	2350 6900 2350 2400
Wire Wire Line
	2250 7000 2250 2500
Wire Wire Line
	2150 7100 2150 2800
Wire Wire Line
	2150 7100 4700 7100
Wire Wire Line
	2350 2400 9750 2400
Wire Wire Line
	2250 2500 9850 2500
Wire Wire Line
	2350 6900 4700 6900
Wire Wire Line
	2250 7000 4700 7000
Wire Wire Line
	2150 2800 12250 2800
$Comp
L Jumper:SolderJumper_2_Open JP?
U 1 1 602AFA2E
P 4300 4100
AR Path="/5FEBF4E2/602AFA2E" Ref="JP?"  Part="1" 
AR Path="/602AFA2E" Ref="JP2"  Part="1" 
F 0 "JP2" V 4254 4013 50  0000 R CNN
F 1 "JUMPER_PG_NRST" V 4345 4013 50  0000 R CNN
F 2 "Jumper:SolderJumper-2_P1.3mm_Open_TrianglePad1.0x1.5mm" H 4300 4100 50  0001 C CNN
F 3 "~" H 4300 4100 50  0001 C CNN
	1    4300 4100
	0    1    1    0   
$EndComp
$Comp
L Device:R R?
U 1 1 602AFA34
P 4300 3700
AR Path="/5FEBF4E2/602AFA34" Ref="R?"  Part="1" 
AR Path="/602AFA34" Ref="R7"  Part="1" 
F 0 "R7" H 4230 3654 50  0000 R CNN
F 1 "10k" H 4230 3745 50  0000 R CNN
F 2 "Resistor_SMD:R_0805_2012Metric" V 4230 3700 50  0001 C CNN
F 3 "~" H 4300 3700 50  0001 C CNN
	1    4300 3700
	-1   0    0    1   
$EndComp
Wire Wire Line
	4300 4250 4300 4750
Connection ~ 4300 4750
Wire Wire Line
	4300 3950 4300 3850
Wire Wire Line
	4300 3550 4300 2050
Wire Wire Line
	4300 2050 3850 2050
Wire Wire Line
	4700 7200 2400 7200
Wire Wire Line
	4150 6500 4700 6500
$Comp
L CustomSymbols:MCP6074 U?
U 3 1 602AFA41
P 1800 7550
AR Path="/5FEBF4E2/602AFA41" Ref="U?"  Part="3" 
AR Path="/602AFA41" Ref="U1"  Part="3" 
F 0 "U1" H 1800 7917 50  0000 C CNN
F 1 "MCP6074" H 1800 7826 50  0000 C CNN
F 2 "Package_SO:SOIC-14_3.9x8.7mm_P1.27mm" H 1750 7650 50  0001 C CNN
F 3 "https://ww1.microchip.com/downloads/en/DeviceDoc/22142_B_MCP6071.pdf" H 1850 7750 50  0001 C CNN
	3    1800 7550
	1    0    0    -1  
$EndComp
$Comp
L Device:R R?
U 1 1 602AFA47
P 1800 7850
AR Path="/5FEBF4E2/602AFA47" Ref="R?"  Part="1" 
AR Path="/602AFA47" Ref="R2"  Part="1" 
F 0 "R2" V 1915 7850 50  0000 C CNN
F 1 "0" V 2006 7850 50  0000 C CNN
F 2 "Resistor_SMD:R_0805_2012Metric" V 1730 7850 50  0001 C CNN
F 3 "~" H 1800 7850 50  0001 C CNN
	1    1800 7850
	0    1    1    0   
$EndComp
Wire Wire Line
	1650 7850 1450 7850
Wire Wire Line
	1450 7850 1450 7650
Wire Wire Line
	1450 7650 1500 7650
Wire Wire Line
	1950 7850 2150 7850
Wire Wire Line
	2150 7850 2150 7550
Wire Wire Line
	2150 7550 2100 7550
Wire Wire Line
	2150 7850 2150 7900
Connection ~ 2150 7850
Wire Wire Line
	2150 7550 2400 7550
Wire Wire Line
	2400 7550 2400 7200
Connection ~ 2150 7550
Wire Wire Line
	1500 7450 1200 7450
$Comp
L power:GND #PWR?
U 1 1 602AFA59
P 2150 8300
AR Path="/5FEBF4E2/602AFA59" Ref="#PWR?"  Part="1" 
AR Path="/602AFA59" Ref="#PWR02"  Part="1" 
F 0 "#PWR02" H 2150 8050 50  0001 C CNN
F 1 "GND" H 2155 8127 50  0000 C CNN
F 2 "" H 2150 8300 50  0001 C CNN
F 3 "" H 2150 8300 50  0001 C CNN
	1    2150 8300
	1    0    0    -1  
$EndComp
$Comp
L Device:R R?
U 1 1 602AFA60
P 1200 7850
AR Path="/5FEBF4E2/602AFA60" Ref="R?"  Part="1" 
AR Path="/602AFA60" Ref="R1"  Part="1" 
F 0 "R1" H 1270 7896 50  0000 L CNN
F 1 "5k" H 1270 7805 50  0000 L CNN
F 2 "Resistor_SMD:R_0805_2012Metric" V 1130 7850 50  0001 C CNN
F 3 "~" H 1200 7850 50  0001 C CNN
F 4 "1%" H 1200 7850 50  0000 C CNN "Precision"
	1    1200 7850
	1    0    0    -1  
$EndComp
Wire Wire Line
	1200 7700 1200 7450
Connection ~ 1200 7450
Wire Wire Line
	1200 8000 1200 8250
Wire Wire Line
	2150 8250 1200 8250
Wire Wire Line
	2150 8250 2150 8200
Wire Wire Line
	2150 8250 2150 8300
Connection ~ 2150 8250
$Comp
L CustomSymbols:R_Unpopulated R?
U 1 1 602AFA6D
P 2150 8050
AR Path="/5FEBF4E2/602AFA6D" Ref="R?"  Part="1" 
AR Path="/602AFA6D" Ref="R3"  Part="1" 
F 0 "R3" H 2220 8096 50  0000 L CNN
F 1 "R_Unpopulated" H 2220 8005 50  0000 L CNN
F 2 "Resistor_SMD:R_0805_2012Metric" V 2080 8050 50  0001 C CNN
F 3 "~" H 2150 8050 50  0001 C CNN
	1    2150 8050
	1    0    0    -1  
$EndComp
Wire Wire Line
	10250 1900 10200 1900
Wire Wire Line
	10200 1900 10200 2600
Wire Wire Line
	10200 2600 10700 2600
Connection ~ 10700 2600
$Comp
L power:GND #PWR?
U 1 1 602AFA77
P 12650 2650
AR Path="/5FEBF4E2/602AFA77" Ref="#PWR?"  Part="1" 
AR Path="/602AFA77" Ref="#PWR041"  Part="1" 
F 0 "#PWR041" H 12650 2400 50  0001 C CNN
F 1 "GND" H 12655 2477 50  0000 C CNN
F 2 "" H 12650 2650 50  0001 C CNN
F 3 "" H 12650 2650 50  0001 C CNN
	1    12650 2650
	1    0    0    -1  
$EndComp
Wire Wire Line
	12650 2650 12650 2600
Text Notes 11650 8350 0    50   ~ 0
DAT0
Text Notes 11650 8450 0    50   ~ 0
DAT1
Text Notes 11650 8550 0    50   ~ 0
DAT2
Text Notes 11650 8650 0    50   ~ 0
DAT3
Text Notes 11650 8850 0    50   ~ 0
CMD
Text Notes 11650 8750 0    50   ~ 0
CLK
$Comp
L Jumper:SolderJumper_2_Open JP?
U 1 1 602AFA84
P 9550 8850
AR Path="/5FEBF4E2/602AFA84" Ref="JP?"  Part="1" 
AR Path="/602AFA84" Ref="JP4"  Part="1" 
F 0 "JP4" V 9504 8918 50  0000 L CNN
F 1 "JUMPER_SHIELD_GND" V 9595 8918 50  0000 L CNN
F 2 "Jumper:SolderJumper-2_P1.3mm_Open_TrianglePad1.0x1.5mm" H 9550 8850 50  0001 C CNN
F 3 "~" H 9550 8850 50  0001 C CNN
	1    9550 8850
	0    1    1    0   
$EndComp
Wire Wire Line
	9550 8700 9550 8600
Connection ~ 9550 8600
$Comp
L power:GND #PWR?
U 1 1 602AFA8C
P 9550 9000
AR Path="/5FEBF4E2/602AFA8C" Ref="#PWR?"  Part="1" 
AR Path="/602AFA8C" Ref="#PWR027"  Part="1" 
F 0 "#PWR027" H 9550 8750 50  0001 C CNN
F 1 "GND" H 9555 8827 50  0000 C CNN
F 2 "" H 9550 9000 50  0001 C CNN
F 3 "" H 9550 9000 50  0001 C CNN
	1    9550 9000
	1    0    0    -1  
$EndComp
$Comp
L Device:D_Schottky D?
U 1 1 602AFA92
P 8900 7850
AR Path="/5FEBF4E2/602AFA92" Ref="D?"  Part="1" 
AR Path="/602AFA92" Ref="D11"  Part="1" 
F 0 "D11" V 8854 7930 50  0000 L CNN
F 1 "D_Schottky" V 8945 7930 50  0000 L CNN
F 2 "Diode_SMD:D_SOD-523" H 8900 7850 50  0001 C CNN
F 3 "~" H 8900 7850 50  0001 C CNN
	1    8900 7850
	0    1    1    0   
$EndComp
$Comp
L Device:D_Schottky D?
U 1 1 602AFA98
P 8750 7850
AR Path="/5FEBF4E2/602AFA98" Ref="D?"  Part="1" 
AR Path="/602AFA98" Ref="D10"  Part="1" 
F 0 "D10" V 8704 7930 50  0000 L CNN
F 1 "D_Schottky" V 8795 7930 50  0000 L CNN
F 2 "Diode_SMD:D_SOD-523" H 8750 7850 50  0001 C CNN
F 3 "~" H 8750 7850 50  0001 C CNN
	1    8750 7850
	0    1    1    0   
$EndComp
$Comp
L Device:D_Schottky D?
U 1 1 602AFA9E
P 8600 7850
AR Path="/5FEBF4E2/602AFA9E" Ref="D?"  Part="1" 
AR Path="/602AFA9E" Ref="D9"  Part="1" 
F 0 "D9" V 8554 7930 50  0000 L CNN
F 1 "D_Schottky" V 8645 7930 50  0000 L CNN
F 2 "Diode_SMD:D_SOD-523" H 8600 7850 50  0001 C CNN
F 3 "~" H 8600 7850 50  0001 C CNN
	1    8600 7850
	0    1    1    0   
$EndComp
$Comp
L Device:D_Schottky D?
U 1 1 602AFAA4
P 8450 7850
AR Path="/5FEBF4E2/602AFAA4" Ref="D?"  Part="1" 
AR Path="/602AFAA4" Ref="D8"  Part="1" 
F 0 "D8" V 8404 7930 50  0000 L CNN
F 1 "D_Schottky" V 8495 7930 50  0000 L CNN
F 2 "Diode_SMD:D_SOD-523" H 8450 7850 50  0001 C CNN
F 3 "~" H 8450 7850 50  0001 C CNN
	1    8450 7850
	0    1    1    0   
$EndComp
$Comp
L Device:D_Schottky D?
U 1 1 602AFAAA
P 8300 7850
AR Path="/5FEBF4E2/602AFAAA" Ref="D?"  Part="1" 
AR Path="/602AFAAA" Ref="D7"  Part="1" 
F 0 "D7" V 8254 7930 50  0000 L CNN
F 1 "D_Schottky" V 8345 7930 50  0000 L CNN
F 2 "Diode_SMD:D_SOD-523" H 8300 7850 50  0001 C CNN
F 3 "~" H 8300 7850 50  0001 C CNN
	1    8300 7850
	0    1    1    0   
$EndComp
Wire Wire Line
	8900 8000 8900 8100
Connection ~ 8900 8100
Wire Wire Line
	8900 8100 9150 8100
Wire Wire Line
	8750 8000 8750 8200
Connection ~ 8750 8200
Wire Wire Line
	8750 8200 9150 8200
Wire Wire Line
	8300 7650 8450 7650
Wire Wire Line
	8900 7650 8900 7700
Wire Wire Line
	8750 7650 8750 7700
Connection ~ 8750 7650
Wire Wire Line
	8750 7650 8900 7650
Wire Wire Line
	8600 7650 8600 7700
Connection ~ 8600 7650
Wire Wire Line
	8600 7650 8750 7650
Wire Wire Line
	8450 7650 8450 7700
Connection ~ 8450 7650
Wire Wire Line
	8450 7650 8500 7650
$Comp
L power:+3V3 #PWR?
U 1 1 602AFAC1
P 8500 7550
AR Path="/5FEBF4E2/602AFAC1" Ref="#PWR?"  Part="1" 
AR Path="/602AFAC1" Ref="#PWR024"  Part="1" 
F 0 "#PWR024" H 8500 7400 50  0001 C CNN
F 1 "+3V3" H 8515 7723 50  0000 C CNN
F 2 "" H 8500 7550 50  0001 C CNN
F 3 "" H 8500 7550 50  0001 C CNN
	1    8500 7550
	1    0    0    -1  
$EndComp
Text Notes 8100 7600 0    50   ~ 0
TODO: Schottkys overkill? do not order & populate?
$Comp
L Device:R R?
U 1 1 602AFAC8
P 9300 8300
AR Path="/5FEBF4E2/602AFAC8" Ref="R?"  Part="1" 
AR Path="/602AFAC8" Ref="R15"  Part="1" 
F 0 "R15" V 9093 8300 50  0000 C CNN
F 1 "R" V 9184 8300 50  0000 C CNN
F 2 "Resistor_SMD:R_0805_2012Metric" V 9230 8300 50  0001 C CNN
F 3 "~" H 9300 8300 50  0001 C CNN
	1    9300 8300
	0    1    1    0   
$EndComp
Wire Wire Line
	6000 8100 8900 8100
Wire Wire Line
	8300 7700 8300 7650
Wire Wire Line
	7600 8400 8450 8400
Wire Wire Line
	7500 8500 8300 8500
Wire Wire Line
	7400 8600 8150 8600
$Comp
L Device:D_Schottky D?
U 1 1 602AFAD3
P 8150 7850
AR Path="/5FEBF4E2/602AFAD3" Ref="D?"  Part="1" 
AR Path="/602AFAD3" Ref="D6"  Part="1" 
F 0 "D6" V 8104 7771 50  0000 R CNN
F 1 "D_Schottky" V 8195 7771 50  0000 R CNN
F 2 "Diode_SMD:D_SOD-523" H 8150 7850 50  0001 C CNN
F 3 "~" H 8150 7850 50  0001 C CNN
	1    8150 7850
	0    1    1    0   
$EndComp
Wire Wire Line
	8300 7650 8150 7650
Wire Wire Line
	8150 7650 8150 7700
Connection ~ 8300 7650
Wire Wire Line
	6000 8300 8600 8300
Wire Wire Line
	8600 8000 8600 8300
Connection ~ 8600 8300
Wire Wire Line
	8600 8300 9150 8300
Wire Wire Line
	8450 8000 8450 8400
Connection ~ 8450 8400
Wire Wire Line
	8450 8400 9150 8400
Wire Wire Line
	8300 8000 8300 8500
Connection ~ 8300 8500
Wire Wire Line
	8300 8500 9150 8500
Wire Wire Line
	8150 8000 8150 8600
Connection ~ 8150 8600
Wire Wire Line
	8150 8600 9150 8600
Text Notes 9550 8100 0    50   ~ 0
BTN_1
Text Notes 9550 8200 0    50   ~ 0
BTN_2
Text Notes 9550 8400 0    50   ~ 0
BTN_3
Text Notes 9550 8500 0    50   ~ 0
BTN_4
Text Notes 9550 8300 0    50   ~ 0
PROX
Text Notes 9550 8600 0    50   ~ 0
SHIELD
Wire Wire Line
	8500 7550 8500 7650
Connection ~ 8500 7650
Wire Wire Line
	8500 7650 8600 7650
$Comp
L Device:D_Zener D?
U 1 1 602AFAF2
P 14250 7650
AR Path="/5FEBF4E2/602AFAF2" Ref="D?"  Part="1" 
AR Path="/602AFAF2" Ref="D14"  Part="1" 
F 0 "D14" V 14204 7730 50  0000 L CNN
F 1 "3.9V" V 14295 7730 50  0000 L CNN
F 2 "Diode_SMD:D_SOT-23_ANK" H 14250 7650 50  0001 C CNN
F 3 "~" H 14250 7650 50  0001 C CNN
	1    14250 7650
	0    1    1    0   
$EndComp
Wire Wire Line
	14250 7500 14250 7450
Wire Wire Line
	14250 7450 14100 7450
$Comp
L power:GND #PWR?
U 1 1 602AFAFA
P 14250 7800
AR Path="/5FEBF4E2/602AFAFA" Ref="#PWR?"  Part="1" 
AR Path="/602AFAFA" Ref="#PWR048"  Part="1" 
F 0 "#PWR048" H 14250 7550 50  0001 C CNN
F 1 "GND" H 14255 7627 50  0000 C CNN
F 2 "" H 14250 7800 50  0001 C CNN
F 3 "" H 14250 7800 50  0001 C CNN
	1    14250 7800
	1    0    0    -1  
$EndComp
$Comp
L Device:R R?
U 1 1 602AFB00
P 8600 3950
AR Path="/5FEBF4E2/602AFB00" Ref="R?"  Part="1" 
AR Path="/602AFB00" Ref="R11"  Part="1" 
F 0 "R11" H 8670 3996 50  0000 L CNN
F 1 "3.9k" H 8670 3905 50  0000 L CNN
F 2 "Resistor_SMD:R_0805_2012Metric" V 8530 3950 50  0001 C CNN
F 3 "~" H 8600 3950 50  0001 C CNN
	1    8600 3950
	1    0    0    -1  
$EndComp
$Comp
L Device:R R?
U 1 1 602AFB06
P 8800 3950
AR Path="/5FEBF4E2/602AFB06" Ref="R?"  Part="1" 
AR Path="/602AFB06" Ref="R12"  Part="1" 
F 0 "R12" H 8870 3996 50  0000 L CNN
F 1 "3.9k" H 8870 3905 50  0000 L CNN
F 2 "Resistor_SMD:R_0805_2012Metric" V 8730 3950 50  0001 C CNN
F 3 "~" H 8800 3950 50  0001 C CNN
	1    8800 3950
	1    0    0    -1  
$EndComp
Wire Wire Line
	8800 4100 8800 4200
Connection ~ 8800 4200
Wire Wire Line
	8800 4200 9700 4200
Wire Wire Line
	8600 4100 8600 4400
Connection ~ 8600 4400
Wire Wire Line
	8600 4400 9700 4400
$Comp
L power:+3V3 #PWR?
U 1 1 602AFB12
P 8700 3650
AR Path="/5FEBF4E2/602AFB12" Ref="#PWR?"  Part="1" 
AR Path="/602AFB12" Ref="#PWR025"  Part="1" 
F 0 "#PWR025" H 8700 3500 50  0001 C CNN
F 1 "+3V3" H 8715 3823 50  0000 C CNN
F 2 "" H 8700 3650 50  0001 C CNN
F 3 "" H 8700 3650 50  0001 C CNN
	1    8700 3650
	1    0    0    -1  
$EndComp
Wire Wire Line
	8700 3650 8700 3750
Wire Wire Line
	8700 3750 8600 3750
Wire Wire Line
	8600 3750 8600 3800
Wire Wire Line
	8700 3750 8800 3750
Wire Wire Line
	8800 3750 8800 3800
Connection ~ 8700 3750
$Comp
L power:GND #PWR?
U 1 1 602AFB1E
P 11000 8100
AR Path="/5FEBF4E2/602AFB1E" Ref="#PWR?"  Part="1" 
AR Path="/602AFB1E" Ref="#PWR034"  Part="1" 
F 0 "#PWR034" H 11000 7850 50  0001 C CNN
F 1 "GND" H 11005 7927 50  0000 C CNN
F 2 "" H 11000 8100 50  0001 C CNN
F 3 "" H 11000 8100 50  0001 C CNN
	1    11000 8100
	1    0    0    -1  
$EndComp
Wire Wire Line
	11000 8100 11000 8050
Wire Wire Line
	11000 8050 11050 8050
Wire Wire Line
	10750 8600 10750 7950
Wire Wire Line
	10750 7950 11050 7950
Wire Wire Line
	9550 8600 10150 8600
Wire Wire Line
	9450 8500 10650 8500
Wire Wire Line
	9450 8400 10550 8400
Wire Wire Line
	9450 8300 10450 8300
Wire Wire Line
	9450 8200 10350 8200
Wire Wire Line
	9450 8100 10250 8100
Text Label 6000 8300 0    50   ~ 0
TSC_G1_IO3
Wire Wire Line
	10250 7250 10250 8100
Wire Wire Line
	10550 7350 10550 8400
Wire Wire Line
	10350 7550 10350 8200
Wire Wire Line
	10650 7650 10650 8500
Wire Wire Line
	10450 7850 10450 8300
Wire Wire Line
	10150 7450 10150 7750
Connection ~ 10150 8600
Wire Wire Line
	10150 8600 10750 8600
Connection ~ 10150 7750
Wire Wire Line
	10150 7750 10150 8600
Wire Wire Line
	10450 7850 11050 7850
Wire Wire Line
	10150 7750 11050 7750
Wire Wire Line
	10650 7650 11050 7650
Wire Wire Line
	10350 7550 11050 7550
Wire Wire Line
	10150 7450 11050 7450
Wire Wire Line
	10550 7350 11050 7350
Wire Wire Line
	10250 7250 11050 7250
$Comp
L Connector_Generic:Conn_01x12 J?
U 1 1 602AFB40
P 11250 7450
AR Path="/5FEBF4E2/602AFB40" Ref="J?"  Part="1" 
AR Path="/602AFB40" Ref="J4"  Part="1" 
F 0 "J4" H 11330 7442 50  0000 L CNN
F 1 "CON_TOP" H 11330 7351 50  0000 L CNN
F 2 "Connector_PinHeader_2.54mm:PinHeader_2x06_P2.54mm_Vertical" H 11250 7450 50  0001 C CNN
F 3 "~" H 11250 7450 50  0001 C CNN
	1    11250 7450
	1    0    0    -1  
$EndComp
$Comp
L power:+3V3 #PWR?
U 1 1 602AFB46
P 11000 6900
AR Path="/5FEBF4E2/602AFB46" Ref="#PWR?"  Part="1" 
AR Path="/602AFB46" Ref="#PWR033"  Part="1" 
F 0 "#PWR033" H 11000 6750 50  0001 C CNN
F 1 "+3V3" H 11015 7073 50  0000 C CNN
F 2 "" H 11000 6900 50  0001 C CNN
F 3 "" H 11000 6900 50  0001 C CNN
	1    11000 6900
	1    0    0    -1  
$EndComp
Wire Wire Line
	10150 7450 10150 7150
Wire Wire Line
	10150 7150 11050 7150
Connection ~ 10150 7450
Text Notes 11050 7150 2    50   ~ 0
SHIELD
Text Notes 11050 7450 2    50   ~ 0
SHIELD
Text Notes 11050 7750 2    50   ~ 0
SHIELD
Text Notes 11050 7950 2    50   ~ 0
SHIELD
Text Notes 11050 7250 2    50   ~ 0
BTN_1
Text Notes 11050 7350 2    50   ~ 0
BTN_3
Text Notes 11050 7550 2    50   ~ 0
BTN_2
Text Notes 11050 7650 2    50   ~ 0
BTN_4
Text Notes 11050 7850 2    50   ~ 0
PROX
Text Notes 11050 7050 2    50   ~ 0
LED_CTRL
Wire Wire Line
	11000 6900 11000 6950
Wire Wire Line
	11000 6950 11050 6950
$Comp
L power:+3V3 #PWR?
U 1 1 602AFB5B
P 12500 5100
AR Path="/5FEBF4E2/602AFB5B" Ref="#PWR?"  Part="1" 
AR Path="/602AFB5B" Ref="#PWR040"  Part="1" 
F 0 "#PWR040" H 12500 4950 50  0001 C CNN
F 1 "+3V3" V 12515 5228 50  0000 L CNN
F 2 "" H 12500 5100 50  0001 C CNN
F 3 "" H 12500 5100 50  0001 C CNN
	1    12500 5100
	0    -1   -1   0   
$EndComp
$Comp
L Connector_Generic:Conn_01x18 J?
U 1 1 602AFB61
P 12700 5700
AR Path="/5FEBF4E2/602AFB61" Ref="J?"  Part="1" 
AR Path="/602AFB61" Ref="J5"  Part="1" 
F 0 "J5" H 12780 5692 50  0000 L CNN
F 1 "CON_FRONT" H 12780 5601 50  0000 L CNN
F 2 "Connector_PinHeader_2.54mm:PinHeader_2x09_P2.54mm_Vertical" H 12700 5700 50  0001 C CNN
F 3 "~" H 12700 5700 50  0001 C CNN
	1    12700 5700
	1    0    0    -1  
$EndComp
Wire Wire Line
	1000 7450 1000 7350
Wire Wire Line
	1000 3000 11550 3000
Wire Wire Line
	1000 7450 1200 7450
Wire Wire Line
	3300 6200 3500 6200
Wire Wire Line
	3500 6200 3500 6500
Wire Wire Line
	3500 6500 3850 6500
Wire Wire Line
	5400 4950 5600 4950
$Comp
L Device:C C?
U 1 1 602AFB6E
P 5700 4700
AR Path="/5FEBF4E2/602AFB6E" Ref="C?"  Part="1" 
AR Path="/602AFB6E" Ref="C11"  Part="1" 
F 0 "C11" H 5585 4654 50  0000 R CNN
F 1 "100n" H 5585 4745 50  0000 R CNN
F 2 "Capacitor_SMD:C_0805_2012Metric" H 5738 4550 50  0001 C CNN
F 3 "~" H 5700 4700 50  0001 C CNN
	1    5700 4700
	-1   0    0    1   
$EndComp
$Comp
L Device:C C?
U 1 1 602AFB74
P 6100 4700
AR Path="/5FEBF4E2/602AFB74" Ref="C?"  Part="1" 
AR Path="/602AFB74" Ref="C15"  Part="1" 
F 0 "C15" H 5985 4654 50  0000 R CNN
F 1 "100n" H 5985 4745 50  0000 R CNN
F 2 "Capacitor_SMD:C_0805_2012Metric" H 6138 4550 50  0001 C CNN
F 3 "~" H 6100 4700 50  0001 C CNN
	1    6100 4700
	-1   0    0    1   
$EndComp
Wire Wire Line
	5500 4500 5700 4500
Wire Wire Line
	5500 4500 5500 5000
Wire Wire Line
	5700 4500 5700 4550
Connection ~ 5700 4500
Wire Wire Line
	5700 4500 5750 4500
Wire Wire Line
	6050 4500 6100 4500
Wire Wire Line
	6100 4500 6100 4550
$Comp
L power:GND #PWR?
U 1 1 602AFB81
P 5700 4850
AR Path="/5FEBEE19/602AFB81" Ref="#PWR?"  Part="1" 
AR Path="/5FEBF4E2/602AFB81" Ref="#PWR?"  Part="1" 
AR Path="/602AFB81" Ref="#PWR014"  Part="1" 
F 0 "#PWR014" H 5700 4600 50  0001 C CNN
F 1 "GND" H 5705 4677 50  0000 C CNN
F 2 "" H 5700 4850 50  0001 C CNN
F 3 "" H 5700 4850 50  0001 C CNN
	1    5700 4850
	1    0    0    -1  
$EndComp
$Comp
L power:GND #PWR?
U 1 1 602AFB87
P 6100 4850
AR Path="/5FEBEE19/602AFB87" Ref="#PWR?"  Part="1" 
AR Path="/5FEBF4E2/602AFB87" Ref="#PWR?"  Part="1" 
AR Path="/602AFB87" Ref="#PWR016"  Part="1" 
F 0 "#PWR016" H 6100 4600 50  0001 C CNN
F 1 "GND" H 6105 4677 50  0000 C CNN
F 2 "" H 6100 4850 50  0001 C CNN
F 3 "" H 6100 4850 50  0001 C CNN
	1    6100 4850
	1    0    0    -1  
$EndComp
Connection ~ 6100 3700
Wire Wire Line
	6100 3700 6250 3700
Connection ~ 6250 3700
$Comp
L Device:Ferrite_Bead FB?
U 1 1 602AFB90
P 5900 4500
AR Path="/5FEBF4E2/602AFB90" Ref="FB?"  Part="1" 
AR Path="/602AFB90" Ref="FB2"  Part="1" 
F 0 "FB2" V 5626 4500 50  0000 C CNN
F 1 "Ferrite_Bead" V 5717 4500 50  0000 C CNN
F 2 "Inductor_SMD:L_0805_2012Metric" V 5830 4500 50  0001 C CNN
F 3 "~" H 5900 4500 50  0001 C CNN
	1    5900 4500
	0    1    1    0   
$EndComp
$Comp
L Jumper:SolderJumper_3_Open JP?
U 1 1 602AFB96
P 3150 6200
AR Path="/5FEBF4E2/602AFB96" Ref="JP?"  Part="1" 
AR Path="/602AFB96" Ref="JP1"  Part="1" 
F 0 "JP1" V 3196 6267 50  0000 L CNN
F 1 "JUMPER_BOOT0" V 3105 6267 50  0000 L CNN
F 2 "Jumper:SolderJumper-3_P2.0mm_Open_TrianglePad1.0x1.5mm" H 3150 6200 50  0001 C CNN
F 3 "~" H 3150 6200 50  0001 C CNN
	1    3150 6200
	0    -1   -1   0   
$EndComp
$Comp
L MCU_ST_STM32L4:STM32L431RCTx U?
U 1 1 602AFB9C
P 5400 6800
AR Path="/5FEBF4E2/602AFB9C" Ref="U?"  Part="1" 
AR Path="/602AFB9C" Ref="U3"  Part="1" 
F 0 "U3" H 5400 6800 50  0000 C CNN
F 1 "STM32L431RCTx" H 5250 7850 50  0000 C CNN
F 2 "Package_QFP:LQFP-64_10x10mm_P0.5mm" H 4800 5100 50  0001 R CNN
F 3 "http://www.st.com/st-web-ui/static/active/en/resource/technical/document/datasheet/DM00257211.pdf" H 5400 6800 50  0001 C CNN
	1    5400 6800
	1    0    0    -1  
$EndComp
$Comp
L Device:Ferrite_Bead FB?
U 1 1 602AFBA2
P 1000 7200
AR Path="/5FEBF4E2/602AFBA2" Ref="FB?"  Part="1" 
AR Path="/602AFBA2" Ref="FB1"  Part="1" 
F 0 "FB1" H 1137 7246 50  0000 L CNN
F 1 "Ferrite_Bead" H 1137 7155 50  0000 L CNN
F 2 "Inductor_SMD:L_0805_2012Metric" V 930 7200 50  0001 C CNN
F 3 "~" H 1000 7200 50  0001 C CNN
	1    1000 7200
	1    0    0    -1  
$EndComp
Wire Wire Line
	1000 7050 1000 3000
$Comp
L Device:C C?
U 1 1 602AFBA9
P 1000 7850
AR Path="/5FEBF4E2/602AFBA9" Ref="C?"  Part="1" 
AR Path="/602AFBA9" Ref="C1"  Part="1" 
F 0 "C1" H 885 7896 50  0000 R CNN
F 1 "100n" H 885 7805 50  0000 R CNN
F 2 "Capacitor_SMD:C_0805_2012Metric" H 1038 7700 50  0001 C CNN
F 3 "~" H 1000 7850 50  0001 C CNN
	1    1000 7850
	1    0    0    -1  
$EndComp
Wire Wire Line
	1000 7700 1000 7450
Connection ~ 1000 7450
Wire Wire Line
	1000 8000 1000 8250
Wire Wire Line
	1000 8250 1200 8250
Connection ~ 1200 8250
$Comp
L Device:C C?
U 1 1 602AFBB4
P 13000 5050
AR Path="/5FEBF4E2/602AFBB4" Ref="C?"  Part="1" 
AR Path="/602AFBB4" Ref="C23"  Part="1" 
F 0 "C23" H 13115 5096 50  0000 L CNN
F 1 "100n" H 13115 5005 50  0000 L CNN
F 2 "Capacitor_SMD:C_0805_2012Metric" H 13038 4900 50  0001 C CNN
F 3 "~" H 13000 5050 50  0001 C CNN
	1    13000 5050
	1    0    0    -1  
$EndComp
$Comp
L power:GND #PWR?
U 1 1 602AFBBA
P 13000 5200
AR Path="/5FEBF4E2/602AFBBA" Ref="#PWR?"  Part="1" 
AR Path="/602AFBBA" Ref="#PWR043"  Part="1" 
F 0 "#PWR043" H 13000 4950 50  0001 C CNN
F 1 "GND" H 13005 5027 50  0000 C CNN
F 2 "" H 13000 5200 50  0001 C CNN
F 3 "" H 13000 5200 50  0001 C CNN
	1    13000 5200
	1    0    0    -1  
$EndComp
$Comp
L power:+3V3 #PWR?
U 1 1 602AFBC0
P 13000 4900
AR Path="/5FEBF4E2/602AFBC0" Ref="#PWR?"  Part="1" 
AR Path="/602AFBC0" Ref="#PWR042"  Part="1" 
F 0 "#PWR042" H 13000 4750 50  0001 C CNN
F 1 "+3V3" H 13015 5073 50  0000 C CNN
F 2 "" H 13000 4900 50  0001 C CNN
F 3 "" H 13000 4900 50  0001 C CNN
	1    13000 4900
	1    0    0    -1  
$EndComp
Wire Wire Line
	7000 7800 6000 7800
Wire Wire Line
	7000 4400 7000 7800
Wire Wire Line
	6000 6100 7300 6100
Wire Wire Line
	7300 6100 7300 6500
Wire Wire Line
	7300 6500 12500 6500
Wire Wire Line
	6000 6000 7400 6000
Wire Wire Line
	7400 6000 7400 6600
Wire Wire Line
	7400 6600 12500 6600
Text Label 6000 6000 0    50   ~ 0
DISP_PWM
Wire Wire Line
	8100 7050 8100 6750
Wire Wire Line
	8100 6750 6700 6750
Wire Wire Line
	6700 6750 6700 6200
Wire Wire Line
	6700 6200 6000 6200
Wire Wire Line
	8100 7050 11050 7050
Text Label 6000 6200 0    50   ~ 0
BTN_LED_PWM
Wire Wire Line
	12500 4900 11550 4900
$Comp
L Device:Q_PMOS_GSD Q?
U 1 1 602AFBD7
P 2900 1150
AR Path="/5FEBF4E2/602AFBD7" Ref="Q?"  Part="1" 
AR Path="/602AFBD7" Ref="Q1"  Part="1" 
F 0 "Q1" V 3242 1150 50  0000 C CNN
F 1 "IRLML2246TRPbF" V 3151 1150 50  0000 C CNN
F 2 "Package_TO_SOT_SMD:SOT-23" H 3100 1250 50  0001 C CNN
F 3 "~" H 2900 1150 50  0001 C CNN
	1    2900 1150
	0    -1   -1   0   
$EndComp
$Comp
L Device:C C?
U 1 1 602AFBDD
P 10000 3550
AR Path="/5FEBF4E2/602AFBDD" Ref="C?"  Part="1" 
AR Path="/602AFBDD" Ref="C20"  Part="1" 
F 0 "C20" H 9885 3596 50  0000 R CNN
F 1 "100n" H 9885 3505 50  0000 R CNN
F 2 "Capacitor_SMD:C_0805_2012Metric" H 10038 3400 50  0001 C CNN
F 3 "~" H 10000 3550 50  0001 C CNN
	1    10000 3550
	1    0    0    -1  
$EndComp
Wire Wire Line
	6000 7700 6900 7700
Wire Wire Line
	6900 4200 6900 7700
$Comp
L power:GND #PWR?
U 1 1 602AFBE5
P 10000 3700
AR Path="/5FEBF4E2/602AFBE5" Ref="#PWR?"  Part="1" 
AR Path="/602AFBE5" Ref="#PWR030"  Part="1" 
F 0 "#PWR030" H 10000 3450 50  0001 C CNN
F 1 "GND" H 10005 3527 50  0000 C CNN
F 2 "" H 10000 3700 50  0001 C CNN
F 3 "" H 10000 3700 50  0001 C CNN
	1    10000 3700
	1    0    0    -1  
$EndComp
$Comp
L power:+12V #PWR?
U 1 1 602AFBEB
P 10000 3400
AR Path="/5FEBF4E2/602AFBEB" Ref="#PWR?"  Part="1" 
AR Path="/602AFBEB" Ref="#PWR029"  Part="1" 
F 0 "#PWR029" H 10000 3250 50  0001 C CNN
F 1 "+12V" H 10015 3573 50  0000 C CNN
F 2 "" H 10000 3400 50  0001 C CNN
F 3 "" H 10000 3400 50  0001 C CNN
	1    10000 3400
	1    0    0    -1  
$EndComp
Text Notes 9400 9050 2    50   ~ 0
To ground shield if active driving\ndoesn't work/isn't necessary
Text Notes 2250 7800 0    50   ~ 0
Provisions for gain,\nif necessary
$Comp
L power:GND #PWR?
U 1 1 602AFBF3
P 12500 5000
AR Path="/5FEBF4E2/602AFBF3" Ref="#PWR?"  Part="1" 
AR Path="/602AFBF3" Ref="#PWR039"  Part="1" 
F 0 "#PWR039" H 12500 4750 50  0001 C CNN
F 1 "GND" V 12505 4872 50  0000 R CNN
F 2 "" H 12500 5000 50  0001 C CNN
F 3 "" H 12500 5000 50  0001 C CNN
	1    12500 5000
	0    1    1    0   
$EndComp
Text Notes 14600 7550 0    50   ~ 0
Max current: 100mA (during write)
Text Notes 4900 3500 0    50   ~ 0
Max VDD current: 15mA
Wire Wire Line
	10900 2600 12650 2600
Text Notes 12550 1050 0    50   ~ 0
Max current (full volume): 400mA
Text Notes 4350 700  0    50   ~ 0
Max total current on 3.3V rail: 955mA
$Comp
L CustomSymbols:PAM8304 U?
U 1 1 602AFBFE
P 14150 1900
AR Path="/5FEBF4E2/602AFBFE" Ref="U?"  Part="1" 
AR Path="/602AFBFE" Ref="U5"  Part="1" 
F 0 "U5" H 14150 1411 50  0000 C CNN
F 1 "PAM8304" H 14150 1320 50  0000 C CNN
F 2 "Package_SO:MSOP-8_3x3mm_P0.65mm" H 14150 1900 50  0001 C CNN
F 3 "https://www.diodes.com/assets/Datasheets/PAM8304.pdf" H 14150 1900 50  0001 C CNN
	1    14150 1900
	1    0    0    -1  
$EndComp
$Comp
L Device:R R?
U 1 1 602AFC04
P 13450 1700
AR Path="/5FEBF4E2/602AFC04" Ref="R?"  Part="1" 
AR Path="/602AFC04" Ref="R30"  Part="1" 
F 0 "R30" V 13243 1700 50  0000 C CNN
F 1 "300k" V 13334 1700 50  0000 C CNN
F 2 "Resistor_SMD:R_0805_2012Metric" V 13380 1700 50  0001 C CNN
F 3 "~" H 13450 1700 50  0001 C CNN
	1    13450 1700
	0    1    1    0   
$EndComp
$Comp
L Device:R R?
U 1 1 602AFC0A
P 13450 1900
AR Path="/5FEBF4E2/602AFC0A" Ref="R?"  Part="1" 
AR Path="/602AFC0A" Ref="R31"  Part="1" 
F 0 "R31" V 13565 1900 50  0000 C CNN
F 1 "300k" V 13656 1900 50  0000 C CNN
F 2 "Resistor_SMD:R_0805_2012Metric" V 13380 1900 50  0001 C CNN
F 3 "~" H 13450 1900 50  0001 C CNN
	1    13450 1900
	0    1    1    0   
$EndComp
$Comp
L Device:C C?
U 1 1 602AFC10
P 13050 1700
AR Path="/5FEBF4E2/602AFC10" Ref="C?"  Part="1" 
AR Path="/602AFC10" Ref="C24"  Part="1" 
F 0 "C24" V 12798 1700 50  0000 C CNN
F 1 "100n" V 12889 1700 50  0000 C CNN
F 2 "Capacitor_SMD:C_0805_2012Metric" H 13088 1550 50  0001 C CNN
F 3 "~" H 13050 1700 50  0001 C CNN
	1    13050 1700
	0    1    1    0   
$EndComp
$Comp
L Device:C C?
U 1 1 602AFC16
P 13050 1900
AR Path="/5FEBF4E2/602AFC16" Ref="C?"  Part="1" 
AR Path="/602AFC16" Ref="C25"  Part="1" 
F 0 "C25" V 13210 1900 50  0000 C CNN
F 1 "100n" V 13301 1900 50  0000 C CNN
F 2 "Capacitor_SMD:C_0805_2012Metric" H 13088 1750 50  0001 C CNN
F 3 "~" H 13050 1900 50  0001 C CNN
	1    13050 1900
	0    1    1    0   
$EndComp
$Comp
L Device:C C?
U 1 1 602AFC1C
P 14250 1150
AR Path="/5FEBF4E2/602AFC1C" Ref="C?"  Part="1" 
AR Path="/602AFC1C" Ref="C28"  Part="1" 
F 0 "C28" H 14135 1196 50  0000 R CNN
F 1 "100n" H 14135 1105 50  0000 R CNN
F 2 "Capacitor_SMD:C_0805_2012Metric" H 14288 1000 50  0001 C CNN
F 3 "~" H 14250 1150 50  0001 C CNN
	1    14250 1150
	1    0    0    -1  
$EndComp
$Comp
L Device:C C?
U 1 1 602AFC22
P 14450 1150
AR Path="/5FEBF4E2/602AFC22" Ref="C?"  Part="1" 
AR Path="/602AFC22" Ref="C29"  Part="1" 
F 0 "C29" H 14565 1196 50  0000 L CNN
F 1 "1u" H 14565 1105 50  0000 L CNN
F 2 "Capacitor_SMD:C_0805_2012Metric" H 14488 1000 50  0001 C CNN
F 3 "~" H 14450 1150 50  0001 C CNN
	1    14450 1150
	1    0    0    -1  
$EndComp
$Comp
L Device:C C?
U 1 1 602AFC28
P 14650 1150
AR Path="/5FEBF4E2/602AFC28" Ref="C?"  Part="1" 
AR Path="/602AFC28" Ref="C30"  Part="1" 
F 0 "C30" H 14765 1196 50  0000 L CNN
F 1 "10u" H 14765 1105 50  0000 L CNN
F 2 "Capacitor_SMD:C_0805_2012Metric" H 14688 1000 50  0001 C CNN
F 3 "~" H 14650 1150 50  0001 C CNN
	1    14650 1150
	1    0    0    -1  
$EndComp
$Comp
L Device:Ferrite_Bead FB?
U 1 1 602AFC2E
P 14850 1800
AR Path="/5FEBF4E2/602AFC2E" Ref="FB?"  Part="1" 
AR Path="/602AFC2E" Ref="FB3"  Part="1" 
F 0 "FB3" V 14576 1800 50  0000 C CNN
F 1 "Ferrite_Bead" V 14667 1800 50  0000 C CNN
F 2 "Inductor_SMD:L_0805_2012Metric" V 14780 1800 50  0001 C CNN
F 3 "~" H 14850 1800 50  0001 C CNN
	1    14850 1800
	0    1    1    0   
$EndComp
$Comp
L Device:Ferrite_Bead FB?
U 1 1 602AFC34
P 14850 2000
AR Path="/5FEBF4E2/602AFC34" Ref="FB?"  Part="1" 
AR Path="/602AFC34" Ref="FB4"  Part="1" 
F 0 "FB4" V 14576 2000 50  0000 C CNN
F 1 "Ferrite_Bead" V 14667 2000 50  0000 C CNN
F 2 "Inductor_SMD:L_0805_2012Metric" V 14780 2000 50  0001 C CNN
F 3 "~" H 14850 2000 50  0001 C CNN
	1    14850 2000
	0    1    1    0   
$EndComp
$Comp
L Device:C C?
U 1 1 602AFC3A
P 15200 2300
AR Path="/5FEBF4E2/602AFC3A" Ref="C?"  Part="1" 
AR Path="/602AFC3A" Ref="C31"  Part="1" 
F 0 "C31" H 15085 2346 50  0000 R CNN
F 1 "200p" H 15085 2255 50  0000 R CNN
F 2 "Capacitor_SMD:C_0805_2012Metric" H 15238 2150 50  0001 C CNN
F 3 "~" H 15200 2300 50  0001 C CNN
	1    15200 2300
	1    0    0    -1  
$EndComp
$Comp
L Device:C C?
U 1 1 602AFC40
P 15400 2300
AR Path="/5FEBF4E2/602AFC40" Ref="C?"  Part="1" 
AR Path="/602AFC40" Ref="C32"  Part="1" 
F 0 "C32" H 15515 2346 50  0000 L CNN
F 1 "200p" H 15515 2255 50  0000 L CNN
F 2 "Capacitor_SMD:C_0805_2012Metric" H 15438 2150 50  0001 C CNN
F 3 "~" H 15400 2300 50  0001 C CNN
	1    15400 2300
	1    0    0    -1  
$EndComp
$Comp
L Device:R R?
U 1 1 602AFC46
P 13600 2350
AR Path="/5FEBF4E2/602AFC46" Ref="R?"  Part="1" 
AR Path="/602AFC46" Ref="R32"  Part="1" 
F 0 "R32" H 13670 2396 50  0000 L CNN
F 1 "100k" H 13670 2305 50  0000 L CNN
F 2 "Resistor_SMD:R_0805_2012Metric" V 13530 2350 50  0001 C CNN
F 3 "~" H 13600 2350 50  0001 C CNN
	1    13600 2350
	1    0    0    -1  
$EndComp
Wire Wire Line
	12650 2600 12800 2600
Wire Wire Line
	15400 2600 15400 2450
Connection ~ 12650 2600
Wire Wire Line
	15200 2450 15200 2600
Connection ~ 15200 2600
Wire Wire Line
	15200 2600 15400 2600
Wire Wire Line
	14150 2300 14150 2600
Connection ~ 14150 2600
Wire Wire Line
	14150 2600 15200 2600
Wire Wire Line
	13600 2500 13600 2600
Connection ~ 13600 2600
Wire Wire Line
	13600 2600 14150 2600
Wire Wire Line
	13600 2200 13600 2100
Wire Wire Line
	13600 2100 13700 2100
Connection ~ 13600 2100
Wire Wire Line
	13200 1700 13300 1700
Wire Wire Line
	13200 1900 13300 1900
Wire Wire Line
	13600 1700 13700 1700
Wire Wire Line
	13600 1900 13700 1900
Wire Wire Line
	14600 1800 14700 1800
Wire Wire Line
	14600 2000 14700 2000
Wire Wire Line
	15000 1800 15200 1800
Wire Wire Line
	15500 1800 15500 1850
Wire Wire Line
	15500 1850 15600 1850
Wire Wire Line
	15000 2000 15400 2000
Wire Wire Line
	15500 2000 15500 1950
Wire Wire Line
	15500 1950 15600 1950
Wire Wire Line
	15200 2150 15200 1800
Connection ~ 15200 1800
Wire Wire Line
	15200 1800 15500 1800
Wire Wire Line
	15400 2150 15400 2000
Connection ~ 15400 2000
Wire Wire Line
	15400 2000 15500 2000
Wire Wire Line
	12250 2100 13600 2100
Wire Wire Line
	12250 2100 12250 2800
Wire Wire Line
	12900 1900 12800 1900
Wire Wire Line
	12800 1900 12800 2600
Connection ~ 12800 2600
Wire Wire Line
	12800 2600 13600 2600
Wire Wire Line
	12550 1600 12550 1700
Wire Wire Line
	12550 1700 12900 1700
Wire Wire Line
	12300 1600 12550 1600
Wire Wire Line
	14250 1300 14250 1350
Wire Wire Line
	14250 1350 14450 1350
Wire Wire Line
	14650 1350 14650 1300
Wire Wire Line
	14450 1300 14450 1350
Connection ~ 14450 1350
Wire Wire Line
	14450 1350 14650 1350
Wire Wire Line
	14250 1000 14250 950 
Wire Wire Line
	14250 950  14450 950 
Wire Wire Line
	14650 950  14650 1000
Wire Wire Line
	14450 1000 14450 950 
Connection ~ 14450 950 
Wire Wire Line
	14450 950  14650 950 
$Comp
L power:+3V3 #PWR?
U 1 1 602AFC82
P 14650 950
AR Path="/5FEBF4E2/602AFC82" Ref="#PWR?"  Part="1" 
AR Path="/602AFC82" Ref="#PWR049"  Part="1" 
F 0 "#PWR049" H 14650 800 50  0001 C CNN
F 1 "+3V3" H 14665 1123 50  0000 C CNN
F 2 "" H 14650 950 50  0001 C CNN
F 3 "" H 14650 950 50  0001 C CNN
	1    14650 950 
	1    0    0    -1  
$EndComp
$Comp
L power:GND #PWR?
U 1 1 602AFC88
P 14650 1350
AR Path="/5FEBF4E2/602AFC88" Ref="#PWR?"  Part="1" 
AR Path="/602AFC88" Ref="#PWR050"  Part="1" 
F 0 "#PWR050" H 14650 1100 50  0001 C CNN
F 1 "GND" H 14655 1177 50  0000 C CNN
F 2 "" H 14650 1350 50  0001 C CNN
F 3 "" H 14650 1350 50  0001 C CNN
	1    14650 1350
	1    0    0    -1  
$EndComp
Connection ~ 14650 1350
Connection ~ 14650 950 
Wire Wire Line
	14250 950  14100 950 
Wire Wire Line
	14100 950  14100 1450
Connection ~ 14250 950 
Wire Wire Line
	14200 1500 14200 1450
Wire Wire Line
	14200 1450 14100 1450
Connection ~ 14100 1450
Wire Wire Line
	14100 1450 14100 1500
Connection ~ 4650 5200
Wire Wire Line
	4650 5200 4300 5200
Wire Wire Line
	3300 4750 4300 4750
Text Notes 700  850  0    50   ~ 0
Max 3.3V-reg current: 0.31A (at 85% efficiency)\nMax peripheral current: ~~1.5A\nTotal: ~~1.8A
Text Notes 12500 4900 2    50   ~ 0
AMBIENT_LIGHT_SENSOR
Text Notes 12500 5200 2    50   ~ 0
DISP_DIGIT1
Text Notes 12500 5300 2    50   ~ 0
DISP_DIGIT2
Text Notes 12500 5400 2    50   ~ 0
DISP_DIGIT3
Text Notes 12500 5500 2    50   ~ 0
DISP_DIGIT4
Text Notes 12500 5600 2    50   ~ 0
DISP_DIGIT5
Text Notes 12500 5700 2    50   ~ 0
DISP_SEG1
Text Notes 12500 5800 2    50   ~ 0
DISP_SEG2
Text Notes 12500 5900 2    50   ~ 0
DISP_SEG3
Text Notes 12500 6000 2    50   ~ 0
DISP_SEG4
Text Notes 12500 6100 2    50   ~ 0
DISP_SEG5
Text Notes 12500 6200 2    50   ~ 0
DISP_SEG6
Text Notes 12500 6300 2    50   ~ 0
DISP_SEG7
Text Notes 12500 6400 2    50   ~ 0
DISP_SEG8
Text Notes 12500 6500 2    50   ~ 0
DISP_COLON_PWM
Text Notes 12500 6600 2    50   ~ 0
DISP_PWM
NoConn ~ 6000 6300
NoConn ~ 6000 6400
NoConn ~ 6000 6700
NoConn ~ 6000 7200
NoConn ~ 6000 7500
NoConn ~ 4700 8200
NoConn ~ 4700 7400
NoConn ~ 4350 8900
NoConn ~ 4350 8500
$Comp
L Device:R R?
U 1 1 602AFCB4
P 4000 6100
AR Path="/5FEBF4E2/602AFCB4" Ref="R?"  Part="1" 
AR Path="/602AFCB4" Ref="R5"  Part="1" 
F 0 "R5" H 4070 6146 50  0000 L CNN
F 1 "0" H 4070 6055 50  0000 L CNN
F 2 "Resistor_SMD:R_0805_2012Metric" V 3930 6100 50  0001 C CNN
F 3 "~" H 4000 6100 50  0001 C CNN
	1    4000 6100
	1    0    0    -1  
$EndComp
Wire Wire Line
	4000 5950 4000 5850
Wire Wire Line
	4000 5850 3900 5850
Wire Wire Line
	4000 6250 4000 6400
Wire Wire Line
	4000 6400 4700 6400
Wire Wire Line
	4300 5350 4300 6300
Wire Wire Line
	3900 5350 4300 5350
$Comp
L Device:R R?
U 1 1 602AFCC0
P 4700 8700
AR Path="/5FEBF4E2/602AFCC0" Ref="R?"  Part="1" 
AR Path="/602AFCC0" Ref="R8"  Part="1" 
F 0 "R8" V 4815 8700 50  0000 C CNN
F 1 "0" V 4906 8700 50  0000 C CNN
F 2 "Resistor_SMD:R_0805_2012Metric" V 4630 8700 50  0001 C CNN
F 3 "~" H 4700 8700 50  0001 C CNN
	1    4700 8700
	0    1    1    0   
$EndComp
Wire Wire Line
	4550 9150 4900 9150
Wire Wire Line
	4900 8800 4900 8700
Wire Wire Line
	4900 8700 4850 8700
Wire Wire Line
	4650 8400 4650 8550
Wire Wire Line
	4650 8550 4900 8550
Wire Wire Line
	4900 8550 4900 8700
Connection ~ 4900 8700
$Comp
L Device:Crystal_GND23 Y?
U 1 1 602AFCCD
P 4350 8700
AR Path="/5FEBF4E2/602AFCCD" Ref="Y?"  Part="1" 
AR Path="/602AFCCD" Ref="Y2"  Part="1" 
F 0 "Y2" H 4350 9150 50  0000 C CNN
F 1 "32.768 kHz" H 4350 9050 50  0000 C CNN
F 2 "Crystal:Crystal_SMD_Abracon_ABS25-4Pin_8.0x3.8mm" H 4350 8700 50  0001 C CNN
F 3 "~" H 4350 8700 50  0001 C CNN
	1    4350 8700
	1    0    0    -1  
$EndComp
$Comp
L power:PWR_FLAG #FLG?
U 1 1 602AFCD3
P 4950 4600
AR Path="/5FEBF4E2/602AFCD3" Ref="#FLG?"  Part="1" 
AR Path="/602AFCD3" Ref="#FLG03"  Part="1" 
F 0 "#FLG03" H 4950 4675 50  0001 C CNN
F 1 "PWR_FLAG" H 4950 4773 50  0000 C CNN
F 2 "" H 4950 4600 50  0001 C CNN
F 3 "~" H 4950 4600 50  0001 C CNN
	1    4950 4600
	1    0    0    -1  
$EndComp
Connection ~ 4950 4600
$Comp
L power:PWR_FLAG #FLG?
U 1 1 602AFCDA
P 3450 1050
AR Path="/5FEBF4E2/602AFCDA" Ref="#FLG?"  Part="1" 
AR Path="/602AFCDA" Ref="#FLG02"  Part="1" 
F 0 "#FLG02" H 3450 1125 50  0001 C CNN
F 1 "PWR_FLAG" H 3450 1223 50  0000 C CNN
F 2 "" H 3450 1050 50  0001 C CNN
F 3 "~" H 3450 1050 50  0001 C CNN
	1    3450 1050
	1    0    0    -1  
$EndComp
Connection ~ 3450 1050
Wire Wire Line
	3450 1050 3550 1050
$Comp
L power:PWR_FLAG #FLG?
U 1 1 602AFCE2
P 5650 1050
AR Path="/5FEBF4E2/602AFCE2" Ref="#FLG?"  Part="1" 
AR Path="/602AFCE2" Ref="#FLG05"  Part="1" 
F 0 "#FLG05" H 5650 1125 50  0001 C CNN
F 1 "PWR_FLAG" H 5650 1223 50  0000 C CNN
F 2 "" H 5650 1050 50  0001 C CNN
F 3 "~" H 5650 1050 50  0001 C CNN
	1    5650 1050
	1    0    0    -1  
$EndComp
Connection ~ 5650 1050
Wire Wire Line
	5650 1050 5900 1050
$Comp
L power:PWR_FLAG #FLG?
U 1 1 602AFCEA
P 5500 4500
AR Path="/5FEBF4E2/602AFCEA" Ref="#FLG?"  Part="1" 
AR Path="/602AFCEA" Ref="#FLG04"  Part="1" 
F 0 "#FLG04" H 5500 4575 50  0001 C CNN
F 1 "PWR_FLAG" H 5500 4673 50  0000 C CNN
F 2 "" H 5500 4500 50  0001 C CNN
F 3 "~" H 5500 4500 50  0001 C CNN
	1    5500 4500
	1    0    0    -1  
$EndComp
Connection ~ 5500 4500
Wire Wire Line
	5200 3700 5200 4950
Connection ~ 5200 4950
Wire Wire Line
	6100 3700 6100 4500
Connection ~ 6100 4500
Wire Wire Line
	11550 3000 11550 4900
$Comp
L Connector:Micro_SD_Card_Det J6
U 1 1 60750C4C
P 15100 8550
F 0 "J6" H 15050 9367 50  0000 C CNN
F 1 "Micro_SD_Card_Det" H 15050 9276 50  0000 C CNN
F 2 "Connector_Card:microSD_HC_Hirose_DM3BT-DSF-PEJS" H 17150 9250 50  0001 C CNN
F 3 "https://www.hirose.com/product/en/download_file/key_name/DM3/category/Catalog/doc_file_id/49662/?file_category_id=4&item_id=195&is_series=1" H 15100 8650 50  0001 C CNN
	1    15100 8550
	1    0    0    -1  
$EndComp
NoConn ~ 14200 8950
NoConn ~ 14200 9050
$EndSCHEMATC
