EESchema Schematic File Version 4
EELAYER 30 0
EELAYER END
$Descr A4 11693 8268
encoding utf-8
Sheet 1 1
Title ""
Date ""
Rev ""
Comp ""
Comment1 ""
Comment2 ""
Comment3 ""
Comment4 ""
$EndDescr
$Comp
L Connector:6P6C J1
U 1 1 5FF93F66
P 1300 2300
F 0 "J1" H 971 2304 50  0000 R CNN
F 1 "6P6C" H 971 2395 50  0000 R CNN
F 2 "Connector_RJ:RJ12_Amphenol_54601" V 1300 2325 50  0001 C CNN
F 3 "~" V 1300 2325 50  0001 C CNN
	1    1300 2300
	1    0    0    1   
$EndComp
Wire Wire Line
	1700 2100 1900 2100
Wire Wire Line
	1900 2100 1900 2600
Wire Wire Line
	1900 2600 1700 2600
Wire Wire Line
	1700 2300 1800 2300
Wire Wire Line
	1800 2300 1800 2500
Wire Wire Line
	1800 2500 1700 2500
Connection ~ 1800 2500
Connection ~ 1900 2100
$Comp
L power:GND #PWR02
U 1 1 5FF966D1
P 1800 2800
F 0 "#PWR02" H 1800 2550 50  0001 C CNN
F 1 "GND" H 1805 2627 50  0000 C CNN
F 2 "" H 1800 2800 50  0001 C CNN
F 3 "" H 1800 2800 50  0001 C CNN
	1    1800 2800
	1    0    0    -1  
$EndComp
$Comp
L Device:LED_PAD D12
U 1 1 5FF98461
P 10150 1000
F 0 "D12" H 10150 1280 50  0000 C CNN
F 1 "XPGDWT-B1-0000-00ME3" H 10150 1189 50  0000 C CNN
F 2 "LED_SMD:LED_Cree-XP-G" H 10150 1000 50  0001 C CNN
F 3 "~" H 10150 1000 50  0001 C CNN
	1    10150 1000
	-1   0    0    -1  
$EndComp
$Comp
L Device:LED_PAD D9
U 1 1 5FF998E7
P 9850 1000
F 0 "D9" H 9850 1280 50  0000 C CNN
F 1 "XPGDWT-B1-0000-00ME3" H 9850 1189 50  0000 C CNN
F 2 "LED_SMD:LED_Cree-XP-G" H 9850 1000 50  0001 C CNN
F 3 "~" H 9850 1000 50  0001 C CNN
	1    9850 1000
	-1   0    0    -1  
$EndComp
$Comp
L Device:LED_PAD D6
U 1 1 5FF9A2D1
P 9550 1000
F 0 "D6" H 9550 1280 50  0000 C CNN
F 1 "XPGDWT-B1-0000-00ME3" H 9550 1189 50  0000 C CNN
F 2 "LED_SMD:LED_Cree-XP-G" H 9550 1000 50  0001 C CNN
F 3 "~" H 9550 1000 50  0001 C CNN
	1    9550 1000
	-1   0    0    -1  
$EndComp
$Comp
L Device:R R11
U 1 1 5FFA3A5A
P 8800 1000
F 0 "R11" V 8593 1000 50  0000 C CNN
F 1 "200m" V 8684 1000 50  0000 C CNN
F 2 "Resistor_SMD:R_1206_3216Metric" V 8730 1000 50  0001 C CNN
F 3 "~" H 8800 1000 50  0001 C CNN
F 4 "1%" V 8800 1000 50  0000 C CNN "Precision"
	1    8800 1000
	0    1    1    0   
$EndComp
Wire Wire Line
	10400 1000 10300 1000
Wire Wire Line
	8650 1000 8400 1000
Wire Wire Line
	8300 1400 8400 1400
$Comp
L power:GND #PWR026
U 1 1 5FFAC53E
P 8800 1900
F 0 "#PWR026" H 8800 1650 50  0001 C CNN
F 1 "GND" H 8805 1727 50  0000 C CNN
F 2 "" H 8800 1900 50  0001 C CNN
F 3 "" H 8800 1900 50  0001 C CNN
	1    8800 1900
	1    0    0    -1  
$EndComp
Wire Wire Line
	8950 1000 9300 1000
Wire Wire Line
	9200 1400 9300 1400
Wire Wire Line
	9300 1400 9300 1000
Connection ~ 9300 1000
Wire Wire Line
	9300 1000 9400 1000
$Comp
L power:+12V #PWR023
U 1 1 5FFAF56B
P 8150 900
F 0 "#PWR023" H 8150 750 50  0001 C CNN
F 1 "+12V" H 8165 1073 50  0000 C CNN
F 2 "" H 8150 900 50  0001 C CNN
F 3 "" H 8150 900 50  0001 C CNN
	1    8150 900 
	1    0    0    -1  
$EndComp
Connection ~ 8300 1000
$Comp
L Device:C C15
U 1 1 5FFB04BF
P 8150 1400
F 0 "C15" H 8035 1446 50  0000 R CNN
F 1 "2.2u" H 8035 1355 50  0000 R CNN
F 2 "Capacitor_SMD:C_0805_2012Metric" H 8188 1250 50  0001 C CNN
F 3 "~" H 8150 1400 50  0001 C CNN
	1    8150 1400
	1    0    0    -1  
$EndComp
Wire Wire Line
	8150 1250 8150 1000
Wire Wire Line
	8150 1000 8300 1000
Wire Wire Line
	8300 1000 8300 1400
Wire Wire Line
	8150 1550 8150 1900
Wire Wire Line
	8150 1900 8800 1900
Wire Wire Line
	8150 900  8150 1000
Connection ~ 8150 1000
$Comp
L Device:LED_PAD D13
U 1 1 5FFD0B73
P 10150 2500
F 0 "D13" H 10150 2780 50  0000 C CNN
F 1 "XPGDWT-H1-0000-00GE8" H 10150 2689 50  0000 C CNN
F 2 "LED_SMD:LED_Cree-XP-G" H 10150 2500 50  0001 C CNN
F 3 "~" H 10150 2500 50  0001 C CNN
	1    10150 2500
	-1   0    0    -1  
$EndComp
$Comp
L Device:LED_PAD D10
U 1 1 5FFD0B79
P 9850 2500
F 0 "D10" H 9850 2780 50  0000 C CNN
F 1 "XPGDWT-H1-0000-00GE8" H 9850 2689 50  0000 C CNN
F 2 "LED_SMD:LED_Cree-XP-G" H 9850 2500 50  0001 C CNN
F 3 "~" H 9850 2500 50  0001 C CNN
	1    9850 2500
	-1   0    0    -1  
$EndComp
$Comp
L Device:LED_PAD D7
U 1 1 5FFD0B7F
P 9550 2500
F 0 "D7" H 9550 2780 50  0000 C CNN
F 1 "XPGDWT-H1-0000-00GE8" H 9550 2689 50  0000 C CNN
F 2 "LED_SMD:LED_Cree-XP-G" H 9550 2500 50  0001 C CNN
F 3 "~" H 9550 2500 50  0001 C CNN
	1    9550 2500
	-1   0    0    -1  
$EndComp
$Comp
L Device:R R12
U 1 1 5FFD0B8B
P 8800 2500
F 0 "R12" V 8593 2500 50  0000 C CNN
F 1 "150m" V 8684 2500 50  0000 C CNN
F 2 "Resistor_SMD:R_1206_3216Metric" V 8730 2500 50  0001 C CNN
F 3 "~" H 8800 2500 50  0001 C CNN
F 4 "1%" V 8800 2500 50  0000 C CNN "Precision"
	1    8800 2500
	0    1    1    0   
$EndComp
$Comp
L Device:L L2
U 1 1 5FFD0B91
P 10400 2850
F 0 "L2" H 10356 2896 50  0000 R CNN
F 1 "33u" H 10356 2805 50  0000 R CNN
F 2 "CustomFootprints:L_Laird_TYS6028_HandSoldering" H 10400 2850 50  0001 C CNN
F 3 "~" H 10400 2850 50  0001 C CNN
	1    10400 2850
	1    0    0    -1  
$EndComp
Wire Wire Line
	10400 2500 10300 2500
Wire Wire Line
	8650 2500 8400 2500
Wire Wire Line
	8300 2900 8400 2900
$Comp
L power:GND #PWR027
U 1 1 5FFD0B9D
P 8800 3400
F 0 "#PWR027" H 8800 3150 50  0001 C CNN
F 1 "GND" H 8805 3227 50  0000 C CNN
F 2 "" H 8800 3400 50  0001 C CNN
F 3 "" H 8800 3400 50  0001 C CNN
	1    8800 3400
	1    0    0    -1  
$EndComp
Wire Wire Line
	8950 2500 9300 2500
Wire Wire Line
	9200 2900 9300 2900
Wire Wire Line
	9300 2900 9300 2500
Connection ~ 9300 2500
Wire Wire Line
	9300 2500 9400 2500
$Comp
L power:+12V #PWR024
U 1 1 5FFD0BA8
P 8150 2400
F 0 "#PWR024" H 8150 2250 50  0001 C CNN
F 1 "+12V" H 8165 2573 50  0000 C CNN
F 2 "" H 8150 2400 50  0001 C CNN
F 3 "" H 8150 2400 50  0001 C CNN
	1    8150 2400
	1    0    0    -1  
$EndComp
Connection ~ 8300 2500
$Comp
L Device:C C16
U 1 1 5FFD0BB0
P 8150 2900
F 0 "C16" H 8035 2946 50  0000 R CNN
F 1 "2.2u" H 8035 2855 50  0000 R CNN
F 2 "Capacitor_SMD:C_0805_2012Metric" H 8188 2750 50  0001 C CNN
F 3 "~" H 8150 2900 50  0001 C CNN
	1    8150 2900
	1    0    0    -1  
$EndComp
Wire Wire Line
	8150 2750 8150 2500
Wire Wire Line
	8150 2500 8300 2500
Wire Wire Line
	8300 2500 8300 2900
Wire Wire Line
	8150 3050 8150 3400
Wire Wire Line
	8150 3400 8800 3400
Wire Wire Line
	8150 2400 8150 2500
Connection ~ 8150 2500
$Comp
L Device:LED_PAD D11
U 1 1 5FFDC5CD
P 10000 4000
F 0 "D11" H 10000 4280 50  0000 C CNN
F 1 "XPGDPR-L1-0000-00F01" H 10000 4189 50  0000 C CNN
F 2 "LED_SMD:LED_Cree-XP-G" H 10000 4000 50  0001 C CNN
F 3 "~" H 10000 4000 50  0001 C CNN
	1    10000 4000
	-1   0    0    -1  
$EndComp
$Comp
L Device:LED_PAD D8
U 1 1 5FFDC5D3
P 9700 4000
F 0 "D8" H 9700 4280 50  0000 C CNN
F 1 "XPGDPR-L1-0000-00F01" H 9700 4189 50  0000 C CNN
F 2 "LED_SMD:LED_Cree-XP-G" H 9700 4000 50  0001 C CNN
F 3 "~" H 9700 4000 50  0001 C CNN
	1    9700 4000
	-1   0    0    -1  
$EndComp
$Comp
L Device:R R13
U 1 1 5FFDC5E5
P 8800 4000
F 0 "R13" V 8593 4000 50  0000 C CNN
F 1 "200m" V 8684 4000 50  0000 C CNN
F 2 "Resistor_SMD:R_1206_3216Metric" V 8730 4000 50  0001 C CNN
F 3 "~" H 8800 4000 50  0001 C CNN
F 4 "1%" V 8800 4000 50  0000 C CNN "Precision"
	1    8800 4000
	0    1    1    0   
$EndComp
$Comp
L Device:L L3
U 1 1 5FFDC5EB
P 10400 4350
F 0 "L3" H 10356 4396 50  0000 R CNN
F 1 "33u" H 10356 4305 50  0000 R CNN
F 2 "CustomFootprints:L_Laird_TYS6028_HandSoldering" H 10400 4350 50  0001 C CNN
F 3 "~" H 10400 4350 50  0001 C CNN
	1    10400 4350
	1    0    0    -1  
$EndComp
Wire Wire Line
	10400 4000 10150 4000
Wire Wire Line
	8650 4000 8400 4000
Wire Wire Line
	8300 4400 8400 4400
$Comp
L power:GND #PWR028
U 1 1 5FFDC5F7
P 8800 4900
F 0 "#PWR028" H 8800 4650 50  0001 C CNN
F 1 "GND" H 8805 4727 50  0000 C CNN
F 2 "" H 8800 4900 50  0001 C CNN
F 3 "" H 8800 4900 50  0001 C CNN
	1    8800 4900
	1    0    0    -1  
$EndComp
Wire Wire Line
	8950 4000 9300 4000
Wire Wire Line
	9200 4400 9300 4400
Wire Wire Line
	9300 4400 9300 4000
Connection ~ 9300 4000
$Comp
L power:+12V #PWR025
U 1 1 5FFDC602
P 8150 3900
F 0 "#PWR025" H 8150 3750 50  0001 C CNN
F 1 "+12V" H 8165 4073 50  0000 C CNN
F 2 "" H 8150 3900 50  0001 C CNN
F 3 "" H 8150 3900 50  0001 C CNN
	1    8150 3900
	1    0    0    -1  
$EndComp
Connection ~ 8300 4000
Wire Wire Line
	8400 4700 7700 4700
$Comp
L Device:C C17
U 1 1 5FFDC60A
P 8150 4400
F 0 "C17" H 8035 4446 50  0000 R CNN
F 1 "2.2u" H 8035 4355 50  0000 R CNN
F 2 "Capacitor_SMD:C_0805_2012Metric" H 8188 4250 50  0001 C CNN
F 3 "~" H 8150 4400 50  0001 C CNN
	1    8150 4400
	1    0    0    -1  
$EndComp
Wire Wire Line
	8150 4250 8150 4000
Wire Wire Line
	8150 4000 8300 4000
Wire Wire Line
	8300 4000 8300 4400
Wire Wire Line
	8150 4550 8150 4900
Wire Wire Line
	8150 4900 8800 4900
Wire Wire Line
	8150 3900 8150 4000
Connection ~ 8150 4000
Wire Wire Line
	9300 4000 9550 4000
Text Notes 8000 1050 2    50   ~ 0
Cold white (5000K)
Text Notes 8000 2550 2    50   ~ 0
Warm white (2700K)
Text Notes 8000 4050 2    50   ~ 0
Red
$Comp
L power:+12V #PWR07
U 1 1 60021C45
P 2850 800
F 0 "#PWR07" H 2850 650 50  0001 C CNN
F 1 "+12V" H 2865 973 50  0000 C CNN
F 2 "" H 2850 800 50  0001 C CNN
F 3 "" H 2850 800 50  0001 C CNN
	1    2850 800 
	1    0    0    -1  
$EndComp
$Comp
L power:+3V3 #PWR019
U 1 1 60022ACA
P 5800 800
F 0 "#PWR019" H 5800 650 50  0001 C CNN
F 1 "+3V3" H 5815 973 50  0000 C CNN
F 2 "" H 5800 800 50  0001 C CNN
F 3 "" H 5800 800 50  0001 C CNN
	1    5800 800 
	1    0    0    -1  
$EndComp
$Comp
L Regulator_Linear:LP2951-5.0_SOIC U1
U 1 1 60026F84
P 4000 1200
F 0 "U1" H 4000 1767 50  0000 C CNN
F 1 "LP2951-5.0_SOIC" H 4000 1676 50  0000 C CNN
F 2 "Package_SO:SOIC-8_3.9x4.9mm_P1.27mm" H 4000 550 50  0001 C CNN
F 3 "http://www.ti.com/lit/ds/symlink/lp2951-n.pdf" H 4000 1200 50  0001 C CNN
	1    4000 1200
	1    0    0    -1  
$EndComp
$Comp
L MCU_ST_STM32L0:STM32L031K6Tx U2
U 1 1 6002833D
P 4700 4450
F 0 "U2" H 4700 4450 50  0000 C CNN
F 1 "STM32L031K6Tx" H 4550 4750 50  0000 C CNN
F 2 "Package_QFP:LQFP-32_7x7mm_P0.8mm" H 4200 3550 50  0001 R CNN
F 3 "http://www.st.com/st-web-ui/static/active/en/resource/technical/document/datasheet/DM00140359.pdf" H 4700 4450 50  0001 C CNN
	1    4700 4450
	1    0    0    -1  
$EndComp
Wire Wire Line
	5200 4650 6300 4650
$Comp
L Device:R R9
U 1 1 6002C51F
P 4800 1100
F 0 "R9" H 4870 1146 50  0000 L CNN
F 1 "178k" H 4870 1055 50  0000 L CNN
F 2 "Resistor_SMD:R_0805_2012Metric" V 4730 1100 50  0001 C CNN
F 3 "~" H 4800 1100 50  0001 C CNN
F 4 "1%" H 4800 1100 50  0000 C CNN "Precision"
	1    4800 1100
	1    0    0    -1  
$EndComp
Wire Wire Line
	4400 1000 4500 1000
Wire Wire Line
	4500 1000 4500 1400
Wire Wire Line
	4500 1400 4400 1400
Wire Wire Line
	4400 900  4800 900 
Wire Wire Line
	4800 900  4800 950 
$Comp
L Device:R R10
U 1 1 600301F1
P 4800 1500
F 0 "R10" H 4870 1546 50  0000 L CNN
F 1 "107k" H 4870 1455 50  0000 L CNN
F 2 "Resistor_SMD:R_0805_2012Metric" V 4730 1500 50  0001 C CNN
F 3 "~" H 4800 1500 50  0001 C CNN
F 4 "1%" H 4800 1500 50  0000 C CNN "Precision"
	1    4800 1500
	1    0    0    -1  
$EndComp
Wire Wire Line
	4800 1250 4800 1300
Wire Wire Line
	4800 1300 4400 1300
Wire Wire Line
	4800 1300 4800 1350
Connection ~ 4800 1300
Wire Wire Line
	4800 1650 4800 1750
Wire Wire Line
	4800 1750 4500 1750
Wire Wire Line
	4000 1750 4000 1700
Wire Wire Line
	3600 1100 3500 1100
Wire Wire Line
	3500 1100 3500 1750
Wire Wire Line
	3500 1750 4000 1750
Connection ~ 4000 1750
$Comp
L Device:C C2
U 1 1 60037A50
P 3250 1300
F 0 "C2" H 3365 1346 50  0000 L CNN
F 1 "1u" H 3365 1255 50  0000 L CNN
F 2 "Capacitor_SMD:C_0805_2012Metric" H 3288 1150 50  0001 C CNN
F 3 "~" H 3250 1300 50  0001 C CNN
	1    3250 1300
	1    0    0    -1  
$EndComp
Wire Wire Line
	3250 1150 3250 900 
Wire Wire Line
	3250 900  3600 900 
Wire Wire Line
	3250 1450 3250 1750
Wire Wire Line
	3250 1750 3500 1750
Connection ~ 3500 1750
$Comp
L Device:C C10
U 1 1 6003C47A
P 5100 1300
F 0 "C10" H 5215 1346 50  0000 L CNN
F 1 "10u" H 5215 1255 50  0000 L CNN
F 2 "Capacitor_SMD:C_0805_2012Metric" H 5138 1150 50  0001 C CNN
F 3 "~" H 5100 1300 50  0001 C CNN
	1    5100 1300
	1    0    0    -1  
$EndComp
$Comp
L Device:C C12
U 1 1 6003C536
P 5400 1300
F 0 "C12" H 5515 1346 50  0000 L CNN
F 1 "1u" H 5515 1255 50  0000 L CNN
F 2 "Capacitor_SMD:C_0805_2012Metric" H 5438 1150 50  0001 C CNN
F 3 "~" H 5400 1300 50  0001 C CNN
	1    5400 1300
	1    0    0    -1  
$EndComp
$Comp
L Device:C C13
U 1 1 6003C84F
P 5700 1300
F 0 "C13" H 5815 1346 50  0000 L CNN
F 1 "100n" H 5815 1255 50  0000 L CNN
F 2 "Capacitor_SMD:C_0805_2012Metric" H 5738 1150 50  0001 C CNN
F 3 "~" H 5700 1300 50  0001 C CNN
	1    5700 1300
	1    0    0    -1  
$EndComp
Wire Wire Line
	4800 900  5100 900 
Wire Wire Line
	5700 900  5700 1150
Connection ~ 4800 900 
Wire Wire Line
	5700 1450 5700 1750
Wire Wire Line
	5700 1750 5400 1750
Connection ~ 4800 1750
Wire Wire Line
	5100 1150 5100 900 
Connection ~ 5100 900 
Wire Wire Line
	5100 900  5400 900 
Wire Wire Line
	5400 900  5400 1150
Connection ~ 5400 900 
Wire Wire Line
	5400 900  5700 900 
Wire Wire Line
	5400 1450 5400 1750
Connection ~ 5400 1750
Wire Wire Line
	5400 1750 5100 1750
Wire Wire Line
	5100 1450 5100 1750
Connection ~ 5100 1750
Wire Wire Line
	5100 1750 4800 1750
Wire Wire Line
	5700 900  5800 900 
Wire Wire Line
	5800 900  5800 800 
Connection ~ 5700 900 
Wire Wire Line
	3250 900  2950 900 
Connection ~ 3250 900 
Wire Wire Line
	4500 1400 4500 1750
Connection ~ 4500 1400
Connection ~ 4500 1750
Wire Wire Line
	4500 1750 4000 1750
$Comp
L Device:C C1
U 1 1 6005BA2B
P 2950 1300
F 0 "C1" H 3065 1346 50  0000 L CNN
F 1 "10u" H 3065 1255 50  0000 L CNN
F 2 "Capacitor_SMD:C_0805_2012Metric" H 2988 1150 50  0001 C CNN
F 3 "~" H 2950 1300 50  0001 C CNN
	1    2950 1300
	1    0    0    -1  
$EndComp
Wire Wire Line
	2950 1150 2950 900 
Connection ~ 2950 900 
Wire Wire Line
	2950 1450 2950 1750
Wire Wire Line
	2950 1750 3250 1750
Connection ~ 3250 1750
$Comp
L power:GND #PWR012
U 1 1 60066A61
P 4000 1750
F 0 "#PWR012" H 4000 1500 50  0001 C CNN
F 1 "GND" H 4005 1577 50  0000 C CNN
F 2 "" H 4000 1750 50  0001 C CNN
F 3 "" H 4000 1750 50  0001 C CNN
	1    4000 1750
	1    0    0    -1  
$EndComp
$Comp
L power:GND #PWR014
U 1 1 600A0A98
P 4650 5500
F 0 "#PWR014" H 4650 5250 50  0001 C CNN
F 1 "GND" H 4655 5327 50  0000 C CNN
F 2 "" H 4650 5500 50  0001 C CNN
F 3 "" H 4650 5500 50  0001 C CNN
	1    4650 5500
	1    0    0    -1  
$EndComp
$Comp
L power:GND #PWR013
U 1 1 600A2871
P 4300 3400
F 0 "#PWR013" H 4300 3150 50  0001 C CNN
F 1 "GND" H 4305 3227 50  0000 C CNN
F 2 "" H 4300 3400 50  0001 C CNN
F 3 "" H 4300 3400 50  0001 C CNN
	1    4300 3400
	1    0    0    -1  
$EndComp
Wire Wire Line
	4700 3550 4700 3500
Wire Wire Line
	4700 3500 4600 3500
Wire Wire Line
	4600 3500 4600 3550
Connection ~ 4700 3500
$Comp
L power:+3V3 #PWR015
U 1 1 600BABA7
P 4700 2950
F 0 "#PWR015" H 4700 2800 50  0001 C CNN
F 1 "+3V3" H 4715 3123 50  0000 C CNN
F 2 "" H 4700 2950 50  0001 C CNN
F 3 "" H 4700 2950 50  0001 C CNN
	1    4700 2950
	1    0    0    -1  
$EndComp
$Comp
L Device:C C9
U 1 1 600DA888
P 4950 3200
F 0 "C9" H 4835 3154 50  0000 R CNN
F 1 "100n" H 4835 3245 50  0000 R CNN
F 2 "Capacitor_SMD:C_0805_2012Metric" H 4988 3050 50  0001 C CNN
F 3 "~" H 4950 3200 50  0001 C CNN
	1    4950 3200
	-1   0    0    1   
$EndComp
$Comp
L Device:C C7
U 1 1 600DAD4D
P 4300 3200
F 0 "C7" H 4415 3154 50  0000 L CNN
F 1 "100n" H 4415 3245 50  0000 L CNN
F 2 "Capacitor_SMD:C_0805_2012Metric" H 4338 3050 50  0001 C CNN
F 3 "~" H 4300 3200 50  0001 C CNN
	1    4300 3200
	-1   0    0    1   
$EndComp
$Comp
L Device:C C8
U 1 1 600EFE49
P 4500 3200
F 0 "C8" H 4385 3154 50  0000 R CNN
F 1 "100n" H 4385 3245 50  0000 R CNN
F 2 "Capacitor_SMD:C_0805_2012Metric" H 4538 3050 50  0001 C CNN
F 3 "~" H 4500 3200 50  0001 C CNN
	1    4500 3200
	-1   0    0    1   
$EndComp
Wire Wire Line
	1700 2200 6000 2200
Wire Wire Line
	6300 2200 6300 4650
Wire Wire Line
	5200 4750 6400 4750
Wire Wire Line
	6400 4750 6400 2400
Wire Wire Line
	1700 2400 6200 2400
Wire Wire Line
	2850 800  2850 900 
Connection ~ 2850 900 
Wire Wire Line
	2850 900  2950 900 
$Comp
L Connector_Generic:Conn_01x05 J2
U 1 1 6013CA48
P 2750 3050
F 0 "J2" H 2829 3092 50  0000 L CNN
F 1 "CON_PROG" H 2829 3001 50  0000 L CNN
F 2 "Connector_PinHeader_2.54mm:PinHeader_1x05_P2.54mm_Vertical" H 2750 3050 50  0001 C CNN
F 3 "~" H 2750 3050 50  0001 C CNN
	1    2750 3050
	-1   0    0    -1  
$EndComp
Wire Wire Line
	5200 5050 5700 5050
Wire Wire Line
	5200 5150 5800 5150
Wire Wire Line
	3900 3250 3900 3750
Wire Wire Line
	3900 3750 4100 3750
$Comp
L Device:C C5
U 1 1 6015335E
P 3600 3450
F 0 "C5" H 3485 3496 50  0000 R CNN
F 1 "100n" H 3485 3405 50  0000 R CNN
F 2 "Capacitor_SMD:C_0805_2012Metric" H 3638 3300 50  0001 C CNN
F 3 "~" H 3600 3450 50  0001 C CNN
	1    3600 3450
	1    0    0    -1  
$EndComp
Wire Wire Line
	5700 2700 3600 2700
Wire Wire Line
	3600 2700 3600 3150
Wire Wire Line
	3600 3150 2950 3150
Wire Wire Line
	5700 2700 5700 5050
Wire Wire Line
	5800 2600 3500 2600
Wire Wire Line
	3500 2600 3500 2950
Wire Wire Line
	3500 2950 2950 2950
Wire Wire Line
	5800 2600 5800 5150
Wire Wire Line
	2950 3050 3050 3050
Wire Wire Line
	3050 3050 3050 3350
$Comp
L power:GND #PWR09
U 1 1 6016C16C
P 3050 3350
F 0 "#PWR09" H 3050 3100 50  0001 C CNN
F 1 "GND" H 3055 3177 50  0000 C CNN
F 2 "" H 3050 3350 50  0001 C CNN
F 3 "" H 3050 3350 50  0001 C CNN
	1    3050 3350
	1    0    0    -1  
$EndComp
$Comp
L power:GND #PWR011
U 1 1 6016C5DC
P 3600 3600
F 0 "#PWR011" H 3600 3350 50  0001 C CNN
F 1 "GND" H 3605 3427 50  0000 C CNN
F 2 "" H 3600 3600 50  0001 C CNN
F 3 "" H 3600 3600 50  0001 C CNN
	1    3600 3600
	1    0    0    -1  
$EndComp
Wire Wire Line
	3600 3300 3600 3250
Wire Wire Line
	2950 2850 3050 2850
Wire Wire Line
	3050 2850 3050 2750
$Comp
L power:+3V3 #PWR08
U 1 1 60179962
P 3050 2750
F 0 "#PWR08" H 3050 2600 50  0001 C CNN
F 1 "+3V3" H 3065 2923 50  0000 C CNN
F 2 "" H 3050 2750 50  0001 C CNN
F 3 "" H 3050 2750 50  0001 C CNN
	1    3050 2750
	1    0    0    -1  
$EndComp
$Comp
L Device:R R7
U 1 1 6017A239
P 3750 3950
F 0 "R7" V 3865 3950 50  0000 C CNN
F 1 "10k" V 3956 3950 50  0000 C CNN
F 2 "Resistor_SMD:R_0805_2012Metric" V 3680 3950 50  0001 C CNN
F 3 "~" H 3750 3950 50  0001 C CNN
	1    3750 3950
	0    1    1    0   
$EndComp
Wire Wire Line
	3900 3950 4100 3950
Wire Wire Line
	2950 3950 3600 3950
Text Label 3150 3150 0    50   ~ 0
SWDIO
Text Label 3150 2950 0    50   ~ 0
SWCLK
Text Label 2550 2200 0    50   ~ 0
I2C_SCL
Text Label 2550 2400 0    50   ~ 0
I2C_SDA
Text Label 3150 3250 0    50   ~ 0
NRST
Wire Wire Line
	7100 3750 7100 1700
Wire Wire Line
	7100 1700 8400 1700
Wire Wire Line
	5200 3750 7100 3750
Wire Wire Line
	7700 3850 7700 3200
Wire Wire Line
	7700 3200 8400 3200
Wire Wire Line
	5200 3850 7700 3850
Wire Wire Line
	7700 3950 7700 4700
Wire Wire Line
	5200 3950 7700 3950
Text Label 7050 3750 2    50   ~ 0
PWM_5000K
Text Label 7050 3850 2    50   ~ 0
PWM_2700K
Text Label 7050 3950 2    50   ~ 0
PWM_RED
$Comp
L Device:D_Schottky D14
U 1 1 601F9AE2
P 10600 1200
F 0 "D14" V 10554 1280 50  0000 L CNN
F 1 "D_Schottky" V 10645 1280 50  0000 L CNN
F 2 "Diode_SMD:D_SMA" H 10600 1200 50  0001 C CNN
F 3 "~" H 10600 1200 50  0001 C CNN
	1    10600 1200
	0    1    1    0   
$EndComp
$Comp
L Device:L L1
U 1 1 5FFA4E15
P 10400 1350
F 0 "L1" H 10356 1396 50  0000 R CNN
F 1 "33u" H 10356 1305 50  0000 R CNN
F 2 "CustomFootprints:L_Laird_TYS6028_HandSoldering" H 10400 1350 50  0001 C CNN
F 3 "~" H 10400 1350 50  0001 C CNN
	1    10400 1350
	1    0    0    -1  
$EndComp
Wire Wire Line
	10400 1200 10400 1000
Wire Wire Line
	10400 1500 10400 1700
Wire Wire Line
	10400 1700 9200 1700
Wire Wire Line
	10600 1350 10600 1700
Wire Wire Line
	10600 1700 10400 1700
Connection ~ 10400 1700
Wire Wire Line
	10600 1050 10600 700 
Wire Wire Line
	10600 700  8400 700 
Wire Wire Line
	8400 700  8400 1000
Connection ~ 8400 1000
Wire Wire Line
	8400 1000 8300 1000
Wire Wire Line
	10400 2700 10400 2500
Wire Wire Line
	10400 3000 10400 3200
Wire Wire Line
	9200 3200 10400 3200
$Comp
L Device:D_Schottky D15
U 1 1 602B8419
P 10600 2700
F 0 "D15" V 10554 2780 50  0000 L CNN
F 1 "D_Schottky" V 10645 2780 50  0000 L CNN
F 2 "Diode_SMD:D_SMA" H 10600 2700 50  0001 C CNN
F 3 "~" H 10600 2700 50  0001 C CNN
	1    10600 2700
	0    1    1    0   
$EndComp
Wire Wire Line
	10600 2850 10600 3200
Wire Wire Line
	10600 3200 10400 3200
Connection ~ 10400 3200
Wire Wire Line
	10600 2550 10600 2200
Wire Wire Line
	10600 2200 8400 2200
Wire Wire Line
	8400 2200 8400 2500
Connection ~ 8400 2500
Wire Wire Line
	8400 2500 8300 2500
Wire Wire Line
	10400 4200 10400 4000
Wire Wire Line
	10400 4500 10400 4700
Wire Wire Line
	9200 4700 10400 4700
$Comp
L Device:D_Schottky D16
U 1 1 602EA203
P 10600 4200
F 0 "D16" V 10554 4280 50  0000 L CNN
F 1 "D_Schottky" V 10645 4280 50  0000 L CNN
F 2 "Diode_SMD:D_SMA" H 10600 4200 50  0001 C CNN
F 3 "~" H 10600 4200 50  0001 C CNN
	1    10600 4200
	0    1    1    0   
$EndComp
Wire Wire Line
	10600 4350 10600 4700
Wire Wire Line
	10600 4700 10400 4700
Connection ~ 10400 4700
Wire Wire Line
	10600 4050 10600 3700
Wire Wire Line
	10600 3700 8400 3700
Wire Wire Line
	8400 3700 8400 4000
Connection ~ 8400 4000
Wire Wire Line
	8400 4000 8300 4000
Text Notes 9000 1000 0    50   ~ 0
500mA
Text Notes 9000 2500 0    50   ~ 0
667mA
Text Notes 9000 4000 0    50   ~ 0
500mA
$Comp
L power:GND #PWR022
U 1 1 6032B6B3
P 6600 2100
F 0 "#PWR022" H 6600 1850 50  0001 C CNN
F 1 "GND" H 6605 1927 50  0000 C CNN
F 2 "" H 6600 2100 50  0001 C CNN
F 3 "" H 6600 2100 50  0001 C CNN
	1    6600 2100
	1    0    0    -1  
$EndComp
$Comp
L Device:D_Schottky D4
U 1 1 6032C6A6
P 6200 1950
F 0 "D4" V 6154 2030 50  0000 L CNN
F 1 "D_Schottky" V 6245 2030 50  0000 L CNN
F 2 "Diode_SMD:D_SOD-523" H 6200 1950 50  0001 C CNN
F 3 "~" H 6200 1950 50  0001 C CNN
	1    6200 1950
	0    1    1    0   
$EndComp
$Comp
L Device:D_Schottky D2
U 1 1 6033DA12
P 6000 1950
F 0 "D2" V 5954 1871 50  0000 R CNN
F 1 "D_Schottky" V 6045 1871 50  0000 R CNN
F 2 "Diode_SMD:D_SOD-523" H 6000 1950 50  0001 C CNN
F 3 "~" H 6000 1950 50  0001 C CNN
	1    6000 1950
	0    1    1    0   
$EndComp
$Comp
L Device:D_Schottky D3
U 1 1 6033DF33
P 6000 2650
F 0 "D3" V 5954 2730 50  0000 L CNN
F 1 "D_Schottky" V 6045 2730 50  0000 L CNN
F 2 "Diode_SMD:D_SOD-523" H 6000 2650 50  0001 C CNN
F 3 "~" H 6000 2650 50  0001 C CNN
	1    6000 2650
	0    1    1    0   
$EndComp
$Comp
L Device:D_Schottky D5
U 1 1 6033E425
P 6200 2650
F 0 "D5" V 6154 2730 50  0000 L CNN
F 1 "D_Schottky" V 6245 2730 50  0000 L CNN
F 2 "Diode_SMD:D_SOD-523" H 6200 2650 50  0001 C CNN
F 3 "~" H 6200 2650 50  0001 C CNN
	1    6200 2650
	0    1    1    0   
$EndComp
Wire Wire Line
	6000 2100 6000 2200
Connection ~ 6000 2200
Wire Wire Line
	6000 2200 6300 2200
Wire Wire Line
	6000 2500 6000 2200
Wire Wire Line
	6200 2100 6200 2400
Connection ~ 6200 2400
Wire Wire Line
	6200 2400 6400 2400
Wire Wire Line
	6200 2400 6200 2500
Wire Wire Line
	6000 2800 6000 2850
Wire Wire Line
	6000 2850 6100 2850
Wire Wire Line
	6200 2850 6200 2800
Wire Wire Line
	6000 1800 6000 1750
Wire Wire Line
	6000 1750 6100 1750
Wire Wire Line
	6200 1750 6200 1800
Connection ~ 6200 1750
$Comp
L power:+3V3 #PWR020
U 1 1 6037FE82
P 6100 1750
F 0 "#PWR020" H 6100 1600 50  0001 C CNN
F 1 "+3V3" H 6115 1923 50  0000 C CNN
F 2 "" H 6100 1750 50  0001 C CNN
F 3 "" H 6100 1750 50  0001 C CNN
	1    6100 1750
	1    0    0    -1  
$EndComp
Connection ~ 6100 1750
Wire Wire Line
	6100 1750 6200 1750
$Comp
L Device:C C14
U 1 1 6038101F
P 6600 1950
F 0 "C14" H 6715 1996 50  0000 L CNN
F 1 "100n" H 6715 1905 50  0000 L CNN
F 2 "Capacitor_SMD:C_0805_2012Metric" H 6638 1800 50  0001 C CNN
F 3 "~" H 6600 1950 50  0001 C CNN
	1    6600 1950
	1    0    0    -1  
$EndComp
Wire Wire Line
	6600 1800 6600 1750
$Comp
L power:GND #PWR021
U 1 1 603A07FF
P 6100 2850
F 0 "#PWR021" H 6100 2600 50  0001 C CNN
F 1 "GND" H 6105 2677 50  0000 C CNN
F 2 "" H 6100 2850 50  0001 C CNN
F 3 "" H 6100 2850 50  0001 C CNN
	1    6100 2850
	1    0    0    -1  
$EndComp
Connection ~ 6100 2850
Wire Wire Line
	6100 2850 6200 2850
Wire Wire Line
	1900 900  2550 900 
Wire Wire Line
	1800 2700 1800 2800
Wire Wire Line
	1800 2500 1800 2700
Connection ~ 1800 2700
Wire Wire Line
	2100 2700 1800 2700
Wire Wire Line
	2100 2450 2100 2700
Wire Wire Line
	1900 2000 1900 2100
Connection ~ 1900 2000
Wire Wire Line
	2100 2000 1900 2000
Wire Wire Line
	2100 2150 2100 2000
Wire Wire Line
	1900 900  1900 2000
$Comp
L Device:D_Zener D1
U 1 1 603A1343
P 2100 2300
F 0 "D1" V 2054 2380 50  0000 L CNN
F 1 "15V" V 2145 2380 50  0000 L CNN
F 2 "Diode_SMD:D_SOT-23_ANK" H 2100 2300 50  0001 C CNN
F 3 "~" H 2100 2300 50  0001 C CNN
	1    2100 2300
	0    1    1    0   
$EndComp
NoConn ~ 4100 4350
NoConn ~ 4100 4450
NoConn ~ 4100 4650
NoConn ~ 4100 4750
NoConn ~ 4100 5250
NoConn ~ 5200 5250
NoConn ~ 5200 4950
NoConn ~ 5200 4850
NoConn ~ 5200 4550
NoConn ~ 5200 4450
NoConn ~ 5200 4350
NoConn ~ 5200 4250
NoConn ~ 5200 4150
NoConn ~ 5200 4050
$Comp
L power:GND #PWR01
U 1 1 604C11C8
P 1300 3000
F 0 "#PWR01" H 1300 2750 50  0001 C CNN
F 1 "GND" H 1305 2827 50  0000 C CNN
F 2 "" H 1300 3000 50  0001 C CNN
F 3 "" H 1300 3000 50  0001 C CNN
	1    1300 3000
	1    0    0    -1  
$EndComp
$Comp
L power:PWR_FLAG #FLG02
U 1 1 604C1AD8
P 2550 800
F 0 "#FLG02" H 2550 875 50  0001 C CNN
F 1 "PWR_FLAG" H 2550 973 50  0000 C CNN
F 2 "" H 2550 800 50  0001 C CNN
F 3 "~" H 2550 800 50  0001 C CNN
	1    2550 800 
	1    0    0    -1  
$EndComp
$Comp
L power:PWR_FLAG #FLG01
U 1 1 604C2239
P 1300 3000
F 0 "#FLG01" H 1300 3075 50  0001 C CNN
F 1 "PWR_FLAG" H 1300 3173 50  0000 C CNN
F 2 "" H 1300 3000 50  0001 C CNN
F 3 "~" H 1300 3000 50  0001 C CNN
	1    1300 3000
	1    0    0    -1  
$EndComp
Wire Wire Line
	2550 800  2550 900 
Connection ~ 2550 900 
Wire Wire Line
	2550 900  2850 900 
Wire Wire Line
	6200 1750 6600 1750
Wire Wire Line
	9550 1200 9550 1250
Wire Wire Line
	9550 1250 9850 1250
Wire Wire Line
	10150 1250 10150 1200
Wire Wire Line
	9850 1200 9850 1250
Connection ~ 9850 1250
Wire Wire Line
	9850 1250 10150 1250
$Comp
L power:GND #PWR029
U 1 1 5FFF157E
P 9850 1250
F 0 "#PWR029" H 9850 1000 50  0001 C CNN
F 1 "GND" H 9855 1077 50  0000 C CNN
F 2 "" H 9850 1250 50  0001 C CNN
F 3 "" H 9850 1250 50  0001 C CNN
	1    9850 1250
	1    0    0    -1  
$EndComp
Wire Wire Line
	9550 2700 9550 2750
Wire Wire Line
	9550 2750 9850 2750
Wire Wire Line
	10150 2750 10150 2700
Wire Wire Line
	9850 2700 9850 2750
Connection ~ 9850 2750
Wire Wire Line
	9850 2750 10150 2750
$Comp
L power:GND #PWR030
U 1 1 6002AC8C
P 9850 2750
F 0 "#PWR030" H 9850 2500 50  0001 C CNN
F 1 "GND" H 9855 2577 50  0000 C CNN
F 2 "" H 9850 2750 50  0001 C CNN
F 3 "" H 9850 2750 50  0001 C CNN
	1    9850 2750
	1    0    0    -1  
$EndComp
Wire Wire Line
	9700 4200 9700 4250
Wire Wire Line
	9700 4250 9850 4250
Wire Wire Line
	10000 4250 10000 4200
$Comp
L power:GND #PWR031
U 1 1 6004ECA5
P 9850 4250
F 0 "#PWR031" H 9850 4000 50  0001 C CNN
F 1 "GND" H 9855 4077 50  0000 C CNN
F 2 "" H 9850 4250 50  0001 C CNN
F 3 "" H 9850 4250 50  0001 C CNN
	1    9850 4250
	1    0    0    -1  
$EndComp
Connection ~ 9850 4250
Wire Wire Line
	9850 4250 10000 4250
$Comp
L Device:C C3
U 1 1 60094CF3
P 3250 5250
F 0 "C3" H 3135 5296 50  0000 R CNN
F 1 "100n" H 3135 5205 50  0000 R CNN
F 2 "Capacitor_SMD:C_0805_2012Metric" H 3288 5100 50  0001 C CNN
F 3 "~" H 3250 5250 50  0001 C CNN
	1    3250 5250
	1    0    0    -1  
$EndComp
$Comp
L Device:R R3
U 1 1 600957B5
P 2500 4650
F 0 "R3" H 2570 4696 50  0000 L CNN
F 1 "10k" H 2570 4605 50  0000 L CNN
F 2 "Resistor_SMD:R_0805_2012Metric" V 2430 4650 50  0001 C CNN
F 3 "~" H 2500 4650 50  0001 C CNN
	1    2500 4650
	1    0    0    -1  
$EndComp
$Comp
L Device:R R4
U 1 1 600962D4
P 3050 4850
F 0 "R4" V 3000 4650 50  0000 C CNN
F 1 "1k" V 3050 4850 50  0000 C CNN
F 2 "Resistor_SMD:R_0805_2012Metric" V 2980 4850 50  0001 C CNN
F 3 "~" H 3050 4850 50  0001 C CNN
	1    3050 4850
	0    1    1    0   
$EndComp
Wire Wire Line
	3200 4850 3250 4850
Connection ~ 3250 4850
Wire Wire Line
	3250 4850 4100 4850
Wire Wire Line
	3200 4950 3450 4950
Wire Wire Line
	3200 5050 3650 5050
Wire Wire Line
	3250 4850 3250 5100
$Comp
L Device:C C4
U 1 1 6010ED80
P 3450 5250
F 0 "C4" H 3350 5350 50  0000 L CNN
F 1 "100n" H 3350 5150 50  0000 L CNN
F 2 "Capacitor_SMD:C_0805_2012Metric" H 3488 5100 50  0001 C CNN
F 3 "~" H 3450 5250 50  0001 C CNN
	1    3450 5250
	1    0    0    -1  
$EndComp
Wire Wire Line
	3450 5100 3450 4950
Connection ~ 3450 4950
Wire Wire Line
	3450 4950 4100 4950
$Comp
L Device:C C6
U 1 1 6011C2DC
P 3650 5250
F 0 "C6" H 3765 5296 50  0000 L CNN
F 1 "100n" H 3765 5205 50  0000 L CNN
F 2 "Capacitor_SMD:C_0805_2012Metric" H 3688 5100 50  0001 C CNN
F 3 "~" H 3650 5250 50  0001 C CNN
	1    3650 5250
	1    0    0    -1  
$EndComp
Wire Wire Line
	3650 5100 3650 5050
Connection ~ 3650 5050
Wire Wire Line
	3650 5050 4100 5050
$Comp
L Device:R R5
U 1 1 60129B38
P 3050 4950
F 0 "R5" V 3000 4750 50  0000 C CNN
F 1 "1k" V 3050 4950 50  0000 C CNN
F 2 "Resistor_SMD:R_0805_2012Metric" V 2980 4950 50  0001 C CNN
F 3 "~" H 3050 4950 50  0001 C CNN
	1    3050 4950
	0    1    1    0   
$EndComp
$Comp
L Device:R R6
U 1 1 60129CA1
P 3050 5050
F 0 "R6" V 3000 4850 50  0000 C CNN
F 1 "1k" V 3050 5050 50  0000 C CNN
F 2 "Resistor_SMD:R_0805_2012Metric" V 2980 5050 50  0001 C CNN
F 3 "~" H 3050 5050 50  0001 C CNN
	1    3050 5050
	0    1    1    0   
$EndComp
$Comp
L Device:R R2
U 1 1 60129E5B
P 2300 4650
F 0 "R2" H 2370 4696 50  0000 L CNN
F 1 "10k" H 2370 4605 50  0000 L CNN
F 2 "Resistor_SMD:R_0805_2012Metric" V 2230 4650 50  0001 C CNN
F 3 "~" H 2300 4650 50  0001 C CNN
	1    2300 4650
	1    0    0    -1  
$EndComp
$Comp
L Device:R R1
U 1 1 6012A0E0
P 2100 4650
F 0 "R1" H 2030 4696 50  0000 R CNN
F 1 "10k" H 2030 4605 50  0000 R CNN
F 2 "Resistor_SMD:R_0805_2012Metric" V 2030 4650 50  0001 C CNN
F 3 "~" H 2100 4650 50  0001 C CNN
	1    2100 4650
	1    0    0    -1  
$EndComp
Wire Wire Line
	2500 4800 2500 5050
Wire Wire Line
	2300 4800 2300 4950
Wire Wire Line
	2100 4800 2100 4850
Wire Wire Line
	2100 4500 2100 4450
Wire Wire Line
	2500 4450 2500 4500
Wire Wire Line
	2300 4450 2300 4500
Connection ~ 2300 4450
Wire Wire Line
	3250 5400 3250 5450
Wire Wire Line
	3250 5450 3450 5450
Wire Wire Line
	3650 5450 3650 5400
Wire Wire Line
	3450 5400 3450 5450
Connection ~ 3450 5450
Wire Wire Line
	3450 5450 3650 5450
$Comp
L power:GND #PWR010
U 1 1 60202C5A
P 3450 5450
F 0 "#PWR010" H 3450 5200 50  0001 C CNN
F 1 "GND" H 3455 5277 50  0000 C CNN
F 2 "" H 3450 5450 50  0001 C CNN
F 3 "" H 3450 5450 50  0001 C CNN
	1    3450 5450
	1    0    0    -1  
$EndComp
$Comp
L power:+3V3 #PWR03
U 1 1 6020368D
P 2300 4450
F 0 "#PWR03" H 2300 4300 50  0001 C CNN
F 1 "+3V3" H 2315 4623 50  0000 C CNN
F 2 "" H 2300 4450 50  0001 C CNN
F 3 "" H 2300 4450 50  0001 C CNN
	1    2300 4450
	1    0    0    -1  
$EndComp
NoConn ~ 4100 5150
$Comp
L Switch:SW_Push SW3
U 1 1 60215FC5
P 2500 5300
F 0 "SW3" V 2546 5252 50  0000 R CNN
F 1 "SW_Push" V 2455 5252 50  0000 R CNN
F 2 "CustomFootprints:SW_Tactile_SPST_Angled_FSMRA7JH" H 2500 5500 50  0001 C CNN
F 3 "~" H 2500 5500 50  0001 C CNN
	1    2500 5300
	0    -1   -1   0   
$EndComp
$Comp
L Switch:SW_Push SW2
U 1 1 60217300
P 2300 5300
F 0 "SW2" V 2346 5252 50  0000 R CNN
F 1 "SW_Push" V 2255 5252 50  0000 R CNN
F 2 "CustomFootprints:SW_Tactile_SPST_Angled_FSMRA7JH" H 2300 5500 50  0001 C CNN
F 3 "~" H 2300 5500 50  0001 C CNN
	1    2300 5300
	0    -1   -1   0   
$EndComp
$Comp
L Switch:SW_Push SW1
U 1 1 602176EF
P 2100 5300
F 0 "SW1" V 2146 5448 50  0000 L CNN
F 1 "SW_Push" V 2055 5448 50  0000 L CNN
F 2 "CustomFootprints:SW_Tactile_SPST_Angled_FSMRA7JH" H 2100 5500 50  0001 C CNN
F 3 "~" H 2100 5500 50  0001 C CNN
	1    2100 5300
	0    -1   -1   0   
$EndComp
Wire Wire Line
	2500 5100 2500 5050
Wire Wire Line
	2300 5100 2300 4950
Wire Wire Line
	2100 5100 2100 4850
Wire Wire Line
	2100 5500 2100 5550
Wire Wire Line
	2100 5550 2300 5550
Wire Wire Line
	2500 5550 2500 5500
Wire Wire Line
	2300 5550 2300 5500
Connection ~ 2300 5550
Wire Wire Line
	2300 5550 2500 5550
$Comp
L power:GND #PWR04
U 1 1 6026B94A
P 2300 5550
F 0 "#PWR04" H 2300 5300 50  0001 C CNN
F 1 "GND" H 2305 5377 50  0000 C CNN
F 2 "" H 2300 5550 50  0001 C CNN
F 3 "" H 2300 5550 50  0001 C CNN
	1    2300 5550
	1    0    0    -1  
$EndComp
Connection ~ 2300 4950
Wire Wire Line
	2500 5050 2900 5050
Wire Wire Line
	2300 4950 2900 4950
Connection ~ 2100 4850
Wire Wire Line
	2100 4850 2900 4850
Connection ~ 2500 5050
Wire Wire Line
	2300 4450 2500 4450
Wire Wire Line
	2100 4450 2300 4450
Connection ~ 3600 3250
Wire Wire Line
	3600 3250 3900 3250
Wire Wire Line
	2950 3250 3600 3250
Wire Wire Line
	4300 3400 4300 3350
Wire Wire Line
	4300 3050 4300 3000
Wire Wire Line
	4300 3000 4500 3000
Wire Wire Line
	4500 3000 4500 3050
Wire Wire Line
	4500 3350 4500 3400
Wire Wire Line
	4500 3400 4300 3400
Connection ~ 4300 3400
Wire Wire Line
	4700 3500 4700 3000
Wire Wire Line
	4700 3000 4500 3000
Connection ~ 4500 3000
Wire Wire Line
	4700 2950 4700 3000
Connection ~ 4700 3000
$Comp
L power:GND #PWR016
U 1 1 604B8001
P 4950 3350
F 0 "#PWR016" H 4950 3100 50  0001 C CNN
F 1 "GND" H 4955 3177 50  0000 C CNN
F 2 "" H 4950 3350 50  0001 C CNN
F 3 "" H 4950 3350 50  0001 C CNN
	1    4950 3350
	1    0    0    -1  
$EndComp
Wire Wire Line
	4800 3550 4800 3000
Wire Wire Line
	4800 3000 4950 3000
Wire Wire Line
	4950 3000 4950 3050
Connection ~ 4950 3000
Wire Wire Line
	4950 3000 5000 3000
$Comp
L Device:C C11
U 1 1 6050CECB
P 5350 3200
F 0 "C11" H 5235 3154 50  0000 R CNN
F 1 "100n" H 5235 3245 50  0000 R CNN
F 2 "Capacitor_SMD:C_0805_2012Metric" H 5388 3050 50  0001 C CNN
F 3 "~" H 5350 3200 50  0001 C CNN
	1    5350 3200
	-1   0    0    1   
$EndComp
Wire Wire Line
	5300 3000 5350 3000
Wire Wire Line
	5350 3000 5350 3050
$Comp
L power:GND #PWR018
U 1 1 6051E3F1
P 5350 3350
F 0 "#PWR018" H 5350 3100 50  0001 C CNN
F 1 "GND" H 5355 3177 50  0000 C CNN
F 2 "" H 5350 3350 50  0001 C CNN
F 3 "" H 5350 3350 50  0001 C CNN
	1    5350 3350
	1    0    0    -1  
$EndComp
$Comp
L power:+3V3 #PWR017
U 1 1 6051E804
P 5350 2950
F 0 "#PWR017" H 5350 2800 50  0001 C CNN
F 1 "+3V3" H 5365 3123 50  0000 C CNN
F 2 "" H 5350 2950 50  0001 C CNN
F 3 "" H 5350 2950 50  0001 C CNN
	1    5350 2950
	1    0    0    -1  
$EndComp
Wire Wire Line
	5350 2950 5350 3000
Connection ~ 5350 3000
$Comp
L power:GND #PWR06
U 1 1 6018929C
P 2800 4150
F 0 "#PWR06" H 2800 3900 50  0001 C CNN
F 1 "GND" H 2805 3977 50  0000 C CNN
F 2 "" H 2800 4150 50  0001 C CNN
F 3 "" H 2800 4150 50  0001 C CNN
	1    2800 4150
	1    0    0    -1  
$EndComp
$Comp
L power:+3V3 #PWR05
U 1 1 60188D8F
P 2800 3750
F 0 "#PWR05" H 2800 3600 50  0001 C CNN
F 1 "+3V3" H 2815 3923 50  0000 C CNN
F 2 "" H 2800 3750 50  0001 C CNN
F 3 "" H 2800 3750 50  0001 C CNN
	1    2800 3750
	1    0    0    -1  
$EndComp
$Comp
L Jumper:SolderJumper_3_Open JP1
U 1 1 60530D97
P 2800 3950
F 0 "JP1" V 2846 4017 50  0000 L CNN
F 1 "JUMPER_BOOT0" V 2755 4017 50  0000 L CNN
F 2 "Jumper:SolderJumper-3_P2.0mm_Open_TrianglePad1.0x1.5mm" H 2800 3950 50  0001 C CNN
F 3 "~" H 2800 3950 50  0001 C CNN
	1    2800 3950
	0    -1   -1   0   
$EndComp
Wire Wire Line
	4600 5450 4600 5500
Wire Wire Line
	4600 5500 4650 5500
Wire Wire Line
	4700 5500 4700 5450
Connection ~ 4650 5500
Wire Wire Line
	4650 5500 4700 5500
$Comp
L Device:Ferrite_Bead FB1
U 1 1 6054DE9E
P 5150 3000
F 0 "FB1" V 4876 3000 50  0000 C CNN
F 1 "Ferrite_Bead" V 4967 3000 50  0000 C CNN
F 2 "Inductor_SMD:L_0805_2012Metric" V 5080 3000 50  0001 C CNN
F 3 "~" H 5150 3000 50  0001 C CNN
	1    5150 3000
	0    1    1    0   
$EndComp
Text Notes 550  1900 0    50   ~ 0
Absolute max current: 1650mA (all LEDs full brightness)\nRegular max current: ~~1000mA (two color temperatures full brightness)
$Comp
L Device:R R8
U 1 1 60551C5D
P 4250 2050
F 0 "R8" V 4043 2050 50  0000 C CNN
F 1 "10k" V 4134 2050 50  0000 C CNN
F 2 "Resistor_SMD:R_0805_2012Metric" V 4180 2050 50  0001 C CNN
F 3 "~" H 4250 2050 50  0001 C CNN
	1    4250 2050
	0    1    1    0   
$EndComp
Wire Wire Line
	4400 1200 4600 1200
$Comp
L Jumper:SolderJumper_2_Open JP2
U 1 1 6059EF5D
P 3900 3000
F 0 "JP2" V 3854 3068 50  0000 L CNN
F 1 "JUMPER_NRST" V 3945 3068 50  0000 L CNN
F 2 "Jumper:SolderJumper-2_P1.3mm_Open_TrianglePad1.0x1.5mm" H 3900 3000 50  0001 C CNN
F 3 "~" H 3900 3000 50  0001 C CNN
	1    3900 3000
	0    1    1    0   
$EndComp
Wire Wire Line
	3900 3150 3900 3250
Connection ~ 3900 3250
Wire Wire Line
	3900 2850 3900 2050
Wire Wire Line
	4600 2050 4400 2050
Wire Wire Line
	4600 1200 4600 2050
Wire Wire Line
	3900 2050 4100 2050
$Comp
L power:PWR_FLAG #FLG0101
U 1 1 6061377C
P 4800 3000
F 0 "#FLG0101" H 4800 3075 50  0001 C CNN
F 1 "PWR_FLAG" H 4800 3173 50  0000 C CNN
F 2 "" H 4800 3000 50  0001 C CNN
F 3 "~" H 4800 3000 50  0001 C CNN
	1    4800 3000
	1    0    0    -1  
$EndComp
Connection ~ 4800 3000
$Comp
L CustomSymbols:AL8807B U3
U 1 1 606520BF
P 8800 1300
F 0 "U3" H 8800 1465 50  0000 C CNN
F 1 "AL8807B" H 8800 1374 50  0000 C CNN
F 2 "Package_SO:MSOP-8-1EP_3x3mm_P0.65mm_EP1.68x1.88mm" H 8800 1300 50  0001 C CNN
F 3 "https://www.diodes.com/assets/Datasheets/AL8807B.pdf" H 8800 1300 50  0001 C CNN
	1    8800 1300
	1    0    0    -1  
$EndComp
Connection ~ 8800 1900
$Comp
L CustomSymbols:AL8807B U4
U 1 1 60653571
P 8800 2800
F 0 "U4" H 8800 2965 50  0000 C CNN
F 1 "AL8807B" H 8800 2874 50  0000 C CNN
F 2 "Package_SO:MSOP-8-1EP_3x3mm_P0.65mm_EP1.68x1.88mm" H 8800 2800 50  0001 C CNN
F 3 "https://www.diodes.com/assets/Datasheets/AL8807B.pdf" H 8800 2800 50  0001 C CNN
	1    8800 2800
	1    0    0    -1  
$EndComp
Connection ~ 8800 3400
$Comp
L CustomSymbols:AL8807B U5
U 1 1 60653BD0
P 8800 4300
F 0 "U5" H 8800 4465 50  0000 C CNN
F 1 "AL8807B" H 8800 4374 50  0000 C CNN
F 2 "Package_SO:MSOP-8-1EP_3x3mm_P0.65mm_EP1.68x1.88mm" H 8800 4300 50  0001 C CNN
F 3 "https://www.diodes.com/assets/Datasheets/AL8807B.pdf" H 8800 4300 50  0001 C CNN
	1    8800 4300
	1    0    0    -1  
$EndComp
Connection ~ 8800 4900
$EndSCHEMATC
