EESchema Schematic File Version 4
EELAYER 30 0
EELAYER END
$Descr A3 16535 11693
encoding utf-8
Sheet 1 1
Title ""
Date ""
Rev ""
Comp ""
Comment1 ""
Comment2 ""
Comment3 ""
Comment4 ""
$EndDescr
$Comp
L Device:Q_PMOS_GSD Q?
U 1 1 602585ED
P 8800 1150
AR Path="/5FEBF050/602585ED" Ref="Q?"  Part="1" 
AR Path="/602585ED" Ref="Q7"  Part="1" 
F 0 "Q7" H 9005 1104 50  0000 L CNN
F 1 "IRLML2246TRPbF" H 9005 1195 50  0000 L CNN
F 2 "Package_TO_SOT_SMD:SOT-23" H 9000 1250 50  0001 C CNN
F 3 "~" H 8800 1150 50  0001 C CNN
	1    8800 1150
	1    0    0    1   
$EndComp
Text Notes 5800 7400 0    50   ~ 0
8,5 mA to match the multiplexed LEDs
Wire Wire Line
	1400 3800 1400 3750
Wire Wire Line
	1400 3800 1600 3800
Connection ~ 1400 3800
Wire Wire Line
	1400 3850 1400 3800
Wire Wire Line
	1600 3800 1600 3850
Wire Wire Line
	1200 3800 1400 3800
Wire Wire Line
	1200 3850 1200 3800
Wire Wire Line
	1400 4250 1400 4200
Wire Wire Line
	1400 4200 1600 4200
Connection ~ 1400 4200
Wire Wire Line
	1400 4150 1400 4200
Wire Wire Line
	1600 4200 1600 4150
Wire Wire Line
	1200 4200 1400 4200
Wire Wire Line
	1200 4150 1200 4200
$Comp
L power:GND #PWR?
U 1 1 60258602
P 1400 4250
AR Path="/5FEBF050/60258602" Ref="#PWR?"  Part="1" 
AR Path="/60258602" Ref="#PWR04"  Part="1" 
F 0 "#PWR04" H 1400 4000 50  0001 C CNN
F 1 "GND" H 1405 4077 50  0000 C CNN
F 2 "" H 1400 4250 50  0001 C CNN
F 3 "" H 1400 4250 50  0001 C CNN
	1    1400 4250
	1    0    0    -1  
$EndComp
$Comp
L power:+3V3 #PWR?
U 1 1 60258608
P 1400 3750
AR Path="/5FEBF050/60258608" Ref="#PWR?"  Part="1" 
AR Path="/60258608" Ref="#PWR03"  Part="1" 
F 0 "#PWR03" H 1400 3600 50  0001 C CNN
F 1 "+3V3" H 1415 3923 50  0000 C CNN
F 2 "" H 1400 3750 50  0001 C CNN
F 3 "" H 1400 3750 50  0001 C CNN
	1    1400 3750
	1    0    0    -1  
$EndComp
$Comp
L Device:C C?
U 1 1 6025860E
P 1200 4000
AR Path="/5FEBF050/6025860E" Ref="C?"  Part="1" 
AR Path="/6025860E" Ref="C1"  Part="1" 
F 0 "C1" H 1085 4046 50  0000 R CNN
F 1 "10u" H 1085 3955 50  0000 R CNN
F 2 "Capacitor_SMD:C_0805_2012Metric" H 1238 3850 50  0001 C CNN
F 3 "~" H 1200 4000 50  0001 C CNN
	1    1200 4000
	1    0    0    -1  
$EndComp
Text Notes 900  1100 0    50   ~ 0
Max current: 400 mA
$Comp
L Device:C C?
U 1 1 60258615
P 1600 4000
AR Path="/5FEBF050/60258615" Ref="C?"  Part="1" 
AR Path="/60258615" Ref="C3"  Part="1" 
F 0 "C3" H 1715 4046 50  0000 L CNN
F 1 "100n" H 1715 3955 50  0000 L CNN
F 2 "Capacitor_SMD:C_0805_2012Metric" H 1638 3850 50  0001 C CNN
F 3 "~" H 1600 4000 50  0001 C CNN
	1    1600 4000
	1    0    0    -1  
$EndComp
$Comp
L Device:C C?
U 1 1 6025861B
P 1400 4000
AR Path="/5FEBF050/6025861B" Ref="C?"  Part="1" 
AR Path="/6025861B" Ref="C2"  Part="1" 
F 0 "C2" H 1515 4046 50  0000 L CNN
F 1 "10u" H 1515 3955 50  0000 L CNN
F 2 "Capacitor_SMD:C_0805_2012Metric" H 1438 3850 50  0001 C CNN
F 3 "~" H 1400 4000 50  0001 C CNN
	1    1400 4000
	1    0    0    -1  
$EndComp
$Comp
L Device:Q_PMOS_GSD Q?
U 1 1 60258621
P 10600 1700
AR Path="/5FEBF050/60258621" Ref="Q?"  Part="1" 
AR Path="/60258621" Ref="Q11"  Part="1" 
F 0 "Q11" H 10805 1654 50  0000 L CNN
F 1 "IRLML2246TRPbF" H 10805 1745 50  0000 L CNN
F 2 "Package_TO_SOT_SMD:SOT-23" H 10800 1800 50  0001 C CNN
F 3 "~" H 10600 1700 50  0001 C CNN
	1    10600 1700
	1    0    0    1   
$EndComp
$Comp
L Device:Q_PMOS_GSD Q?
U 1 1 60258627
P 9850 1700
AR Path="/5FEBF050/60258627" Ref="Q?"  Part="1" 
AR Path="/60258627" Ref="Q10"  Part="1" 
F 0 "Q10" H 10055 1654 50  0000 L CNN
F 1 "IRLML2246TRPbF" H 10055 1745 50  0000 L CNN
F 2 "Package_TO_SOT_SMD:SOT-23" H 10050 1800 50  0001 C CNN
F 3 "~" H 9850 1700 50  0001 C CNN
	1    9850 1700
	1    0    0    1   
$EndComp
$Comp
L Device:Q_PMOS_GSD Q?
U 1 1 6025862D
P 9100 1700
AR Path="/5FEBF050/6025862D" Ref="Q?"  Part="1" 
AR Path="/6025862D" Ref="Q8"  Part="1" 
F 0 "Q8" H 9305 1654 50  0000 L CNN
F 1 "IRLML2246TRPbF" H 9305 1745 50  0000 L CNN
F 2 "Package_TO_SOT_SMD:SOT-23" H 9300 1800 50  0001 C CNN
F 3 "~" H 9100 1700 50  0001 C CNN
	1    9100 1700
	1    0    0    1   
$EndComp
$Comp
L Device:Q_PMOS_GSD Q?
U 1 1 60258633
P 8350 1700
AR Path="/5FEBF050/60258633" Ref="Q?"  Part="1" 
AR Path="/60258633" Ref="Q6"  Part="1" 
F 0 "Q6" H 8555 1654 50  0000 L CNN
F 1 "IRLML2246TRPbF" H 8555 1745 50  0000 L CNN
F 2 "Package_TO_SOT_SMD:SOT-23" H 8550 1800 50  0001 C CNN
F 3 "~" H 8350 1700 50  0001 C CNN
	1    8350 1700
	1    0    0    1   
$EndComp
$Comp
L Device:Q_PMOS_GSD Q?
U 1 1 60258639
P 7600 1700
AR Path="/5FEBF050/60258639" Ref="Q?"  Part="1" 
AR Path="/60258639" Ref="Q4"  Part="1" 
F 0 "Q4" H 7805 1654 50  0000 L CNN
F 1 "IRLML2246TRPbF" H 7805 1745 50  0000 L CNN
F 2 "Package_TO_SOT_SMD:SOT-23" H 7800 1800 50  0001 C CNN
F 3 "~" H 7600 1700 50  0001 C CNN
	1    7600 1700
	1    0    0    1   
$EndComp
Text Notes 11250 5750 0    50   ~ 0
Resistors need to dissipate ~~50mW
Text Notes 11000 3700 0    50   ~ 0
0R jumpers so that brightness can be adjusted if necessary
Text Notes 11000 3400 0    50   ~ 0
Red LEDs reverse mount, diffused through PCB\n(Kingbright AA3528SECKT/J309)
Wire Wire Line
	5300 7550 5500 7550
Connection ~ 5300 7550
Wire Wire Line
	5100 7550 5300 7550
$Comp
L Device:Q_NMOS_GSD Q?
U 1 1 60258645
P 5200 7750
AR Path="/5FEBF050/60258645" Ref="Q?"  Part="1" 
AR Path="/60258645" Ref="Q2"  Part="1" 
F 0 "Q2" H 5404 7796 50  0000 L CNN
F 1 "2N7002P" H 5404 7705 50  0000 L CNN
F 2 "Package_TO_SOT_SMD:SOT-23" H 5400 7850 50  0001 C CNN
F 3 "~" H 5200 7750 50  0001 C CNN
	1    5200 7750
	1    0    0    -1  
$EndComp
Connection ~ 10700 5700
Wire Wire Line
	10800 5700 10700 5700
Connection ~ 9900 5700
Wire Wire Line
	10000 5700 9900 5700
Connection ~ 9100 5700
Wire Wire Line
	9200 5700 9100 5700
Connection ~ 8300 5700
Wire Wire Line
	8400 5700 8300 5700
Connection ~ 7500 5700
Wire Wire Line
	7600 5700 7500 5700
Connection ~ 6700 5700
Wire Wire Line
	6800 5700 6700 5700
Connection ~ 5900 5700
Wire Wire Line
	6000 5700 5900 5700
Connection ~ 5100 5700
Wire Wire Line
	5200 5700 5100 5700
$Comp
L CustomSymbols:IRF7303PbF Q?
U 2 1 6025865B
P 10600 5900
AR Path="/5FEBF050/6025865B" Ref="Q?"  Part="2" 
AR Path="/6025865B" Ref="Q9"  Part="2" 
F 0 "Q9" H 10888 5946 50  0000 L CNN
F 1 "IRF7303PbF" H 10888 5855 50  0000 L CNN
F 2 "Package_SO:SOIC-8_3.9x4.9mm_P1.27mm" H 10800 5900 50  0001 C CNN
F 3 "https://www.infineon.com/dgdl/irf7303pbf.pdf?fileId=5546d462533600a4015355f1c70a1afc" H 10800 5900 50  0001 C CNN
	2    10600 5900
	1    0    0    -1  
$EndComp
$Comp
L CustomSymbols:IRF7303PbF Q?
U 2 1 60258661
P 9000 5900
AR Path="/5FEBF050/60258661" Ref="Q?"  Part="2" 
AR Path="/60258661" Ref="Q5"  Part="2" 
F 0 "Q5" H 9288 5946 50  0000 L CNN
F 1 "IRF7303PbF" H 9288 5855 50  0000 L CNN
F 2 "Package_SO:SOIC-8_3.9x4.9mm_P1.27mm" H 9200 5900 50  0001 C CNN
F 3 "https://www.infineon.com/dgdl/irf7303pbf.pdf?fileId=5546d462533600a4015355f1c70a1afc" H 9200 5900 50  0001 C CNN
	2    9000 5900
	1    0    0    -1  
$EndComp
$Comp
L CustomSymbols:IRF7303PbF Q?
U 2 1 60258667
P 7400 5900
AR Path="/5FEBF050/60258667" Ref="Q?"  Part="2" 
AR Path="/60258667" Ref="Q3"  Part="2" 
F 0 "Q3" H 7688 5946 50  0000 L CNN
F 1 "IRF7303PbF" H 7688 5855 50  0000 L CNN
F 2 "Package_SO:SOIC-8_3.9x4.9mm_P1.27mm" H 7600 5900 50  0001 C CNN
F 3 "https://www.infineon.com/dgdl/irf7303pbf.pdf?fileId=5546d462533600a4015355f1c70a1afc" H 7600 5900 50  0001 C CNN
	2    7400 5900
	1    0    0    -1  
$EndComp
$Comp
L CustomSymbols:IRF7303PbF Q?
U 2 1 6025866D
P 5800 5900
AR Path="/5FEBF050/6025866D" Ref="Q?"  Part="2" 
AR Path="/6025866D" Ref="Q1"  Part="2" 
F 0 "Q1" H 6088 5946 50  0000 L CNN
F 1 "IRF7303PbF" H 6088 5855 50  0000 L CNN
F 2 "Package_SO:SOIC-8_3.9x4.9mm_P1.27mm" H 6000 5900 50  0001 C CNN
F 3 "https://www.infineon.com/dgdl/irf7303pbf.pdf?fileId=5546d462533600a4015355f1c70a1afc" H 6000 5900 50  0001 C CNN
	2    5800 5900
	1    0    0    -1  
$EndComp
$Comp
L CustomSymbols:IRF7303PbF Q?
U 1 1 60258673
P 9800 5900
AR Path="/5FEBF050/60258673" Ref="Q?"  Part="1" 
AR Path="/60258673" Ref="Q9"  Part="1" 
F 0 "Q9" H 10088 5946 50  0000 L CNN
F 1 "IRF7303PbF" H 10088 5855 50  0000 L CNN
F 2 "Package_SO:SOIC-8_3.9x4.9mm_P1.27mm" H 10000 5900 50  0001 C CNN
F 3 "https://www.infineon.com/dgdl/irf7303pbf.pdf?fileId=5546d462533600a4015355f1c70a1afc" H 10000 5900 50  0001 C CNN
	1    9800 5900
	1    0    0    -1  
$EndComp
$Comp
L CustomSymbols:IRF7303PbF Q?
U 1 1 60258679
P 8200 5900
AR Path="/5FEBF050/60258679" Ref="Q?"  Part="1" 
AR Path="/60258679" Ref="Q5"  Part="1" 
F 0 "Q5" H 8488 5946 50  0000 L CNN
F 1 "IRF7303PbF" H 8488 5855 50  0000 L CNN
F 2 "Package_SO:SOIC-8_3.9x4.9mm_P1.27mm" H 8400 5900 50  0001 C CNN
F 3 "https://www.infineon.com/dgdl/irf7303pbf.pdf?fileId=5546d462533600a4015355f1c70a1afc" H 8400 5900 50  0001 C CNN
	1    8200 5900
	1    0    0    -1  
$EndComp
$Comp
L CustomSymbols:IRF7303PbF Q?
U 1 1 6025867F
P 6600 5900
AR Path="/5FEBF050/6025867F" Ref="Q?"  Part="1" 
AR Path="/6025867F" Ref="Q3"  Part="1" 
F 0 "Q3" H 6888 5946 50  0000 L CNN
F 1 "IRF7303PbF" H 6888 5855 50  0000 L CNN
F 2 "Package_SO:SOIC-8_3.9x4.9mm_P1.27mm" H 6800 5900 50  0001 C CNN
F 3 "https://www.infineon.com/dgdl/irf7303pbf.pdf?fileId=5546d462533600a4015355f1c70a1afc" H 6800 5900 50  0001 C CNN
	1    6600 5900
	1    0    0    -1  
$EndComp
$Comp
L CustomSymbols:IRF7303PbF Q?
U 1 1 60258685
P 5000 5900
AR Path="/5FEBF050/60258685" Ref="Q?"  Part="1" 
AR Path="/60258685" Ref="Q1"  Part="1" 
F 0 "Q1" H 5288 5946 50  0000 L CNN
F 1 "IRF7303PbF" H 5288 5855 50  0000 L CNN
F 2 "Package_SO:SOIC-8_3.9x4.9mm_P1.27mm" H 5200 5900 50  0001 C CNN
F 3 "https://www.infineon.com/dgdl/irf7303pbf.pdf?fileId=5546d462533600a4015355f1c70a1afc" H 5200 5900 50  0001 C CNN
	1    5000 5900
	1    0    0    -1  
$EndComp
$Comp
L power:GND #PWR?
U 1 1 6025868B
P 4400 9100
AR Path="/5FEBEE19/6025868B" Ref="#PWR?"  Part="1" 
AR Path="/5FEBF4E2/6025868B" Ref="#PWR?"  Part="1" 
AR Path="/5FEBF050/6025868B" Ref="#PWR?"  Part="1" 
AR Path="/6025868B" Ref="#PWR09"  Part="1" 
F 0 "#PWR09" H 4400 8850 50  0001 C CNN
F 1 "GND" H 4405 8927 50  0000 C CNN
F 2 "" H 4400 9100 50  0001 C CNN
F 3 "" H 4400 9100 50  0001 C CNN
	1    4400 9100
	1    0    0    -1  
$EndComp
$Comp
L power:GND #PWR?
U 1 1 60258691
P 4800 9100
AR Path="/5FEBEE19/60258691" Ref="#PWR?"  Part="1" 
AR Path="/5FEBF4E2/60258691" Ref="#PWR?"  Part="1" 
AR Path="/5FEBF050/60258691" Ref="#PWR?"  Part="1" 
AR Path="/60258691" Ref="#PWR011"  Part="1" 
F 0 "#PWR011" H 4800 8850 50  0001 C CNN
F 1 "GND" H 4805 8927 50  0000 C CNN
F 2 "" H 4800 9100 50  0001 C CNN
F 3 "" H 4800 9100 50  0001 C CNN
	1    4800 9100
	1    0    0    -1  
$EndComp
Connection ~ 4800 8750
Wire Wire Line
	5350 8750 5350 8800
Wire Wire Line
	4800 8750 5350 8750
Wire Wire Line
	4800 8750 4800 8800
Wire Wire Line
	4750 8750 4800 8750
Wire Wire Line
	4400 8750 4450 8750
Connection ~ 4400 8750
Wire Wire Line
	4400 8800 4400 8750
Wire Wire Line
	4300 8750 4400 8750
Wire Wire Line
	4300 8700 4300 8750
$Comp
L Device:C C?
U 1 1 602586A1
P 4400 8950
AR Path="/5FEBF050/602586A1" Ref="C?"  Part="1" 
AR Path="/602586A1" Ref="C4"  Part="1" 
F 0 "C4" H 4515 8996 50  0000 L CNN
F 1 "100n" H 4515 8905 50  0000 L CNN
F 2 "Capacitor_SMD:C_0805_2012Metric" H 4438 8800 50  0001 C CNN
F 3 "~" H 4400 8950 50  0001 C CNN
	1    4400 8950
	1    0    0    -1  
$EndComp
$Comp
L Device:Ferrite_Bead FB?
U 1 1 602586A7
P 4600 8750
AR Path="/5FEBF050/602586A7" Ref="FB?"  Part="1" 
AR Path="/602586A7" Ref="FB1"  Part="1" 
F 0 "FB1" V 4326 8750 50  0000 C CNN
F 1 "Ferrite_Bead" V 4417 8750 50  0000 C CNN
F 2 "Inductor_SMD:L_0805_2012Metric" V 4530 8750 50  0001 C CNN
F 3 "~" H 4600 8750 50  0001 C CNN
	1    4600 8750
	0    1    1    0   
$EndComp
$Comp
L Device:C C?
U 1 1 602586AD
P 4800 8950
AR Path="/5FEBF050/602586AD" Ref="C?"  Part="1" 
AR Path="/602586AD" Ref="C5"  Part="1" 
F 0 "C5" H 4915 8996 50  0000 L CNN
F 1 "100n" H 4915 8905 50  0000 L CNN
F 2 "Capacitor_SMD:C_0805_2012Metric" H 4838 8800 50  0001 C CNN
F 3 "~" H 4800 8950 50  0001 C CNN
	1    4800 8950
	1    0    0    -1  
$EndComp
Wire Wire Line
	4800 3300 4800 4200
Connection ~ 4800 3300
Wire Wire Line
	4700 3400 4700 4200
Connection ~ 4700 3400
Wire Wire Line
	4600 3500 4600 4200
Connection ~ 4600 3500
Wire Wire Line
	4500 3600 4500 4200
Connection ~ 4500 3600
Wire Wire Line
	4400 3700 4400 4200
Connection ~ 4400 3700
Wire Wire Line
	4300 3800 4300 4200
Connection ~ 4300 3800
Wire Wire Line
	4200 3900 4200 4200
Connection ~ 4200 3900
Wire Wire Line
	4100 4000 4100 4200
Connection ~ 4100 4000
Wire Wire Line
	4000 4100 4000 4200
Connection ~ 4000 4100
Wire Wire Line
	4800 4500 4800 5900
Wire Wire Line
	4300 2700 4300 3800
Wire Wire Line
	4400 2600 4400 3700
Wire Wire Line
	4500 2500 4500 3600
Wire Wire Line
	4000 3000 4000 4100
Wire Wire Line
	4100 2900 4100 4000
Wire Wire Line
	4200 2800 4200 3900
Wire Wire Line
	4600 2400 4600 3500
Wire Wire Line
	4700 2300 4700 3400
Wire Wire Line
	4800 2200 4800 3300
Wire Wire Line
	10400 5300 10400 5900
Wire Wire Line
	9600 5200 9600 5900
Wire Wire Line
	8800 5100 8800 5900
Wire Wire Line
	8000 5000 8000 5900
Wire Wire Line
	7200 4900 7200 5900
Wire Wire Line
	6400 4800 6400 5900
Wire Wire Line
	5600 4700 5600 5900
Wire Wire Line
	9900 6200 10700 6200
Wire Wire Line
	9100 6200 9900 6200
Wire Wire Line
	8300 6200 9100 6200
Wire Wire Line
	7500 6200 7900 6200
Wire Wire Line
	6700 6200 7500 6200
Wire Wire Line
	5900 6200 6700 6200
$Comp
L Device:R R?
U 1 1 602586DC
P 5100 5550
AR Path="/5FEBF050/602586DC" Ref="R?"  Part="1" 
AR Path="/602586DC" Ref="R26"  Part="1" 
F 0 "R26" H 5170 5596 50  0000 L CNN
F 1 "33" H 5170 5505 50  0000 L CNN
F 2 "Resistor_SMD:R_0805_2012Metric" V 5030 5550 50  0001 C CNN
F 3 "~" H 5100 5550 50  0001 C CNN
	1    5100 5550
	1    0    0    -1  
$EndComp
Wire Wire Line
	5100 6200 5900 6200
Connection ~ 3550 4100
Wire Wire Line
	3550 4150 3550 4100
$Comp
L power:GND #PWR?
U 1 1 602586E5
P 3550 4150
AR Path="/5FEBF050/602586E5" Ref="#PWR?"  Part="1" 
AR Path="/602586E5" Ref="#PWR07"  Part="1" 
F 0 "#PWR07" H 3550 3900 50  0001 C CNN
F 1 "GND" H 3555 3977 50  0000 C CNN
F 2 "" H 3550 4150 50  0001 C CNN
F 3 "" H 3550 4150 50  0001 C CNN
	1    3550 4150
	-1   0    0    -1  
$EndComp
Wire Wire Line
	3550 4000 3550 3900
Connection ~ 3550 4000
Wire Wire Line
	3600 4000 3550 4000
Wire Wire Line
	3550 3900 3550 3800
Connection ~ 3550 3900
Wire Wire Line
	3550 3900 3600 3900
Wire Wire Line
	3550 3800 3550 3700
Connection ~ 3550 3800
Wire Wire Line
	3600 3800 3550 3800
Wire Wire Line
	3550 3700 3550 3600
Connection ~ 3550 3700
Wire Wire Line
	3600 3700 3550 3700
Wire Wire Line
	3550 3600 3550 3500
Connection ~ 3550 3600
Wire Wire Line
	3600 3600 3550 3600
Wire Wire Line
	3550 3500 3550 3400
Connection ~ 3550 3500
Wire Wire Line
	3600 3500 3550 3500
Wire Wire Line
	3550 3400 3550 3300
Connection ~ 3550 3400
Wire Wire Line
	3600 3400 3550 3400
Wire Wire Line
	3550 3300 3600 3300
Wire Wire Line
	3550 4100 3550 4000
Wire Wire Line
	3600 4100 3550 4100
Wire Wire Line
	3900 3300 4800 3300
Wire Wire Line
	3900 3400 4700 3400
Wire Wire Line
	3900 3500 4600 3500
Wire Wire Line
	3900 3600 4500 3600
Wire Wire Line
	3900 3700 4400 3700
Wire Wire Line
	3900 3800 4300 3800
Wire Wire Line
	3900 3900 4200 3900
Wire Wire Line
	3900 4000 4100 4000
Wire Wire Line
	3900 4100 4000 4100
$Comp
L Device:R R?
U 1 1 6025870C
P 3750 3300
AR Path="/5FEBF050/6025870C" Ref="R?"  Part="1" 
AR Path="/6025870C" Ref="R1"  Part="1" 
F 0 "R1" V 3750 3600 50  0000 C CNN
F 1 "100k" V 3750 3300 50  0000 C CNN
F 2 "Resistor_SMD:R_0805_2012Metric" V 3680 3300 50  0001 C CNN
F 3 "~" H 3750 3300 50  0001 C CNN
	1    3750 3300
	0    -1   1    0   
$EndComp
$Comp
L Device:R R?
U 1 1 60258712
P 3750 3400
AR Path="/5FEBF050/60258712" Ref="R?"  Part="1" 
AR Path="/60258712" Ref="R2"  Part="1" 
F 0 "R2" V 3750 3700 50  0000 C CNN
F 1 "100k" V 3750 3400 50  0000 C CNN
F 2 "Resistor_SMD:R_0805_2012Metric" V 3680 3400 50  0001 C CNN
F 3 "~" H 3750 3400 50  0001 C CNN
	1    3750 3400
	0    -1   1    0   
$EndComp
$Comp
L Device:R R?
U 1 1 60258718
P 3750 3500
AR Path="/5FEBF050/60258718" Ref="R?"  Part="1" 
AR Path="/60258718" Ref="R3"  Part="1" 
F 0 "R3" V 3750 3800 50  0000 C CNN
F 1 "100k" V 3750 3500 50  0000 C CNN
F 2 "Resistor_SMD:R_0805_2012Metric" V 3680 3500 50  0001 C CNN
F 3 "~" H 3750 3500 50  0001 C CNN
	1    3750 3500
	0    -1   1    0   
$EndComp
$Comp
L Device:R R?
U 1 1 6025871E
P 3750 3600
AR Path="/5FEBF050/6025871E" Ref="R?"  Part="1" 
AR Path="/6025871E" Ref="R4"  Part="1" 
F 0 "R4" V 3750 3900 50  0000 C CNN
F 1 "100k" V 3750 3600 50  0000 C CNN
F 2 "Resistor_SMD:R_0805_2012Metric" V 3680 3600 50  0001 C CNN
F 3 "~" H 3750 3600 50  0001 C CNN
	1    3750 3600
	0    -1   1    0   
$EndComp
$Comp
L Device:R R?
U 1 1 60258724
P 3750 3700
AR Path="/5FEBF050/60258724" Ref="R?"  Part="1" 
AR Path="/60258724" Ref="R5"  Part="1" 
F 0 "R5" V 3750 4000 50  0000 C CNN
F 1 "100k" V 3750 3700 50  0000 C CNN
F 2 "Resistor_SMD:R_0805_2012Metric" V 3680 3700 50  0001 C CNN
F 3 "~" H 3750 3700 50  0001 C CNN
	1    3750 3700
	0    -1   1    0   
$EndComp
$Comp
L Device:R R?
U 1 1 6025872A
P 3750 3800
AR Path="/5FEBF050/6025872A" Ref="R?"  Part="1" 
AR Path="/6025872A" Ref="R6"  Part="1" 
F 0 "R6" V 3750 4100 50  0000 C CNN
F 1 "100k" V 3750 3800 50  0000 C CNN
F 2 "Resistor_SMD:R_0805_2012Metric" V 3680 3800 50  0001 C CNN
F 3 "~" H 3750 3800 50  0001 C CNN
	1    3750 3800
	0    -1   1    0   
$EndComp
$Comp
L Device:R R?
U 1 1 60258730
P 3750 3900
AR Path="/5FEBF050/60258730" Ref="R?"  Part="1" 
AR Path="/60258730" Ref="R7"  Part="1" 
F 0 "R7" V 3750 4200 50  0000 C CNN
F 1 "100k" V 3750 3900 50  0000 C CNN
F 2 "Resistor_SMD:R_0805_2012Metric" V 3680 3900 50  0001 C CNN
F 3 "~" H 3750 3900 50  0001 C CNN
	1    3750 3900
	0    -1   1    0   
$EndComp
$Comp
L Device:R R?
U 1 1 60258736
P 3750 4000
AR Path="/5FEBF050/60258736" Ref="R?"  Part="1" 
AR Path="/60258736" Ref="R8"  Part="1" 
F 0 "R8" V 3750 4300 50  0000 C CNN
F 1 "100k" V 3750 4000 50  0000 C CNN
F 2 "Resistor_SMD:R_0805_2012Metric" V 3680 4000 50  0001 C CNN
F 3 "~" H 3750 4000 50  0001 C CNN
	1    3750 4000
	0    -1   1    0   
$EndComp
$Comp
L Device:R R?
U 1 1 6025873C
P 3750 4100
AR Path="/5FEBF050/6025873C" Ref="R?"  Part="1" 
AR Path="/6025873C" Ref="R9"  Part="1" 
F 0 "R9" V 3750 4400 50  0000 C CNN
F 1 "100k" V 3750 4100 50  0000 C CNN
F 2 "Resistor_SMD:R_0805_2012Metric" V 3680 4100 50  0001 C CNN
F 3 "~" H 3750 4100 50  0001 C CNN
	1    3750 4100
	0    -1   1    0   
$EndComp
Wire Wire Line
	4000 7750 5000 7750
$Comp
L Device:R R?
U 1 1 60258743
P 4000 4350
AR Path="/5FEBF050/60258743" Ref="R?"  Part="1" 
AR Path="/60258743" Ref="R10"  Part="1" 
F 0 "R10" H 4050 4200 50  0000 R CNN
F 1 "10" V 4000 4400 50  0000 R CNN
F 2 "Resistor_SMD:R_0805_2012Metric" V 3930 4350 50  0001 C CNN
F 3 "~" H 4000 4350 50  0001 C CNN
	1    4000 4350
	-1   0    0    1   
$EndComp
$Comp
L Device:R R?
U 1 1 60258749
P 4100 4350
AR Path="/5FEBF050/60258749" Ref="R?"  Part="1" 
AR Path="/60258749" Ref="R11"  Part="1" 
F 0 "R11" H 4150 4200 50  0000 R CNN
F 1 "10" V 4100 4400 50  0000 R CNN
F 2 "Resistor_SMD:R_0805_2012Metric" V 4030 4350 50  0001 C CNN
F 3 "~" H 4100 4350 50  0001 C CNN
	1    4100 4350
	-1   0    0    1   
$EndComp
$Comp
L Device:R R?
U 1 1 6025874F
P 4200 4350
AR Path="/5FEBF050/6025874F" Ref="R?"  Part="1" 
AR Path="/6025874F" Ref="R12"  Part="1" 
F 0 "R12" H 4250 4200 50  0000 R CNN
F 1 "10" V 4200 4400 50  0000 R CNN
F 2 "Resistor_SMD:R_0805_2012Metric" V 4130 4350 50  0001 C CNN
F 3 "~" H 4200 4350 50  0001 C CNN
	1    4200 4350
	-1   0    0    1   
$EndComp
$Comp
L Device:R R?
U 1 1 60258755
P 4300 4350
AR Path="/5FEBF050/60258755" Ref="R?"  Part="1" 
AR Path="/60258755" Ref="R13"  Part="1" 
F 0 "R13" H 4350 4200 50  0000 R CNN
F 1 "10" V 4300 4400 50  0000 R CNN
F 2 "Resistor_SMD:R_0805_2012Metric" V 4230 4350 50  0001 C CNN
F 3 "~" H 4300 4350 50  0001 C CNN
	1    4300 4350
	-1   0    0    1   
$EndComp
$Comp
L Device:R R?
U 1 1 6025875B
P 4400 4350
AR Path="/5FEBF050/6025875B" Ref="R?"  Part="1" 
AR Path="/6025875B" Ref="R15"  Part="1" 
F 0 "R15" H 4450 4200 50  0000 R CNN
F 1 "10" V 4400 4400 50  0000 R CNN
F 2 "Resistor_SMD:R_0805_2012Metric" V 4330 4350 50  0001 C CNN
F 3 "~" H 4400 4350 50  0001 C CNN
	1    4400 4350
	-1   0    0    1   
$EndComp
$Comp
L Device:R R?
U 1 1 60258761
P 4500 4350
AR Path="/5FEBF050/60258761" Ref="R?"  Part="1" 
AR Path="/60258761" Ref="R17"  Part="1" 
F 0 "R17" H 4550 4200 50  0000 R CNN
F 1 "10" V 4500 4400 50  0000 R CNN
F 2 "Resistor_SMD:R_0805_2012Metric" V 4430 4350 50  0001 C CNN
F 3 "~" H 4500 4350 50  0001 C CNN
	1    4500 4350
	-1   0    0    1   
$EndComp
$Comp
L Device:R R?
U 1 1 60258767
P 4600 4350
AR Path="/5FEBF050/60258767" Ref="R?"  Part="1" 
AR Path="/60258767" Ref="R19"  Part="1" 
F 0 "R19" H 4650 4200 50  0000 R CNN
F 1 "10" V 4600 4400 50  0000 R CNN
F 2 "Resistor_SMD:R_0805_2012Metric" V 4530 4350 50  0001 C CNN
F 3 "~" H 4600 4350 50  0001 C CNN
	1    4600 4350
	-1   0    0    1   
$EndComp
$Comp
L Device:R R?
U 1 1 6025876D
P 4700 4350
AR Path="/5FEBF050/6025876D" Ref="R?"  Part="1" 
AR Path="/6025876D" Ref="R21"  Part="1" 
F 0 "R21" H 4750 4200 50  0000 R CNN
F 1 "10" V 4700 4400 50  0000 R CNN
F 2 "Resistor_SMD:R_0805_2012Metric" V 4630 4350 50  0001 C CNN
F 3 "~" H 4700 4350 50  0001 C CNN
	1    4700 4350
	-1   0    0    1   
$EndComp
$Comp
L Device:R R?
U 1 1 60258773
P 4800 4350
AR Path="/5FEBF050/60258773" Ref="R?"  Part="1" 
AR Path="/60258773" Ref="R23"  Part="1" 
F 0 "R23" H 4850 4200 50  0000 R CNN
F 1 "10" V 4800 4400 50  0000 R CNN
F 2 "Resistor_SMD:R_0805_2012Metric" V 4730 4350 50  0001 C CNN
F 3 "~" H 4800 4350 50  0001 C CNN
	1    4800 4350
	-1   0    0    1   
$EndComp
$Comp
L power:+3V3 #PWR?
U 1 1 60258779
P 4700 750
AR Path="/5FEBF050/60258779" Ref="#PWR?"  Part="1" 
AR Path="/60258779" Ref="#PWR010"  Part="1" 
F 0 "#PWR010" H 4700 600 50  0001 C CNN
F 1 "+3V3" H 4715 923 50  0000 C CNN
F 2 "" H 4700 750 50  0001 C CNN
F 3 "" H 4700 750 50  0001 C CNN
	1    4700 750 
	1    0    0    -1  
$EndComp
Wire Wire Line
	4700 750  4800 750 
Connection ~ 4700 750 
Wire Wire Line
	4700 800  4700 750 
Wire Wire Line
	4600 750  4700 750 
Connection ~ 4600 750 
Wire Wire Line
	4600 800  4600 750 
Wire Wire Line
	4500 750  4600 750 
Connection ~ 4500 750 
Wire Wire Line
	4500 800  4500 750 
Wire Wire Line
	4800 750  4800 800 
Wire Wire Line
	4400 750  4500 750 
Wire Wire Line
	4400 800  4400 750 
Wire Wire Line
	4400 2100 1350 2100
Connection ~ 4400 2100
Wire Wire Line
	4400 1100 4400 2100
Wire Wire Line
	4500 2000 1350 2000
Connection ~ 4500 2000
Wire Wire Line
	4500 1100 4500 2000
Wire Wire Line
	4600 1900 1350 1900
Connection ~ 4600 1900
Wire Wire Line
	4600 1100 4600 1900
Wire Wire Line
	4700 1800 1350 1800
Connection ~ 4700 1800
Wire Wire Line
	4700 1100 4700 1800
Wire Wire Line
	4800 1700 5250 1700
Connection ~ 4800 1700
Wire Wire Line
	4800 1100 4800 1700
$Comp
L Device:R R?
U 1 1 6025879A
P 4400 950
AR Path="/5FEBF050/6025879A" Ref="R?"  Part="1" 
AR Path="/6025879A" Ref="R14"  Part="1" 
F 0 "R14" H 4450 800 50  0000 R CNN
F 1 "100k" V 4400 1050 50  0000 R CNN
F 2 "Resistor_SMD:R_0805_2012Metric" V 4330 950 50  0001 C CNN
F 3 "~" H 4400 950 50  0001 C CNN
	1    4400 950 
	1    0    0    -1  
$EndComp
$Comp
L Device:R R?
U 1 1 602587A0
P 4500 950
AR Path="/5FEBF050/602587A0" Ref="R?"  Part="1" 
AR Path="/602587A0" Ref="R16"  Part="1" 
F 0 "R16" H 4450 800 50  0000 L CNN
F 1 "100k" V 4500 850 50  0000 L CNN
F 2 "Resistor_SMD:R_0805_2012Metric" V 4430 950 50  0001 C CNN
F 3 "~" H 4500 950 50  0001 C CNN
	1    4500 950 
	1    0    0    -1  
$EndComp
$Comp
L Device:R R?
U 1 1 602587A6
P 4600 950
AR Path="/5FEBF050/602587A6" Ref="R?"  Part="1" 
AR Path="/602587A6" Ref="R18"  Part="1" 
F 0 "R18" H 4550 800 50  0000 L CNN
F 1 "100k" V 4600 850 50  0000 L CNN
F 2 "Resistor_SMD:R_0805_2012Metric" V 4530 950 50  0001 C CNN
F 3 "~" H 4600 950 50  0001 C CNN
	1    4600 950 
	1    0    0    -1  
$EndComp
$Comp
L Device:R R?
U 1 1 602587AC
P 4700 950
AR Path="/5FEBF050/602587AC" Ref="R?"  Part="1" 
AR Path="/602587AC" Ref="R20"  Part="1" 
F 0 "R20" H 4650 800 50  0000 L CNN
F 1 "100k" V 4700 850 50  0000 L CNN
F 2 "Resistor_SMD:R_0805_2012Metric" V 4630 950 50  0001 C CNN
F 3 "~" H 4700 950 50  0001 C CNN
	1    4700 950 
	1    0    0    -1  
$EndComp
$Comp
L Device:R R?
U 1 1 602587B2
P 4800 950
AR Path="/5FEBF050/602587B2" Ref="R?"  Part="1" 
AR Path="/602587B2" Ref="R22"  Part="1" 
F 0 "R22" H 4750 800 50  0000 L CNN
F 1 "100k" V 4800 850 50  0000 L CNN
F 2 "Resistor_SMD:R_0805_2012Metric" V 4730 950 50  0001 C CNN
F 3 "~" H 4800 950 50  0001 C CNN
	1    4800 950 
	1    0    0    -1  
$EndComp
Wire Wire Line
	5550 1700 7400 1700
$Comp
L Device:R R?
U 1 1 602587B9
P 5400 1700
AR Path="/5FEBF050/602587B9" Ref="R?"  Part="1" 
AR Path="/602587B9" Ref="R32"  Part="1" 
F 0 "R32" V 5350 1500 50  0000 C CNN
F 1 "10" V 5400 1700 50  0000 C CNN
F 2 "Resistor_SMD:R_0805_2012Metric" V 5330 1700 50  0001 C CNN
F 3 "~" H 5400 1700 50  0001 C CNN
	1    5400 1700
	0    1    1    0   
$EndComp
Wire Wire Line
	5250 1800 4700 1800
$Comp
L Device:R R?
U 1 1 602587C0
P 5400 1800
AR Path="/5FEBF050/602587C0" Ref="R?"  Part="1" 
AR Path="/602587C0" Ref="R33"  Part="1" 
F 0 "R33" V 5350 1600 50  0000 C CNN
F 1 "10" V 5400 1800 50  0000 C CNN
F 2 "Resistor_SMD:R_0805_2012Metric" V 5330 1800 50  0001 C CNN
F 3 "~" H 5400 1800 50  0001 C CNN
	1    5400 1800
	0    1    1    0   
$EndComp
Wire Wire Line
	5250 1900 4600 1900
$Comp
L Device:R R?
U 1 1 602587C7
P 5400 1900
AR Path="/5FEBF050/602587C7" Ref="R?"  Part="1" 
AR Path="/602587C7" Ref="R34"  Part="1" 
F 0 "R34" V 5350 1700 50  0000 C CNN
F 1 "10" V 5400 1900 50  0000 C CNN
F 2 "Resistor_SMD:R_0805_2012Metric" V 5330 1900 50  0001 C CNN
F 3 "~" H 5400 1900 50  0001 C CNN
	1    5400 1900
	0    1    1    0   
$EndComp
Wire Wire Line
	5250 2000 4500 2000
$Comp
L Device:R R?
U 1 1 602587CE
P 5400 2000
AR Path="/5FEBF050/602587CE" Ref="R?"  Part="1" 
AR Path="/602587CE" Ref="R35"  Part="1" 
F 0 "R35" V 5350 1800 50  0000 C CNN
F 1 "10" V 5400 2000 50  0000 C CNN
F 2 "Resistor_SMD:R_0805_2012Metric" V 5330 2000 50  0001 C CNN
F 3 "~" H 5400 2000 50  0001 C CNN
	1    5400 2000
	0    1    1    0   
$EndComp
Wire Wire Line
	5250 2100 4400 2100
$Comp
L Device:R R?
U 1 1 602587D5
P 5400 2100
AR Path="/5FEBF050/602587D5" Ref="R?"  Part="1" 
AR Path="/602587D5" Ref="R36"  Part="1" 
F 0 "R36" V 5350 1900 50  0000 C CNN
F 1 "10" V 5400 2100 50  0000 C CNN
F 2 "Resistor_SMD:R_0805_2012Metric" V 5330 2100 50  0001 C CNN
F 3 "~" H 5400 2100 50  0001 C CNN
	1    5400 2100
	0    1    1    0   
$EndComp
Wire Wire Line
	1350 1700 4800 1700
Wire Wire Line
	5950 2000 8150 2000
Wire Wire Line
	5850 2100 8900 2100
Wire Wire Line
	5750 2200 9650 2200
Wire Wire Line
	5650 2300 10400 2300
Wire Wire Line
	10700 3550 10700 3450
$Comp
L Device:R R?
U 1 1 602587E9
P 10700 3700
AR Path="/5FEBF050/602587E9" Ref="R?"  Part="1" 
AR Path="/602587E9" Ref="R56"  Part="1" 
F 0 "R56" H 10770 3746 50  0000 L CNN
F 1 "0" H 10770 3655 50  0000 L CNN
F 2 "Resistor_SMD:R_0805_2012Metric" V 10630 3700 50  0001 C CNN
F 3 "~" H 10700 3700 50  0001 C CNN
	1    10700 3700
	1    0    0    -1  
$EndComp
Text Notes 5500 9700 0    50   ~ 0
The shunt resistor is placed on the main board so that the connection\nto the main board is not high-impedance, improving noise immunity
Text Notes 11250 5550 0    50   ~ 0
ACSA08-51SURKWA:\n100% duty cycle: 10mA @ 1,85V -> 145 Ohm\n-> 20% duty cycle: 50mA @ ~~2,0V -> 26 Ohm\n-> 33 Ohm -> ~~42mA = 84% brightness
$Comp
L CustomSymbols:R_Unpopulated R?
U 1 1 6025881B
P 5350 9850
AR Path="/5FEBF050/6025881B" Ref="R?"  Part="1" 
AR Path="/6025881B" Ref="R30"  Part="1" 
F 0 "R30" H 5420 9896 50  0000 L CNN
F 1 "5k" H 5420 9805 50  0000 L CNN
F 2 "Resistor_SMD:R_0805_2012Metric" V 5280 9850 50  0001 C CNN
F 3 "~" H 5350 9850 50  0001 C CNN
	1    5350 9850
	1    0    0    -1  
$EndComp
Connection ~ 10700 4600
Connection ~ 10700 3100
Wire Wire Line
	10700 1900 10700 3100
Wire Wire Line
	9950 1900 9950 3000
Wire Wire Line
	8900 1400 9200 1400
Connection ~ 8900 1400
Wire Wire Line
	9200 2900 9200 1900
Wire Wire Line
	8450 2800 8450 1900
Wire Wire Line
	7700 2700 7700 1900
Wire Wire Line
	7700 1400 8450 1400
Wire Wire Line
	8450 1400 8900 1400
Connection ~ 8450 1400
Wire Wire Line
	9200 1400 9950 1400
Connection ~ 9200 1400
Connection ~ 9950 1400
Wire Wire Line
	5800 4600 10700 4600
Wire Wire Line
	5700 4500 9900 4500
Wire Wire Line
	5600 4400 9100 4400
Wire Wire Line
	5500 4300 8300 4300
Wire Wire Line
	5400 4200 7500 4200
Wire Wire Line
	5350 9650 5350 9700
Connection ~ 5350 9650
Wire Wire Line
	5350 9650 2700 9650
Wire Wire Line
	5350 9600 5350 9650
$Comp
L CustomSymbols:APDS-9006 U?
U 1 1 60258873
P 5350 8900
AR Path="/5FEBF4E2/60258873" Ref="U?"  Part="1" 
AR Path="/5FEBF050/60258873" Ref="U?"  Part="1" 
AR Path="/60258873" Ref="U1"  Part="1" 
F 0 "U1" H 5628 8646 50  0000 L CNN
F 1 "APDS-9006" H 5628 8555 50  0000 L CNN
F 2 "CustomFootprints:ChipLED-4_1.6x3.2mm_Reverse" H 5350 9000 50  0001 C CNN
F 3 "https://docs.broadcom.com/doc/AV02-0053EN" H 5350 9000 50  0001 C CNN
	1    5350 8900
	1    0    0    -1  
$EndComp
$Comp
L power:GND #PWR?
U 1 1 60258879
P 5350 10000
AR Path="/5FEBEE19/60258879" Ref="#PWR?"  Part="1" 
AR Path="/5FEBF4E2/60258879" Ref="#PWR?"  Part="1" 
AR Path="/5FEBF050/60258879" Ref="#PWR?"  Part="1" 
AR Path="/60258879" Ref="#PWR014"  Part="1" 
F 0 "#PWR014" H 5350 9750 50  0001 C CNN
F 1 "GND" H 5355 9827 50  0000 C CNN
F 2 "" H 5350 10000 50  0001 C CNN
F 3 "" H 5350 10000 50  0001 C CNN
	1    5350 10000
	1    0    0    -1  
$EndComp
$Comp
L power:+3V3 #PWR?
U 1 1 6025887F
P 4300 8700
AR Path="/5FEBF4E2/6025887F" Ref="#PWR?"  Part="1" 
AR Path="/5FEBF050/6025887F" Ref="#PWR?"  Part="1" 
AR Path="/6025887F" Ref="#PWR08"  Part="1" 
F 0 "#PWR08" H 4300 8550 50  0001 C CNN
F 1 "+3V3" H 4242 8737 50  0000 R CNN
F 2 "" H 4300 8700 50  0001 C CNN
F 3 "" H 4300 8700 50  0001 C CNN
	1    4300 8700
	1    0    0    -1  
$EndComp
$Comp
L power:GND #PWR?
U 1 1 60258885
P 1350 1500
AR Path="/5FEBF050/60258885" Ref="#PWR?"  Part="1" 
AR Path="/60258885" Ref="#PWR01"  Part="1" 
F 0 "#PWR01" H 1350 1250 50  0001 C CNN
F 1 "GND" V 1355 1372 50  0000 R CNN
F 2 "" H 1350 1500 50  0001 C CNN
F 3 "" H 1350 1500 50  0001 C CNN
	1    1350 1500
	0    -1   -1   0   
$EndComp
$Comp
L power:+3V3 #PWR?
U 1 1 6025888B
P 1350 1600
AR Path="/5FEBF050/6025888B" Ref="#PWR?"  Part="1" 
AR Path="/6025888B" Ref="#PWR02"  Part="1" 
F 0 "#PWR02" H 1350 1450 50  0001 C CNN
F 1 "+3V3" V 1365 1728 50  0000 L CNN
F 2 "" H 1350 1600 50  0001 C CNN
F 3 "" H 1350 1600 50  0001 C CNN
	1    1350 1600
	0    1    1    0   
$EndComp
Wire Wire Line
	4000 3000 1350 3000
Wire Wire Line
	4000 7750 4000 4500
Wire Wire Line
	4100 5300 10400 5300
Wire Wire Line
	4100 2900 1350 2900
Wire Wire Line
	4100 5300 4100 4500
Wire Wire Line
	4200 5200 9600 5200
Wire Wire Line
	4200 2800 1350 2800
Wire Wire Line
	4200 5200 4200 4500
Wire Wire Line
	4300 5100 8800 5100
Wire Wire Line
	4300 2700 1350 2700
Wire Wire Line
	4300 5100 4300 4500
Wire Wire Line
	4400 5000 8000 5000
Wire Wire Line
	4400 2600 1350 2600
Wire Wire Line
	4400 5000 4400 4500
Wire Wire Line
	4500 4900 7200 4900
Wire Wire Line
	4500 2500 1350 2500
Wire Wire Line
	4500 4900 4500 4500
Wire Wire Line
	4600 4800 6400 4800
Wire Wire Line
	4600 2400 1350 2400
Wire Wire Line
	4600 4800 4600 4500
Wire Wire Line
	4700 2300 1350 2300
Wire Wire Line
	4700 4700 4700 4500
Wire Wire Line
	4800 2200 1350 2200
Wire Wire Line
	5650 2100 5550 2100
Wire Wire Line
	5650 2300 5650 2100
Wire Wire Line
	5750 2000 5550 2000
Wire Wire Line
	5750 2200 5750 2000
Wire Wire Line
	5850 1900 5550 1900
Wire Wire Line
	5850 2100 5850 1900
Wire Wire Line
	5950 1800 5550 1800
Wire Wire Line
	5950 2000 5950 1800
Wire Wire Line
	5300 6850 5500 6850
Connection ~ 5300 6850
Wire Wire Line
	10700 4600 10700 3850
Wire Wire Line
	10700 1400 9950 1400
Wire Wire Line
	10700 1500 10700 1400
Wire Wire Line
	10400 2300 10400 1700
Wire Wire Line
	10700 3100 10700 3150
$Comp
L Device:LED D?
U 1 1 602588D1
P 10700 3300
AR Path="/5FEBF050/602588D1" Ref="D?"  Part="1" 
AR Path="/602588D1" Ref="D10"  Part="1" 
F 0 "D10" V 10739 3182 50  0000 R CNN
F 1 "LED" V 10648 3182 50  0000 R CNN
F 2 "CustomFootprints:LED_Kingbright_AA3528SECKT_ReverseMount_NoHole_Alarm" H 10700 3300 50  0001 C CNN
F 3 "~" H 10700 3300 50  0001 C CNN
	1    10700 3300
	0    -1   -1   0   
$EndComp
$Comp
L power:GND #PWR?
U 1 1 60258901
P 5300 7950
AR Path="/5FEBF050/60258901" Ref="#PWR?"  Part="1" 
AR Path="/60258901" Ref="#PWR013"  Part="1" 
F 0 "#PWR013" H 5300 7700 50  0001 C CNN
F 1 "GND" H 5305 7777 50  0000 C CNN
F 2 "" H 5300 7950 50  0001 C CNN
F 3 "" H 5300 7950 50  0001 C CNN
	1    5300 7950
	1    0    0    -1  
$EndComp
Wire Wire Line
	5300 6750 5300 6850
$Comp
L power:+3V3 #PWR?
U 1 1 60258908
P 5300 6750
AR Path="/5FEBF050/60258908" Ref="#PWR?"  Part="1" 
AR Path="/60258908" Ref="#PWR012"  Part="1" 
F 0 "#PWR012" H 5300 6600 50  0001 C CNN
F 1 "+3V3" H 5315 6923 50  0000 C CNN
F 2 "" H 5300 6750 50  0001 C CNN
F 3 "" H 5300 6750 50  0001 C CNN
	1    5300 6750
	1    0    0    -1  
$EndComp
Wire Wire Line
	5500 6850 5500 6950
Wire Wire Line
	5100 6850 5300 6850
Wire Wire Line
	5100 6950 5100 6850
$Comp
L Device:R R?
U 1 1 60258911
P 5500 7400
AR Path="/5FEBF050/60258911" Ref="R?"  Part="1" 
AR Path="/60258911" Ref="R39"  Part="1" 
F 0 "R39" H 5570 7446 50  0000 L CNN
F 1 "140" H 5570 7355 50  0000 L CNN
F 2 "Resistor_SMD:R_0805_2012Metric" V 5430 7400 50  0001 C CNN
F 3 "~" H 5500 7400 50  0001 C CNN
	1    5500 7400
	1    0    0    -1  
$EndComp
$Comp
L Device:R R?
U 1 1 60258917
P 5100 7400
AR Path="/5FEBF050/60258917" Ref="R?"  Part="1" 
AR Path="/60258917" Ref="R27"  Part="1" 
F 0 "R27" H 5170 7446 50  0000 L CNN
F 1 "140" H 5170 7355 50  0000 L CNN
F 2 "Resistor_SMD:R_0805_2012Metric" V 5030 7400 50  0001 C CNN
F 3 "~" H 5100 7400 50  0001 C CNN
	1    5100 7400
	1    0    0    -1  
$EndComp
Wire Wire Line
	8900 1350 8900 1400
$Comp
L power:+3V3 #PWR?
U 1 1 6025891E
P 8900 950
AR Path="/5FEBF050/6025891E" Ref="#PWR?"  Part="1" 
AR Path="/6025891E" Ref="#PWR016"  Part="1" 
F 0 "#PWR016" H 8900 800 50  0001 C CNN
F 1 "+3V3" H 8915 1123 50  0000 C CNN
F 2 "" H 8900 950 50  0001 C CNN
F 3 "" H 8900 950 50  0001 C CNN
	1    8900 950 
	1    0    0    -1  
$EndComp
Wire Wire Line
	9650 1700 9650 2200
Wire Wire Line
	8900 1700 8900 2100
Wire Wire Line
	8150 1700 8150 2000
Wire Wire Line
	7900 6200 8300 6200
Connection ~ 7900 6200
Wire Wire Line
	8450 1500 8450 1400
Wire Wire Line
	9200 1500 9200 1400
Wire Wire Line
	9950 1400 9950 1500
Wire Wire Line
	7700 1500 7700 1400
$Comp
L Device:R R?
U 1 1 6025892E
P 5900 5550
AR Path="/5FEBF050/6025892E" Ref="R?"  Part="1" 
AR Path="/6025892E" Ref="R43"  Part="1" 
F 0 "R43" H 5970 5596 50  0000 L CNN
F 1 "33" H 5970 5505 50  0000 L CNN
F 2 "Resistor_SMD:R_0805_2012Metric" V 5830 5550 50  0001 C CNN
F 3 "~" H 5900 5550 50  0001 C CNN
	1    5900 5550
	1    0    0    -1  
$EndComp
$Comp
L Device:R R?
U 1 1 60258934
P 6700 5550
AR Path="/5FEBF050/60258934" Ref="R?"  Part="1" 
AR Path="/60258934" Ref="R44"  Part="1" 
F 0 "R44" H 6770 5596 50  0000 L CNN
F 1 "33" H 6770 5505 50  0000 L CNN
F 2 "Resistor_SMD:R_0805_2012Metric" V 6630 5550 50  0001 C CNN
F 3 "~" H 6700 5550 50  0001 C CNN
	1    6700 5550
	1    0    0    -1  
$EndComp
$Comp
L Device:R R?
U 1 1 6025893A
P 7500 5550
AR Path="/5FEBF050/6025893A" Ref="R?"  Part="1" 
AR Path="/6025893A" Ref="R45"  Part="1" 
F 0 "R45" H 7570 5596 50  0000 L CNN
F 1 "33" H 7570 5505 50  0000 L CNN
F 2 "Resistor_SMD:R_0805_2012Metric" V 7430 5550 50  0001 C CNN
F 3 "~" H 7500 5550 50  0001 C CNN
	1    7500 5550
	1    0    0    -1  
$EndComp
$Comp
L Device:R R?
U 1 1 60258940
P 8300 5550
AR Path="/5FEBF050/60258940" Ref="R?"  Part="1" 
AR Path="/60258940" Ref="R47"  Part="1" 
F 0 "R47" H 8370 5596 50  0000 L CNN
F 1 "33" H 8370 5505 50  0000 L CNN
F 2 "Resistor_SMD:R_0805_2012Metric" V 8230 5550 50  0001 C CNN
F 3 "~" H 8300 5550 50  0001 C CNN
	1    8300 5550
	1    0    0    -1  
$EndComp
$Comp
L Device:R R?
U 1 1 60258946
P 9100 5550
AR Path="/5FEBF050/60258946" Ref="R?"  Part="1" 
AR Path="/60258946" Ref="R50"  Part="1" 
F 0 "R50" H 9170 5596 50  0000 L CNN
F 1 "33" H 9170 5505 50  0000 L CNN
F 2 "Resistor_SMD:R_0805_2012Metric" V 9030 5550 50  0001 C CNN
F 3 "~" H 9100 5550 50  0001 C CNN
	1    9100 5550
	1    0    0    -1  
$EndComp
$Comp
L Device:R R?
U 1 1 6025894C
P 9900 5550
AR Path="/5FEBF050/6025894C" Ref="R?"  Part="1" 
AR Path="/6025894C" Ref="R53"  Part="1" 
F 0 "R53" H 9970 5596 50  0000 L CNN
F 1 "33" H 9970 5505 50  0000 L CNN
F 2 "Resistor_SMD:R_0805_2012Metric" V 9830 5550 50  0001 C CNN
F 3 "~" H 9900 5550 50  0001 C CNN
	1    9900 5550
	1    0    0    -1  
$EndComp
$Comp
L Device:R R?
U 1 1 60258952
P 10700 5550
AR Path="/5FEBF050/60258952" Ref="R?"  Part="1" 
AR Path="/60258952" Ref="R57"  Part="1" 
F 0 "R57" H 10770 5596 50  0000 L CNN
F 1 "33" H 10770 5505 50  0000 L CNN
F 2 "Resistor_SMD:R_0805_2012Metric" V 10630 5550 50  0001 C CNN
F 3 "~" H 10700 5550 50  0001 C CNN
	1    10700 5550
	1    0    0    -1  
$EndComp
Wire Wire Line
	6700 5400 6700 4100
Wire Wire Line
	5900 5400 5900 4000
Wire Wire Line
	7500 5400 7500 4200
Wire Wire Line
	9100 5400 9100 4400
Wire Wire Line
	9900 5400 9900 4500
Wire Wire Line
	10700 4600 10700 5400
Wire Wire Line
	5100 6100 5100 6200
Wire Wire Line
	5900 6200 5900 6100
Wire Wire Line
	10700 6200 10700 6100
Connection ~ 5900 6200
Wire Wire Line
	9900 6100 9900 6200
Connection ~ 9900 6200
Wire Wire Line
	9100 6100 9100 6200
Connection ~ 9100 6200
Wire Wire Line
	8300 6100 8300 6200
Connection ~ 8300 6200
Wire Wire Line
	7500 6100 7500 6200
Connection ~ 7500 6200
Wire Wire Line
	6700 6100 6700 6200
Connection ~ 6700 6200
Wire Wire Line
	7900 6200 7900 6300
$Comp
L power:GND #PWR?
U 1 1 6025896D
P 7900 6300
AR Path="/5FEBF050/6025896D" Ref="#PWR?"  Part="1" 
AR Path="/6025896D" Ref="#PWR015"  Part="1" 
F 0 "#PWR015" H 7900 6050 50  0001 C CNN
F 1 "GND" H 7905 6127 50  0000 C CNN
F 2 "" H 7900 6300 50  0001 C CNN
F 3 "" H 7900 6300 50  0001 C CNN
	1    7900 6300
	1    0    0    -1  
$EndComp
Wire Wire Line
	8300 4300 8300 5400
Wire Wire Line
	4700 4700 5600 4700
Wire Wire Line
	5200 4000 5900 4000
Wire Wire Line
	5300 4100 6700 4100
$Comp
L Device:LED D2
U 1 1 6025897D
P 5500 7100
AR Path="/6025897D" Ref="D2"  Part="1" 
AR Path="/5FEBF050/6025897D" Ref="D?"  Part="1" 
F 0 "D2" V 5539 6982 50  0000 R CNN
F 1 "LED" V 5448 6982 50  0000 R CNN
F 2 "CustomFootprints:LED_Kingbright_AA3528SECKT_ReverseMount_NoHole_Dot" H 5500 7100 50  0001 C CNN
F 3 "~" H 5500 7100 50  0001 C CNN
	1    5500 7100
	0    -1   -1   0   
$EndComp
$Comp
L Device:LED D1
U 1 1 60258983
P 5100 7100
AR Path="/60258983" Ref="D1"  Part="1" 
AR Path="/5FEBF050/60258983" Ref="D?"  Part="1" 
F 0 "D1" V 5139 6982 50  0000 R CNN
F 1 "LED" V 5048 6982 50  0000 R CNN
F 2 "CustomFootprints:LED_Kingbright_AA3528SECKT_ReverseMount_NoHole_Dot" H 5100 7100 50  0001 C CNN
F 3 "~" H 5100 7100 50  0001 C CNN
	1    5100 7100
	0    -1   -1   0   
$EndComp
$Comp
L Device:R R?
U 1 1 60258989
P 5400 1500
AR Path="/5FEBF050/60258989" Ref="R?"  Part="1" 
AR Path="/60258989" Ref="R31"  Part="1" 
F 0 "R31" V 5350 1300 50  0000 C CNN
F 1 "10" V 5400 1500 50  0000 C CNN
F 2 "Resistor_SMD:R_0805_2012Metric" V 5330 1500 50  0001 C CNN
F 3 "~" H 5400 1500 50  0001 C CNN
	1    5400 1500
	0    1    1    0   
$EndComp
Wire Wire Line
	8600 1150 6300 1150
Wire Wire Line
	6300 1150 6300 1500
Wire Wire Line
	6300 1500 5550 1500
$Comp
L Device:R R?
U 1 1 60258992
P 5000 950
AR Path="/5FEBF050/60258992" Ref="R?"  Part="1" 
AR Path="/60258992" Ref="R24"  Part="1" 
F 0 "R24" H 4950 800 50  0000 L CNN
F 1 "100k" V 5000 850 50  0000 L CNN
F 2 "Resistor_SMD:R_0805_2012Metric" V 4930 950 50  0001 C CNN
F 3 "~" H 5000 950 50  0001 C CNN
	1    5000 950 
	1    0    0    -1  
$EndComp
Wire Wire Line
	2900 1500 5000 1500
Wire Wire Line
	5000 1100 5000 1500
Connection ~ 5000 1500
Wire Wire Line
	5000 1500 5250 1500
Wire Wire Line
	4800 750  5000 750 
Wire Wire Line
	5000 750  5000 800 
Connection ~ 4800 750 
$Comp
L Connector_Generic:Conn_01x18 J?
U 1 1 6025899F
P 1150 2200
AR Path="/5FEBF050/6025899F" Ref="J?"  Part="1" 
AR Path="/6025899F" Ref="J1"  Part="1" 
F 0 "J1" H 1229 2192 50  0000 L CNN
F 1 "Conn_01x18" H 1229 2101 50  0000 L CNN
F 2 "Connector_PinHeader_2.54mm:PinHeader_2x09_P2.54mm_Vertical_SMD" H 1150 2200 50  0001 C CNN
F 3 "~" H 1150 2200 50  0001 C CNN
	1    1150 2200
	-1   0    0    -1  
$EndComp
Wire Wire Line
	2900 1500 2900 3100
Wire Wire Line
	2900 3100 1350 3100
Wire Wire Line
	2700 1400 1350 1400
Wire Wire Line
	2700 1400 2700 9650
Text Notes 1350 1400 0    50   ~ 0
AMBIENT_LIGHT_SENSOR
Text Notes 1350 1700 0    50   ~ 0
DISP_DIGIT1
Text Notes 1350 1800 0    50   ~ 0
DISP_DIGIT2
Text Notes 1350 1900 0    50   ~ 0
DISP_DIGIT3
Text Notes 1350 2000 0    50   ~ 0
DISP_DIGIT4
Text Notes 1350 2100 0    50   ~ 0
DISP_DIGIT5
Text Notes 1350 2200 0    50   ~ 0
DISP_SEG1
Text Notes 1350 2300 0    50   ~ 0
DISP_SEG2
Text Notes 1350 2400 0    50   ~ 0
DISP_SEG3
Text Notes 1350 2500 0    50   ~ 0
DISP_SEG4
Text Notes 1350 2600 0    50   ~ 0
DISP_SEG5
Text Notes 1350 2700 0    50   ~ 0
DISP_SEG6
Text Notes 1350 2800 0    50   ~ 0
DISP_SEG7
Text Notes 1350 2900 0    50   ~ 0
DISP_SEG8
Text Notes 1350 3000 0    50   ~ 0
DISP_COLON_PWM
Text Notes 1350 3100 0    50   ~ 0
DISP_PWM
$Comp
L power:PWR_FLAG #FLG02
U 1 1 60477E1A
P 2100 3550
F 0 "#FLG02" H 2100 3625 50  0001 C CNN
F 1 "PWR_FLAG" H 2100 3723 50  0000 C CNN
F 2 "" H 2100 3550 50  0001 C CNN
F 3 "~" H 2100 3550 50  0001 C CNN
	1    2100 3550
	1    0    0    -1  
$EndComp
$Comp
L power:PWR_FLAG #FLG01
U 1 1 60478646
P 1850 3550
F 0 "#FLG01" H 1850 3625 50  0001 C CNN
F 1 "PWR_FLAG" H 1850 3723 50  0000 C CNN
F 2 "" H 1850 3550 50  0001 C CNN
F 3 "~" H 1850 3550 50  0001 C CNN
	1    1850 3550
	-1   0    0    1   
$EndComp
$Comp
L power:+3V3 #PWR?
U 1 1 60478C17
P 1850 3550
AR Path="/5FEBF050/60478C17" Ref="#PWR?"  Part="1" 
AR Path="/60478C17" Ref="#PWR05"  Part="1" 
F 0 "#PWR05" H 1850 3400 50  0001 C CNN
F 1 "+3V3" H 1865 3723 50  0000 C CNN
F 2 "" H 1850 3550 50  0001 C CNN
F 3 "" H 1850 3550 50  0001 C CNN
	1    1850 3550
	1    0    0    -1  
$EndComp
$Comp
L power:GND #PWR?
U 1 1 60479126
P 2100 3550
AR Path="/5FEBF050/60479126" Ref="#PWR?"  Part="1" 
AR Path="/60479126" Ref="#PWR06"  Part="1" 
F 0 "#PWR06" H 2100 3300 50  0001 C CNN
F 1 "GND" H 2105 3377 50  0000 C CNN
F 2 "" H 2100 3550 50  0001 C CNN
F 3 "" H 2100 3550 50  0001 C CNN
	1    2100 3550
	1    0    0    -1  
$EndComp
$Comp
L CustomSymbols:7SegSpacer U2
U 1 1 602FE6CC
P 6400 3100
F 0 "U2" H 6750 3767 50  0000 C CNN
F 1 "7SegSpacer" H 6750 3676 50  0000 C CNN
F 2 "CustomFootprints:7SegSpacer" H 6750 3676 50  0001 C CNN
F 3 "https://www.kingbrightusa.com/images/catalog/SPEC/ACSA08-51SURKWA.pdf" H 6400 3100 50  0001 C CNN
	1    6400 3100
	1    0    0    -1  
$EndComp
Wire Wire Line
	5800 3400 6050 3400
Wire Wire Line
	5700 3300 6050 3300
Wire Wire Line
	5600 3200 6050 3200
Wire Wire Line
	5500 3100 6050 3100
Wire Wire Line
	5400 3000 6050 3000
Wire Wire Line
	5300 2900 6050 2900
Wire Wire Line
	5200 2800 6050 2800
Wire Wire Line
	5100 2700 6050 2700
Wire Wire Line
	7450 2700 7700 2700
Wire Wire Line
	7450 2800 8450 2800
Wire Wire Line
	7450 2900 9200 2900
Wire Wire Line
	7450 3000 9950 3000
$Comp
L power:GND #PWR?
U 1 1 604C9EA2
P 6750 3700
AR Path="/5FEBF050/604C9EA2" Ref="#PWR?"  Part="1" 
AR Path="/604C9EA2" Ref="#PWR0101"  Part="1" 
F 0 "#PWR0101" H 6750 3450 50  0001 C CNN
F 1 "GND" H 6755 3527 50  0000 C CNN
F 2 "" H 6750 3700 50  0001 C CNN
F 3 "" H 6750 3700 50  0001 C CNN
	1    6750 3700
	1    0    0    -1  
$EndComp
Wire Wire Line
	7450 3100 10700 3100
$Comp
L Mechanical:MountingHole H1
U 1 1 6051C2DA
P 1000 5000
F 0 "H1" H 1100 5046 50  0000 L CNN
F 1 "MountingHole" H 1100 4955 50  0000 L CNN
F 2 "CustomFootprints:Spacer_Wurth_9774025360R" H 1000 5000 50  0001 C CNN
F 3 "~" H 1000 5000 50  0001 C CNN
	1    1000 5000
	1    0    0    -1  
$EndComp
$Comp
L Mechanical:MountingHole H2
U 1 1 6051DA53
P 1000 5200
F 0 "H2" H 1100 5246 50  0000 L CNN
F 1 "MountingHole" H 1100 5155 50  0000 L CNN
F 2 "CustomFootprints:Spacer_Wurth_9774025360R" H 1000 5200 50  0001 C CNN
F 3 "~" H 1000 5200 50  0001 C CNN
	1    1000 5200
	1    0    0    -1  
$EndComp
$Comp
L Mechanical:MountingHole H3
U 1 1 6051DFC5
P 1000 5400
F 0 "H3" H 1100 5446 50  0000 L CNN
F 1 "MountingHole" H 1100 5355 50  0000 L CNN
F 2 "CustomFootprints:Spacer_Wurth_9774025360R" H 1000 5400 50  0001 C CNN
F 3 "~" H 1000 5400 50  0001 C CNN
	1    1000 5400
	1    0    0    -1  
$EndComp
$Comp
L Mechanical:MountingHole H4
U 1 1 6051E2C6
P 1000 5600
F 0 "H4" H 1100 5646 50  0000 L CNN
F 1 "MountingHole" H 1100 5555 50  0000 L CNN
F 2 "CustomFootprints:Spacer_Wurth_9774025360R" H 1000 5600 50  0001 C CNN
F 3 "~" H 1000 5600 50  0001 C CNN
	1    1000 5600
	1    0    0    -1  
$EndComp
Wire Wire Line
	5100 2700 5100 5400
Wire Wire Line
	5200 2800 5200 4000
Wire Wire Line
	5300 2900 5300 4100
Wire Wire Line
	5400 3000 5400 4200
Wire Wire Line
	5500 3100 5500 4300
Wire Wire Line
	5600 3200 5600 4400
Wire Wire Line
	5700 3300 5700 4500
Wire Wire Line
	5800 3400 5800 4600
$EndSCHEMATC
